(;FF[4]
CA[UTF-8]
GM[1]
DT[2017-11-14]
PC[OGS: https://online-go.com/game/10606084]
GN[Friendly Match]
PB[Wolf4130]
PW[mlopezviedma]
BR[18k]
WR[7k]
TM[0]OT[0 none]
RE[W+R]
SZ[19]
KM[6.5]
RU[Japanese]
;B[pd]
;W[dd]
;B[pp]
C[Wolf4130: Have a good game 
]
;W[dq]
;B[do]
;W[co]
;B[cn]
C[mlopezviedma: you too!
]
;W[cp]
;B[dn]
;W[fq]
;B[dj]
;W[nc]
;B[qf]
)