(;FF[4]
CA[UTF-8]
GM[1]
DT[2018-02-20]
PC[OGS: https://online-go.com/game/11751112]
GN[Ladder Challenge: mlopezviedma(#807) vs yanshan1962(#492)]
PB[mlopezviedma]
PW[yanshan1962]
BR[7k]
WR[6k]
TM[259200]OT[86400 fischer]
RE[W+R]
SZ[19]
KM[6.5]
RU[Japanese]
C[mlopezviedma: Hi, have fun
]
;B[pd]
;W[dp]
;B[qp]
;W[cd]
;B[ed]
;W[op]
C[yanshan1962: hi
]
;B[oq]
;W[ec]
;B[fc]
;W[nq]
;B[pq]
;W[dc]
;B[fd]
;W[np]
;B[nc]
;W[fq]
;B[cp]
;W[cq]
;B[co]
;W[do]
;B[cn]
;W[dg]
;B[jd]
;W[qj]
;B[jp]
;W[kq]
;B[hq]
;W[kp]
;B[jn]
;W[io]
;B[jo]
;W[ip]
;B[iq]
;W[go]
;B[in]
;W[gp]
;B[jq]
;W[gm]
;B[pn]
;W[ln]
;B[kl]
;W[om]
;B[ql]
;W[pk]
;B[pl]
;W[ol]
;B[ok]
;W[oj]
;B[nk]
;W[mm]
;B[pi]
;W[pj]
;B[mi]
;W[ni]
;B[mj]
;W[nh]
;B[pg]
;W[rg]
;B[qi]
;W[ri]
;B[qg]
;W[rf]
;B[rd]
;W[mh]
;B[lh]
;W[mf]
;B[lg]
;W[ne]
;B[pe]
;W[ke]
;B[kd]
;W[jf]
;B[jh]
;W[ig]
;B[fg]
;W[gf]
;B[ff]
;W[hi]
;B[hd]
;W[jj]
;B[ii]
;W[ij]
;B[hj]
;W[hh]
;B[hk]
;W[kk]
;B[lk]
;W[jl]
;B[ll]
;W[km]
;B[jm]
;W[il]
;B[hm]
;W[hl]
;B[gn]
;W[fn]
;B[gl]
;W[hn]
;B[im]
;W[gk]
;B[fl]
;W[gj]
;B[kn]
;W[lm]
;B[lo]
;W[mo]
;B[nm]
;W[nl]
;B[nn]
;W[nj]
;B[mk]
;W[on]
C[mlopezviedma: Thanks for the game!
]
)