(;FF[4]
CA[UTF-8]
GM[1]
DT[2014-12-10]
PC[OGS: https://online-go.com/game/1207808]
GN[Arrancando en OGS]
PB[spiridon]
PW[mlopezviedma]
BR[?]
WR[15k]
TM[3600]OT[5x30 byo-yomi]
RE[W+59.5]
SZ[19]
KM[0.5]
RU[Japanese]
C[mlopezviedma: Esaaa :)
mlopezviedma: Sos negras
]
;B[qd]
;W[dd]
;B[pp]
C[spiridon: :)
]
;W[dp]
C[mlopezviedma: Activé "análisis"
]
;B[fq]
C[mlopezviedma: en el menú de la derecha aparece "analyse game"
]
;W[cn]
C[spiridon: joya
mlopezviedma: es unrated, así que cualquier cagada que nos mandemos, no influye en el ranking :P
spiridon: ah bien!
mlopezviedma: una vez que manejes bien todo, le mandás rated
spiridon: vale
spiridon: esta bueno
mlopezviedma: ;)
mlopezviedma: Le puse bocha de tiempo, como verás. Igual se puede pausar en cualquier momento
spiridon: respondi
spiridon: o no?
mlopezviedma: no. estas en modo analisis?
mlopezviedma: apretá escape
mlopezviedma: o "volver a la partida"
]
;B[pj]
C[mlopezviedma: ta. ;)
spiridon: ahi va
spiridon: me parecio
spiridon: abri una variante
mlopezviedma: claro
mlopezviedma: donde dice "compartir variante" la ponés en el chat
]
;W[oc]
C[spiridon: ah super comodo!
mlopezviedma: seee
]
;B[pf]
C[mlopezviedma: incluso letras y todo :P. From move 9: R17 S17 Q16 R15 
spiridon: :D
]
;W[ip]
C[mlopezviedma: =). From move 10: 
spiridon: <,oD
mlopezviedma: te gustaría esto, no?. From move 10: B14 C14 D14 E14 F14 G14 H15 H16 H17 H17 H18 H17 
]
;B[nq]
C[spiridon: un tanto naif digamos
spiridon: :)
mlopezviedma: apretando ctrl ponés coordenadas
spiridon: el sueño'el pibe
mlopezviedma: D10 K10 G13
mlopezviedma: y si pasás el mouse se ve en el tablero
mlopezviedma: xD
]
;W[eq]
C[spiridon: jugue horrible
mlopezviedma: Naaah
]
;B[fp]
;W[lq]
C[mlopezviedma: cualquier moco grave, hacés click en deshacer, con eso me "pedís" volver para atrás
spiridon: ah bien
mlopezviedma: yo puedo o no aceptar
spiridon: igual espero no recurrir jamas a ese subterfugio
mlopezviedma: jaja
mlopezviedma: pifie con el mouse, eso puede pasar
]
;B[pm]
C[spiridon: ah claro
mlopezviedma: por ejemplo. From move 15: A12 
mlopezviedma: jaja
spiridon: :S
]
;W[qp]
;B[qo]
;W[pq]
;B[qq]
;W[op]
;B[po]
;W[oq]
C[spiridon: mira lo que hice!
mlopezviedma: qué? vas bien!
mlopezviedma: demasiado abocado a ese lado capás, pero eso es todo
mlopezviedma: capaZ (bruuuto)
spiridon: :P
]
;B[rp]
;W[no]
C[mlopezviedma: Che, me voy a tener que ir al partido. La pausamos?
spiridon: dale
mlopezviedma: la seguimos más tarde si podés
spiridon: dejo esto abierto!
mlopezviedma: igual podés jugar, se pausan los relojes nomás
mlopezviedma: ok
spiridon: vale
spiridon: ta luego!
mlopezviedma: ta luego! 
mlopezviedma: y perdón! :S
spiridon: ;)
mlopezviedma: Estoy
mlopezviedma: Voy y vuelvo de la compu para cocinar, pero estoy
spiridon: vale
spiridon: estoy jugando con la idea de un foro en mil3
spiridon: date una vuelta
]
;B[fc]
C[mlopezviedma: a ver
spiridon: abri :discussion:main
mlopezviedma: aah bien
mlopezviedma: buena punta esa
spiridon: bravo de mantener tal vez, pero simple
spiridon: un experimento
mlopezviedma: claro, depende que lo usen correctamente
]
;W[cf]
C[spiridon: mm si
spiridon: para nosotros por ahora
]
;B[jd]
C[mlopezviedma: más vale
]
;W[lc]
;B[kc]
;W[ld]
C[mlopezviedma: Ya cambié esos errores que me marcaste :)
spiridon: :)
mlopezviedma: Luego subo la versión nueva
]
;B[dh]
C[spiridon: sigue pausado el juego... o es mi browser?
mlopezviedma: sigue pausado
mlopezviedma: reanudamos?
]
;W[ck]
C[spiridon: a mi el tiempo no me agrega nada la verdad
spiridon: como quieras
mlopezviedma: posta
mlopezviedma: cualquier cosa lo volvemos a pausar
]
;B[ek]
;W[em]
;B[gn]
;W[fl]
;B[fk]
;W[gl]
;B[hk]
;W[gk]
;B[gj]
;W[hj]
;B[hm]
C[spiridon: fsck
spiridon: se me corrio el mouse
spiridon: :(
mlopezviedma: mandale deshacer
spiridon: vuelvo
mlopezviedma: ;)
mlopezviedma: viste que pasa
spiridon: ahi va
spiridon: pasa, es cierto :(
]
;W[hl]
C[mlopezviedma: uno dice "hay que ser pelot..." hasta que te pasa a vos xD
]
;B[ik]
;W[im]
;B[il]
;W[in]
;B[ef]
C[mlopezviedma: está linda la partida :)
spiridon: mmm
spiridon: lo veo negro, y no por las piedras :/
mlopezviedma: jaja
spiridon: n e g r o
spiridon: por que sale asi?
mlopezviedma: ^^
mlopezviedma: así cómo?
spiridon: yo veo "n e g r o" como $*!%
mlopezviedma: aah, tenés el filtro de groserías activado
mlopezviedma: lo podés sacar en preferencias
spiridon: mmmh
spiridon: jejejje
mlopezviedma: jeje
mlopezviedma: probaste el autocompletado de usuarios?
mlopezviedma: m<tab>
spiridon: mmm no
mlopezviedma: :)
spiridon: paaaah
spiridon: genial!
mlopezviedma: estos tipos están en todas, no?
spiridon: copadisimo laburo!
mlopezviedma: cuando termine la partida te muestro la herramienta de revisión
spiridon: dale!
mlopezviedma: ahora vamos a morfar algo con eli
mlopezviedma: la seguimos luego?
spiridon: en breve, si sigo asi
spiridon: dale!
mlopezviedma: jaja
spiridon: pausamos
mlopezviedma: ok
mlopezviedma: https://www.youtube.com/playlist?list=PLZW3HQcCpfNTdKtfP09CREMa6fkhMMAct
mlopezviedma: mientras me interesa tu opinión de este proyectito :)
spiridon: diria que el marketing no es la clase de herramienta que me entusiasmaria poner al servicio del go
spiridon: pero puede dar muy buen resultado
spiridon: en realidad soy mas bien reluctante a la movida publicitaria
spiridon: pero bueno, asi se estan moviendo las piedras hoy dia
spiridon: no?
mlopezviedma: volvi
mlopezviedma: Sí, tal cual.
mlopezviedma: pero estaría bueno que no llegue tan lejos eso en el go. Me copa ver que un club crezca así como estamos haciendo nosotros, boca a boca
mlopezviedma: la asociación creció así
mlopezviedma: seguimos?
spiridon: dale
spiridon: un toque y corto yo
spiridon: me reclaman ;)
mlopezviedma: jeje
]
;W[db]
;B[jg]
;W[fd]
C[mlopezviedma: oooh
mlopezviedma: mandale aceptar
mlopezviedma: ;)
spiridon: ahh ahora si
mlopezviedma: jeje
]
;B[gb]
C[mlopezviedma: mouse de mierda
spiridon: jaja
]
;W[fe]
;B[gd]
;W[ch]
;B[di]
;W[ci]
;B[hi]
;W[hq]
;B[ho]
;W[io]
;B[lm]
;W[nm]
;B[mo]
C[spiridon: una piedra mas y pauso
]
;W[mp]
C[mlopezviedma: ok
mlopezviedma: todavía está pausado igual
spiridon: ah :)
]
;B[on]
;W[nn]
C[spiridon: ahi vengo
spiridon: por ahi seguimos mañana
mlopezviedma: ok
mlopezviedma: cómo no
spiridon: back again
mlopezviedma: :)
]
;B[lo]
;W[kp]
;B[ij]
;W[jl]
C[mlopezviedma: qué tal? http://online-go.com/group/58
]
;B[lk]
;W[kl]
;B[ll]
;W[ol]
;B[pl]
;W[ok]
C[spiridon: esssaaaa!
]
;B[pk]
;W[qc]
C[mlopezviedma: te invité
spiridon: :)
]
;B[rd]
C[mlopezviedma: ahora podés chatear en la sala del grupo en http://online-go.com/chat
mlopezviedma: :)
spiridon: habra mucha gente che?
mlopezviedma: :P
]
;W[kf]
;B[jf]
;W[ke]
;B[jm]
;W[km]
C[spiridon: a veces se me ocurren jugadas malisimas y las hago de puro testarudo que soy nomas
]
;B[jn]
;W[kn]
C[mlopezviedma: jaja
mlopezviedma: es bueno eso!
]
;B[ko]
;W[ln]
C[mlopezviedma: es la manera de mejorar
]
;B[mn]
;W[jo]
;B[mm]
C[mlopezviedma: bien :)
]
;W[gf]
C[spiridon: :)
]
;B[hf]
;W[gg]
;B[fg]
;W[pd]
;B[ne]
;W[nd]
C[mlopezviedma: querés probar la beta de la version 4.2?
mlopezviedma: beta.online-go.com
mlopezviedma: te podes hacer cuenta y todo, para testear
spiridon: ahi voy
spiridon: para que me corto una vena con esa piedra que pusiste y voy
spiridon: :P
mlopezviedma: está siempre ahí, para publicar bugs y sugerencias en los foros
mlopezviedma: jajaj
]
;B[oe]
;W[me]
;B[mf]
C[spiridon: usa los mismos usuarios o me registro de nuevo?
]
;W[lf]
C[mlopezviedma: es "otro servidor" 
spiridon: bien
mlopezviedma: si queres probarlo registrate de nuevo
]
;B[je]
;W[lb]
;B[kb]
;W[rc]
;B[sc]
;W[sb]
;B[sd]
;W[ra]
;B[eo]
;W[do]
;B[fn]
;W[en]
;B[el]
;W[fm]
;B[fj]
;W[cq]
;B[fr]
;W[hr]
C[spiridon: podre vivir ahi?
mlopezviedma: creo que no :/
spiridon: me falta hacer mas problemas :/
mlopezviedma: nah, creo que ya antes estaba al horno
spiridon: ah mira
mlopezviedma: F6 y E8 estuvieron muy bien
spiridon: :)
mlopezviedma: ;D
]
;B[nj]
C[mlopezviedma: bieen
]
;W[mg]
C[spiridon: con la soga al cuello y el tipo a los manotazos
spiridon: :D
mlopezviedma: jajaj
]
;B[nf]
;W[lh]
;B[li]
;W[kh]
;B[jh]
;W[kj]
;B[lj]
;W[de]
;B[ji]
;W[jj]
;B[ki]
;W[qr]
;B[rr]
;W[pr]
;B[qs]
;W[ps]
;B[rs]
;W[ng]
;B[oh]
;W[mi]
;B[nl]
;W[om]
;B[nh]
;W[mh]
;B[nk]
;W[mj]
;B[mk]
;W[oo]
C[spiridon: hmmm
]
;B[pn]
;W[ec]
;B[eb]
;W[ea]
;B[fb]
;W[fa]
;B[ga]
;W[da]
;B[la]
;W[ma]
;B[ka]
;W[mb]
;B[dg]
;W[cg]
;B[gh]
C[mlopezviedma: Bien! esa puerta la dejaste abierta bastante tiemo :)
mlopezviedma: tiempo*
spiridon: jeje si
spiridon: y otras varias que me dejaste pasar, seguro
mlopezviedma: En el centro me regalaste bastante, después lo vemos bien ;)
]
;W[dl]
C[mlopezviedma: M12 no tendría que haber llegado tan lejos
spiridon: si, ahi te colaste demasiado
mlopezviedma: estuve poco piadoso
]
;B[hg]
C[spiridon: habia otra mejor que esa
mlopezviedma: H13 todavía está abierto
spiridon: metale entonces
mlopezviedma: y, ese grupo está bastante a salvo
mlopezviedma: volvé, si querés
spiridon: fue mala, si
spiridon: dale, total no nos toca el ranking
mlopezviedma: je
mlopezviedma: :)
]
;W[dk]
C[spiridon: le di deshacer
mlopezviedma: uy, perdón
spiridon: no dale, seguimos
mlopezviedma: aceptá vos entonces y mandale deshacer de nuevo
spiridon: si igual ya esta perdida
spiridon: bueno dale
]
;B[dj]
;W[cj]
;B[oj]
;W[pe]
;B[qe]
;W[od]
C[mlopezviedma: guarda con el atari
]
;B[of]
;W[kg]
C[spiridon: ufa
mlopezviedma: qué?
spiridon: yo queria jugar ahi desde hoy
spiridon: maldito sente
mlopezviedma: jajaja
mlopezviedma: sí, sente vale mucho
mlopezviedma: :)
]
;B[ge]
;W[ff]
;B[ni]
C[mlopezviedma: gote (lo opuesto de sente)
]
;W[kd]
C[mlopezviedma: yo creí que ibas a seguir jugando ahí
]
;B[ic]
;W[df]
;B[ee]
;W[ed]
C[mlopezviedma: eso :)
]
;B[eg]
C[spiridon: :)
]
;W[og]
;B[pg]
C[mlopezviedma: bueno, paso (hago click en pass)
]
;W[]
;B[]
C[mlopezviedma: te digo así no te mareás
mlopezviedma: es bastante intuitivo
mlopezviedma: le das aceptar
mlopezviedma: cuando ves que está como vos creés
mlopezviedma: :)
mlopezviedma: estuvo lindo, a pesar de la diferencia
spiridon: seee
spiridon: yo le di aceptar nomas
mlopezviedma: querés ver cómo es la revisión?
spiridon: dale!
mlopezviedma: ah, porque esta vez el sistema calculó bien
spiridon: a veces no???
mlopezviedma: pero a veces tenés que hacer click en grupos para correjir si están vivos o no
mlopezviedma: y, hay veces que sin un humano es bravo
spiridon: ah mira
mlopezviedma: voy
spiridon: y claro
]
)