(;FF[4]
CA[UTF-8]
GM[1]
DT[2018-06-23]
PC[OGS: https://online-go.com/game/13371822]
GN[mlopezviedma vs. fat]
PB[mlopezviedma]
PW[fat]
BR[7k]
WR[7k]
TM[1200]OT[5x30 byo-yomi]
RE[B+R]
SZ[19]
KM[6.5]
RU[Japanese]
C[mlopezviedma: Hi, have fun!
fat: hi gg
]
;B[pd]
;W[pp]
;B[dc]
;W[dp]
;B[cn]
;W[dl]
;B[cp]
;W[cq]
;B[bq]
;W[bp]
;B[co]
;W[br]
;B[dq]
;W[cr]
;B[ep]
;W[bo]
;B[ce]
;W[bm]
;B[bn]
;W[an]
;B[cm]
;W[bl]
;B[cl]
;W[bk]
;B[ck]
;W[cj]
;B[dj]
;W[dk]
;B[do]
;W[ci]
;B[ej]
;W[fl]
;B[fk]
;W[el]
;B[gl]
;W[gm]
;B[hl]
;W[fn]
;B[gp]
;W[hm]
;B[im]
;W[in]
;B[jn]
;W[io]
;B[em]
;W[fm]
;B[ik]
;W[jo]
;B[kn]
;W[hq]
;B[gq]
;W[hp]
;B[dr]
;W[eo]
;B[fo]
;W[en]
;B[hr]
;W[ir]
;B[fr]
;W[hs]
;B[gr]
;W[go]
;B[fp]
;W[es]
;B[ds]
;W[ko]
;B[qq]
;W[qp]
;B[pq]
;W[oq]
;B[or]
;W[nr]
;B[nq]
;W[op]
;B[mr]
;W[pr]
;B[ns]
;W[qr]
;B[jr]
;W[jq]
;B[kr]
;W[kq]
;B[np]
;W[ln]
;B[no]
;W[jm]
;B[il]
;W[km]
;B[pn]
;W[rq]
;B[jd]
;W[qc]
;B[pc]
;W[qd]
;B[qe]
;W[re]
;B[qf]
;W[rf]
;B[qg]
;W[rg]
;B[rn]
;W[qh]
;B[pe]
;W[me]
;B[mc]
;W[ld]
;B[kc]
;W[lc]
;B[lb]
;W[kb]
;B[mb]
;W[hc]
;B[jb]
;W[fc]
;B[fe]
;W[ge]
;B[gf]
;W[he]
;B[jf]
;W[hf]
;B[gg]
;W[hg]
;B[jh]
;W[gh]
;B[eg]
;W[ih]
;B[ii]
;W[hi]
;B[ji]
;W[ig]
;B[jg]
;W[hj]
;B[kk]
;W[eh]
;B[dh]
;W[di]
;B[fh]
;W[ei]
;B[fi]
;W[ff]
;B[fg]
;W[ef]
;B[ee]
;W[df]
;B[cg]
;W[fd]
;B[de]
;W[eb]
;B[gb]
;W[ib]
;B[hb]
;W[ic]
;B[ia]
;W[db]
;B[cb]
;W[jc]
;B[ka]
;W[kd]
;B[kb]
;W[je]
;B[gc]
;W[gd]
;B[ie]
;W[id]
;B[if]
;W[fb]
;B[ha]
;W[kf]
;B[lf]
;W[kg]
;B[lg]
;W[kh]
;B[li]
;W[lh]
;B[mh]
;W[mg]
;B[mf]
;W[ng]
;B[ki]
;W[ke]
;B[nf]
;W[og]
;B[mi]
;W[nc]
;B[md]
;W[ne]
;B[of]
;W[nb]
;B[le]
C[mlopezviedma: Thank you for the game!
]
)