(;FF[4]
CA[UTF-8]
GM[1]
DT[2018-07-09]
PC[OGS: https://online-go.com/game/13558291]
GN[Partida maestra]
PB[judarogu1]
PW[mlopezviedma]
BR[19k]
WR[6k]
TM[259200]OT[86400 fischer]
RE[W+R]
SZ[19]
KM[6.5]
RU[Japanese]
C[judarogu1: hola
mlopezviedma: Hola, buen juego!
]
;B[dd]
C[mlopezviedma: Hola, buen juego!
]
;W[pp]
;B[dp]
;W[pc]
)