(;FF[4]
CA[UTF-8]
GM[1]
DT[2018-07-29]
PC[OGS: https://online-go.com/game/13797882]
GN[Tournament Game: Torneio Integrativo Argentina·Brasil (38844) R:1 (Landroval vs mlopezviedma)]
PB[mlopezviedma]
PW[Landroval]
BR[7k]
WR[2d]
TM[172800]OT[28800 fischer]
RE[W+R]
SZ[19]
KM[6.5]
RU[Japanese]
C[mlopezviedma: Buena partida!
]
;B[qd]
;W[dp]
;B[pp]
C[Landroval: Buena partida che!
]
;W[dd]
;B[oc]
;W[qn]
;B[ql]
;W[qq]
;B[qp]
;W[pq]
;B[op]
;W[rp]
;B[ro]
;W[rq]
;B[qo]
;W[nq]
;B[cn]
;W[fq]
;B[dk]
;W[fc]
;B[jp]
;W[np]
;B[no]
;W[mo]
;B[nn]
;W[mn]
;B[gq]
;W[nm]
;B[om]
;W[ol]
;B[pm]
;W[gp]
;B[nl]
;W[mm]
;B[nk]
;W[hq]
;B[jn]
;W[on]
;B[pn]
;W[oo]
;B[rn]
C[mlopezviedma: No fue buen negocio todo esto xD
Landroval: jajaj no 
Landroval: Me parece que no hacía fatla sacrificaras las dos piedras. Yo lo hice ahora porque después iba a defender y ya esas dos piedras perdían valor
]
;W[oe]
;B[pf]
C[mlopezviedma: claro, entiendo...
]
;W[nc]
;B[od]
;W[nd]
;B[pe]
;W[ob]
;B[pb]
;W[jd]
;B[cp]
;W[cq]
;B[bq]
;W[co]
;B[bp]
;W[do]
;B[bo]
;W[cr]
;B[cg]
;W[jl]
;B[hn]
;W[io]
;B[in]
;W[jo]
;B[fn]
;W[dn]
;B[cm]
;W[dm]
;B[dl]
;W[fl]
;B[il]
;W[ik]
;B[jk]
;W[hl]
;B[kl]
;W[im]
;B[km]
;W[ko]
;B[em]
;W[el]
;B[gm]
;W[fj]
;B[ei]
;W[lk]
;B[kk]
;W[lj]
;B[ji]
;W[fi]
;B[fh]
;W[gh]
;B[fg]
;W[gg]
;B[hi]
;W[gi]
;B[jg]
;W[ff]
;B[ef]
;W[ej]
;B[di]
;W[dj]
;B[cj]
;W[ci]
C[mlopezviedma: muchas gracias!
Landroval: Gracias! Estuvo linda :)
]
)