(;FF[4]
CA[UTF-8]
GM[1]
DT[2018-08-22]
PC[OGS: https://online-go.com/game/14107440]
GN[Partida amistosa]
PB[mlopezviedma]
PW[Tanuki Rancio]
BR[7k]
WR[14k]
TM[604800]OT[5x86400 byo-yomi]
RE[B+R]
SZ[19]
RU[Japanese]
C[mlopezviedma: Byo yomi japonés en correspondencia? Qué raro xD
]
;B[pd]
C[mlopezviedma: Byo yomi japonés en correspondencia? Qué raro xD
]
(;W[dp]
C[Tanuki Rancio: ni idea de que se juega con correspondencia
Tanuki Rancio: jajaja
]
(;B[pq]
(;W[dd]
(;B[qn]
(;W[fq]
(;B[fc]
(;W[cf]
(;B[id]
(;W[kp]
(;B[ck]
(;W[ci]
(;B[cn]
(;W[dm]
(;B[cp]
(;W[cq]
(;B[cm]
(;W[do]
(;B[co]
(;W[nq]
(;B[pi]
(;W[gc]
(;B[gd]
(;W[hc]
(;B[hd]
(;W[ic]
(;B[jc]
(;W[jb]
(;B[kb]
(;W[ib]
(;B[kc]
)))))))))))))))))))))))))))))))