(;FF[4]
CA[UTF-8]
GM[1]
DT[2018-09-13]
PC[OGS: https://online-go.com/game/14382909]
GN[Ladder Challenge: doskee(#663) vs mlopezviedma(#651)]
PB[mlopezviedma]
PW[doskee]
BR[8k]
WR[8k]
TM[259200]OT[86400 fischer]
RE[W+R]
SZ[19]
KM[6.5]
RU[Japanese]
C[mlopezviedma: Hi, have fun!
doskee: hi, have fun too
]
;B[pd]
C[doskee: hi, have fun too
]
(;W[dq]
(;B[cd]
(;W[qp]
(;B[do]
(;W[co]
(;B[cn]
(;W[cp]
(;B[dn]
(;W[fq]
(;B[fc]
(;W[ci]
(;B[cg]
(;W[ck]
(;B[gn]
(;W[iq]
(;B[ek]
(;W[dh]
(;B[dg]
(;W[eh]
(;B[eg]
(;W[fh]
(;B[gf]
(;W[hh]
(;B[gi]
(;W[gh]
(;B[jn]
(;W[ii]
(;B[jp]
(;W[hp]
(;B[ep]
(;W[eq]
(;B[jq]
(;W[hn]
(;B[hm]
(;W[in]
(;B[im]
(;W[go]
(;B[fn]
(;W[ip]
(;B[jm]
(;W[oq]
(;B[qo]
(;W[po]
(;B[qn]
(;W[rp]
(;B[pn]
(;W[oo]
(;B[pj]
(;W[pg]
(;B[nd]
(;W[qf]
(;B[jd]
(;W[rd]
(;B[qc]
(;W[rj]
(;B[qh]
(;W[rg]
(;B[rh]
(;W[ph]
(;B[qi]
(;W[pl]
(;B[qk]
(;W[ql]
(;B[rk]
(;W[rl]
(;B[sl]
(;W[sm]
(;B[on]
(;W[sk]
(;B[oj]
(;W[nl]
(;B[nn]
(;W[mm]
(;B[mn]
(;W[mi]
(;B[nk]
(;W[ol]
(;B[mj]
(;W[lm]
(;B[ln]
(;W[li]
(;B[ml]
(;W[ll]
(;B[lk]
(;W[mk]
(;B[lj]
(;W[kk]
(;B[kj]
(;W[jk]
(;B[jj]
(;W[ij]
(;B[ik]
(;W[km]
(;B[kn]
(;W[kg]
(;B[ni]
(;W[qj]
(;B[pi]
(;W[nh]
C[mlopezviedma: Thanks for the game!
doskee: thanks too
]
))))))))))))))))))))))))))))))))))))))))))))))))))))))))))))))))))))))))))))))))))))))))))))))))))))