(;FF[4]
CA[UTF-8]
GM[1]
DT[2015-01-28]
PC[OGS: https://online-go.com/game/1442432]
GN[Teaching game]
PB[Tommer]
PW[mlopezviedma]
BR[?]
WR[11k]
TM[900]OT[15 fischer]
RE[B+R]
SZ[9]
KM[5.5]
RU[Japanese]
C[Tommer: Hi
mlopezviedma: Hi, have a good game :)
Tommer: Thanks, you too
]
;B[gc]
;W[cg]
;B[gg]
;W[dc]
;B[dd]
;W[cd]
;B[ec]
;W[de]
;B[ed]
;W[db]
;B[eb]
;W[eg]
;B[cc]
;W[cb]
;B[bc]
;W[bd]
;B[bb]
;W[ac]
;B[ca]
;W[ab]
;B[da]
;W[gf]
C[mlopezviedma: hey mark5000 :)
]
;B[aa]
;W[ad]
C[Tommer: oh not that was a bad idea
mlopezviedma: :)
mlopezviedma: You are doing very well though
]
;B[ff]
C[Tommer: thank you
]
;W[fg]
C[Tommer: it can be difficult to tell without being cued into some stuff
]
;B[hf]
;W[ge]
;B[gd]
;W[fe]
;B[ee]
;W[df]
;B[ef]
;W[hg]
C[mlopezviedma: I'm not sure I got that last thing you said
]
;B[gh]
;W[he]
C[Tommer: I assume that after a while you start recognizing common shapes and seeing more moves ahead without taking too much time thinking
mlopezviedma: oh, yes, of course :)
mlopezviedma: you'll notice that soon
]
;B[hd]
;W[if]
;B[cf]
;W[bf]
;B[id]
C[mlopezviedma: Hi Cyclyst . If you stay, we'll review this later
]
;W[ie]
C[Cyclyst: hi, sounds good
]
;B[hh]
;W[ih]
;B[fh]
;W[eh]
;B[dh]
;W[ei]
;B[dg]
;W[ch]
;B[ce]
;W[be]
;B[fi]
C[Tommer: good game
mlopezviedma: That's a great game you've played :)
Tommer: thank you!
mlopezviedma: I'm not sure if there's anything I can teach you
mlopezviedma: if you have any question, I'll open a review
Tommer: I'm not sure I have anything specific
Tommer: but
mlopezviedma: so, do I open one?
mlopezviedma: oh, Cyclyst left :(
Tommer: when I was playing with my friend earlier I kept getting caught in unwinnable shapes or bad trades. We haven't played too much but from what you've seen do you think I'm making bad starting shapes, or is it later decisions that get me in trouble
Tommer: and I'd be up for a review if you are
mlopezviedma: well, 9x9 does not give much space for shape, but it's more about tactical resources
mlopezviedma: and you seem to have that work in progress pretty well
mlopezviedma: I also made some mistakes myself
Tommer: it seems like ending up on the odd end of a back and forth can be pretty devastating
mlopezviedma: yeah
mlopezviedma: We can play another one if you want.
Tommer: I'd enjoy that
mlopezviedma: cool
]
)