(;FF[4]
CA[UTF-8]
GM[1]
DT[2018-10-02]
PC[OGS: https://online-go.com/game/14671660]
GN[Tournament Game: Torneo del canal Go en Español (41204) R:1 (mlopezviedma vs Kruxo)]
PB[Kruxo]
PW[mlopezviedma]
BR[8k]
WR[10k]
TM[259200]OT[86400 fischer]
RE[B+R]
SZ[19]
KM[6.5]
RU[Japanese]
C[mlopezviedma: Buena partida!
]
;B[qc]
C[mlopezviedma: Buena partida!
]
;W[dp]
;B[dd]
;W[pp]
;B[dn]
;W[fp]
;B[hq]
;W[cl]
C[Kruxo: Buena partida!
]
;B[co]
;W[ci]
;B[fn]
;W[go]
;B[gn]
;W[ho]
;B[kq]
;W[em]
;B[en]
;W[hn]
;B[gl]
;W[jp]
;B[jq]
;W[fi]
;B[cp]
;W[dq]
;B[cq]
;W[hm]
;B[gm]
;W[lp]
;B[lq]
;W[mp]
;B[pj]
;W[mq]
;B[fr]
;W[cr]
;B[bm]
;W[bl]
;B[er]
;W[dr]
;B[dm]
;W[el]
;B[dl]
;W[ek]
;B[dk]
;W[ej]
;B[mr]
;W[nr]
;B[lr]
;W[gq]
;B[gr]
;W[ik]
;B[br]
;W[fc]
;B[ec]
;W[fd]
;B[cc]
;W[jd]
;B[nd]
;W[qe]
;B[qg]
;W[pc]
;B[qd]
;W[pd]
;B[qb]
;W[pb]
;B[re]
;W[pe]
;B[rf]
;W[pg]
;B[mf]
;W[qh]
;B[rh]
;W[pi]
;B[ri]
;W[oj]
;B[mh]
;W[oi]
;B[kc]
;W[jc]
;B[kd]
;W[jf]
;B[ke]
;W[ig]
;B[ql]
;W[mj]
;B[nb]
;W[pm]
;B[qn]
;W[qm]
;B[rm]
;W[pl]
;B[qk]
;W[pn]
;B[qo]
;W[qp]
;B[po]
;W[oo]
;B[rp]
;W[rq]
;B[ro]
;W[qr]
;B[cg]
;W[dg]
;B[cf]
;W[df]
;B[de]
;W[ff]
;B[dh]
;W[dj]
;B[eh]
;W[fg]
;B[pk]
;W[ol]
;B[ok]
;W[nl]
;B[nk]
;W[mk]
;B[nj]
;W[ni]
;B[mi]
;W[qi]
;B[qf]
;W[ne]
;B[me]
;W[md]
;B[mc]
;W[od]
;B[nc]
;W[nf]
;B[pf]
C[mlopezviedma: Muchas gracias!
]
)