(;FF[4]
CA[UTF-8]
GM[1]
DT[2018-11-01]
PC[OGS: https://online-go.com/game/15101668]
GN[Tournament Game: Torneio Integrativo Argentina·Brasil (38844) R:2 (mlopezviedma vs efraimqe)]
PB[efraimqe]
PW[mlopezviedma]
BR[7k]
WR[10k]
TM[172800]OT[28800 fischer]
RE[B+R]
SZ[19]
KM[6.5]
RU[Japanese]
C[mlopezviedma: Hola, buena partida! :)
]
;B[pd]
C[mlopezviedma: Hola, buena partida! :)
]
;W[dp]
;B[pp]
;W[dd]
C[efraimqe: Bom jogo!
]
;B[pj]
;W[nc]
;B[pf]
;W[jd]
;B[fq]
;W[dn]
;B[jp]
;W[qc]
;B[pc]
;W[qd]
;B[qb]
;W[rb]
;B[pb]
;W[qe]
;B[qf]
;W[rf]
;B[rg]
;W[se]
;B[pe]
;W[ra]
;B[cf]
;W[ch]
;B[cc]
;W[cd]
;B[dc]
;W[ed]
;B[bd]
;W[be]
;B[bc]
;W[ce]
;B[fc]
;W[ck]
;B[dr]
;W[cq]
;B[fo]
;W[qq]
;B[pq]
;W[qp]
;B[po]
;W[qo]
;B[qn]
;W[rn]
;B[rm]
;W[qr]
;B[pr]
;W[so]
;B[pm]
;W[on]
;B[pn]
;W[jq]
;B[iq]
;W[kp]
;B[kq]
;W[jr]
;B[kr]
;W[ip]
;B[jo]
;W[hq]
;B[ir]
;W[hr]
;B[js]
;W[gp]
;B[fp]
;W[hn]
;B[fm]
;W[hl]
;B[fk]
;W[ej]
;B[fj]
;W[ei]
;B[hj]
;W[jm]
;B[jk]
;W[lm]
;B[lk]
;W[nl]
;B[nj]
;W[mo]
;B[mq]
;W[gn]
;B[fn]
;W[fr]
;B[er]
;W[fs]
;B[cr]
;W[hs]
;B[is]
;W[bq]
;B[dq]
;W[ik]
;B[ij]
;W[jj]
;B[ji]
;W[kj]
;B[kk]
;W[ki]
;B[kh]
;W[jh]
;B[ii]
;W[lh]
;B[kg]
;W[li]
;B[lg]
;W[mj]
;B[mk]
;W[ni]
;B[lj]
;W[mi]
;B[oi]
;W[nk]
;B[oj]
;W[mg]
;B[nh]
;W[mh]
;B[mf]
;W[ng]
;B[nf]
C[mlopezviedma: muchas gracias!
efraimqe: Obrigado!
]
)