(;FF[4]
CA[UTF-8]
GM[1]
DT[2018-11-01]
PC[OGS: https://online-go.com/game/15101657]
GN[Tournament Game: Torneio Integrativo Argentina·Brasil (38844) R:2 (Ramao vs mlopezviedma)]
PB[mlopezviedma]
PW[Ramao]
BR[9k]
WR[15k]
TM[172800]OT[28800 fischer]
RE[B+T]
SZ[19]
KM[6.5]
RU[Japanese]
C[mlopezviedma: Buena partida!
Ramao: Hola buen juego
]
;B[pd]
C[Ramao: Hola buen juego
]
;W[cq]
;B[pp]
;W[dd]
;B[fc]
;W[ci]
;B[jd]
;W[jq]
;B[cf]
;W[pj]
;B[cc]
;W[dg]
;B[cd]
;W[df]
;B[dc]
;W[qf]
;B[nc]
;W[nq]
;B[qn]
;W[rl]
;B[rm]
;W[qm]
;B[pm]
;W[ql]
;B[rn]
;W[cn]
;B[cl]
;W[dl]
;B[dk]
)