(;FF[4]
CA[UTF-8]
GM[1]
DT[2013-05-27]
PC[OGS: https://online-go.com/game/1530]
GN[T:7 R:1 (xorg vs mlopezviedma)]
PB[mlopezviedma]
PW[xorg]
BR[20k]
WR[12k]
TM[259200]OT[86400 fischer]
RE[B+T]
SZ[19]
KM[6.5]
RU[Japanese]
C[mlopezviedma: Hi! Have fun! =)
xorg: HI, have fun you too :)
]
;B[pd]
C[xorg: HI, have fun you too :)
]
;W[cp]
;B[dd]
;W[pq]
;B[po]
;W[qo]
;B[qn]
;W[qp]
;B[pm]
;W[qf]
;B[qh]
;W[of]
;B[oh]
;W[rd]
;B[qc]
;W[rc]
;B[qb]
;W[nd]
;B[nc]
;W[od]
;B[oc]
;W[pe]
;B[eq]
;W[dq]
;B[ep]
;W[mq]
;B[iq]
;W[jq]
;B[jp]
;W[kq]
;B[kp]
;W[lp]
;B[lo]
;W[mo]
;B[ln]
;W[ck]
;B[md]
;W[ic]
;B[kc]
;W[fc]
;B[cf]
;W[ch]
;B[db]
;W[cc]
;B[dc]
;W[bd]
;B[bb]
;W[bf]
;B[cd]
;W[bc]
;B[bg]
;W[cb]
;B[ca]
;W[ce]
;B[de]
;W[cm]
;B[dn]
;W[cn]
;B[do]
;W[co]
;B[cg]
;W[bh]
;B[ag]
;W[ah]
;B[dj]
;W[cj]
;B[di]
;W[dh]
;B[eh]
;W[ff]
;B[eg]
;W[if]
;B[mf]
;W[ng]
;B[ne]
;W[oe]
;B[mg]
;W[nh]
;B[mh]
;W[ni]
;B[mi]
;W[pk]
;B[qk]
;W[qj]
;B[rk]
;W[qi]
;B[ri]
;W[rj]
;B[sj]
;W[rh]
;B[si]
;W[sh]
;B[sk]
)