(;FF[4]
CA[UTF-8]
GM[1]
DT[2018-11-20]
PC[OGS: https://online-go.com/game/15366311]
GN[mlopezviedma vs. pinest1]
PB[mlopezviedma]
PW[pinest1]
BR[9k]
WR[7k]
TM[1200]OT[5x30 byo-yomi]
RE[W+R]
SZ[19]
KM[6.5]
RU[Japanese]
C[mlopezviedma: Hi, have fun!
]
;B[pd]
;W[pp]
C[pinest1: Hi,Have fun.
]
;B[dc]
;W[dp]
;B[cn]
;W[ce]
;B[ed]
;W[di]
;B[qn]
;W[qo]
;B[pn]
;W[np]
;B[pj]
;W[qf]
;B[qe]
;W[pf]
;B[nc]
;W[pl]
;B[ql]
;W[qk]
;B[pk]
;W[qm]
;B[rl]
;W[pm]
;B[rm]
;W[on]
;B[fq]
;W[eq]
;B[fp]
;W[co]
;B[cq]
;W[cp]
;B[dq]
;W[er]
;B[bq]
;W[ep]
;B[bp]
;W[bo]
;B[dr]
;W[dn]
;B[bs]
;W[rn]
;B[rk]
;W[qi]
;B[qj]
;W[pi]
;B[jd]
;W[ri]
;B[rj]
;W[sj]
;B[ol]
;W[om]
;B[mj]
;W[nk]
;B[nl]
;W[mk]
;B[ml]
;W[lk]
;B[ok]
;W[nj]
;B[sk]
;W[sm]
;B[jp]
;W[lo]
;B[ln]
;W[mn]
;B[lm]
;W[ko]
;B[jm]
;W[jo]
;B[ip]
;W[ll]
;B[mm]
;W[io]
;B[hp]
;W[ho]
;B[go]
;W[gn]
;B[fn]
;W[fm]
;B[gm]
;W[hn]
;B[em]
;W[fl]
;B[en]
;W[eo]
;B[fo]
;W[dm]
;B[el]
;W[gl]
C[mlopezviedma: Thank you for the game!
]
)