(;FF[4]
CA[UTF-8]
GM[1]
DT[2018-12-01]
PC[OGS: https://online-go.com/game/15520724]
GN[diskodario vs. mlopezviedma]
PB[diskodario]
PW[mlopezviedma]
BR[11k]
WR[10k]
TM[1200]OT[5x30 byo-yomi]
RE[W+27.5]
SZ[19]
KM[6.5]
RU[Japanese]
C[mlopezviedma: hi, have fun!
diskodario: hi
]
;B[pd]
;W[dp]
;B[cd]
;W[qp]
;B[oq]
;W[po]
;B[kq]
;W[ed]
;B[ec]
;W[fc]
;B[eb]
;W[dd]
;B[dc]
;W[fb]
;B[cc]
;W[fd]
;B[cg]
;W[nc]
;B[lc]
;W[qc]
;B[pc]
;W[qd]
;B[nd]
;W[pb]
;B[ob]
;W[qb]
;B[oc]
;W[pe]
;B[qe]
;W[qf]
;B[re]
;W[rf]
;B[oe]
;W[pf]
;B[of]
;W[og]
;B[pj]
;W[ql]
;B[qj]
;W[mg]
;B[pl]
;W[pm]
;B[ol]
;W[np]
;B[nq]
;W[mp]
;B[mq]
;W[jc]
;B[ic]
;W[id]
;B[jd]
;W[ib]
;B[hc]
;W[hd]
;B[jb]
;W[hb]
;B[kc]
;W[gc]
;B[jc]
;W[cn]
;B[ck]
;W[eq]
;B[hq]
;W[lp]
;B[kp]
;W[ko]
;B[jo]
;W[kn]
;B[rh]
;W[qh]
;B[ri]
;W[rk]
;B[rj]
;W[mj]
;B[ml]
;W[kk]
;B[kl]
;W[jl]
;B[km]
;W[jm]
;B[lk]
;W[lj]
;B[mk]
;W[jn]
;B[io]
;W[mm]
;B[nm]
;W[mn]
;B[nj]
;W[ni]
;B[oj]
;W[om]
;B[qm]
;W[rm]
;B[qn]
;W[rn]
;B[nn]
;W[oo]
;B[qk]
;W[rl]
;B[sj]
;W[sh]
;B[rg]
;W[sg]
;B[qg]
;W[pg]
;B[ph]
;W[pi]
;B[oh]
;W[oi]
;B[nh]
;W[mh]
;B[qi]
;W[ng]
;B[mi]
;W[li]
;B[ni]
;W[jj]
;B[ll]
;W[ci]
;B[di]
;W[dj]
;B[cj]
;W[dh]
;B[ch]
;W[ei]
;B[bi]
;W[dk]
;B[cl]
;W[em]
;B[fr]
;W[er]
;B[fq]
;W[lq]
;B[lr]
;W[pq]
;B[pr]
;W[qr]
;B[or]
;W[je]
;B[kf]
;W[jf]
;B[kg]
;W[ke]
;B[lf]
;W[me]
;B[le]
;W[ne]
;B[md]
;W[jg]
;B[kh]
;W[lh]
;B[jh]
;W[ih]
;B[ig]
;W[hg]
;B[ii]
;W[hh]
;B[ji]
;W[hj]
;B[ij]
;W[ik]
;B[hk]
;W[hi]
;B[hm]
;W[hl]
;B[gl]
;W[gk]
;B[fl]
;W[el]
;B[gm]
;W[fk]
;B[ef]
;W[df]
;B[dg]
;W[eg]
;B[de]
;W[ff]
;B[cf]
;W[ee]
;B[df]
;W[bm]
;B[cm]
;W[dn]
;B[fn]
;W[fp]
;B[gp]
;W[fs]
;B[gr]
;W[fo]
;B[go]
;W[en]
;B[in]
;W[oa]
;B[nb]
;W[na]
;B[ma]
;W[pa]
;B[mb]
;W[nf]
;B[od]
;W[bl]
;B[bk]
;W[gs]
;B[hs]
;W[es]
;B[di]
;W[eh]
;B[ci]
;W[ea]
;B[da]
;W[fa]
;B[no]
;W[op]
;B[mo]
;W[ln]
;B[sk]
;W[ps]
;B[mr]
;W[os]
;B[ns]
;W[qs]
;B[kr]
;W[fm]
;B[gn]
;W[ja]
;B[ka]
;W[ia]
;B[kd]
;W[if]
;B[al]
;W[an]
;B[ak]
;W[im]
;B[ki]
;W[kj]
;B[mf]
;W[sl]
;B[am]
;W[bn]
;B[si]
;W[sf]
;B[ld]
;W[lo]
;B[on]
;W[pn]
;B[nl]
;W[jk]
;B[dl]
;W[]
;B[]
C[mlopezviedma: thanks for the game!
Pato Rancio: 1. From move 85: O10 
Pato Rancio: 2. From move 85: O10 P7 Q6 M7 R9 Q9 N6 N7 
Pato Rancio: 3. From move 85: O10 P7 Q6 M7 R9 O9 N6 N7 O6 O7 Q9 P10 P9 T9 S7 
Pato Rancio: :V
]
)