(;FF[4]
CA[UTF-8]
GM[1]
DT[2013-06-05]
PC[OGS: https://online-go.com/game/1655]
GN[T:10 R:1 (witwit vs mlopezviedma)]
PB[mlopezviedma]
PW[witwit]
BR[19k]
WR[13k]
TM[259200]OT[86400 fischer]
RE[B+T]
SZ[19]
KM[6.5]
RU[Japanese]
C[mlopezviedma: Good game! I hope you have a nice experience in the site. :)
]
;B[pd]
C[mlopezviedma: Good game! I hope you have a nice experience in the site. :)
]
;W[dc]
;B[pq]
;W[dp]
;B[qo]
;W[jq]
;B[de]
;W[ce]
;B[cf]
;W[cd]
;B[df]
;W[fc]
;B[cj]
;W[nc]
;B[lc]
;W[qc]
;B[pc]
;W[qd]
;B[pe]
;W[pb]
;B[ob]
;W[qb]
;B[oc]
;W[qf]
;B[pf]
;W[qg]
;B[pg]
;W[jd]
;B[le]
;W[ph]
;B[oh]
;W[pi]
;B[ng]
;W[pm]
;B[ql]
;W[pl]
;B[qm]
;W[pn]
;B[np]
;W[qk]
;B[oi]
;W[qn]
;B[rn]
;W[ro]
;B[rp]
;W[rm]
;B[so]
;W[rl]
;B[ok]
;W[cl]
;B[dk]
;W[dl]
;B[ek]
C[witwit: *high five* fellow arch linux user :)
]
;W[fl]
C[mlopezviedma: ;)
]
;B[el]
;W[em]
;B[jo]
C[mlopezviedma: Oh, shame. Nice game so far =)
]
)