(;FF[4]
CA[UTF-8]
GM[1]
DT[2019-02-20]
PC[OGS: https://online-go.com/game/16661890]
GN[Ladder Challenge: BadatThis(#988) vs mlopezviedma(#665)]
PB[BadatThis]
PW[mlopezviedma]
BR[3k]
WR[10k]
TM[259200]OT[86400 fischer]
RE[B+R]
SZ[19]
KM[6.5]
RU[Japanese]
C[mlopezviedma: Hi, have fun!
]
;B[pd]
C[mlopezviedma: Hi, have fun!
]
;W[dp]
;B[pp]
;W[dd]
;B[cq]
;W[dq]
;B[cp]
;W[co]
;B[bo]
;W[cn]
;B[bn]
;W[cm]
;B[dr]
;W[er]
;B[cr]
;W[fq]
;B[jp]
;W[qq]
;B[pq]
;W[qp]
;B[qo]
;W[ro]
;B[qn]
;W[rn]
;B[qm]
;W[pr]
;B[or]
;W[qr]
;B[nq]
;W[qc]
;B[qd]
;W[pc]
;B[od]
;W[oc]
;B[nc]
;W[nb]
;B[pi]
;W[mc]
;B[nd]
;W[jd]
;B[le]
;W[pj]
;B[qj]
;W[qi]
;B[ph]
;W[qk]
;B[rj]
;W[rk]
;B[oj]
;W[pk]
;B[ri]
;W[rm]
;B[om]
;W[ok]
;B[nj]
;W[nk]
;B[mj]
;W[mk]
;B[lj]
;W[md]
;B[me]
;W[mb]
;B[cc]
;W[dc]
;B[cd]
;W[ce]
;B[be]
;W[cf]
;B[bf]
;W[cg]
;B[db]
;W[eb]
;B[cb]
;W[fc]
;B[kd]
;W[kc]
;B[je]
;W[id]
;B[ie]
;W[he]
;B[hf]
;W[ge]
;B[gf]
;W[jo]
;B[iq]
;W[kp]
;B[kq]
;W[ko]
;B[io]
;W[in]
;B[ho]
;W[nm]
;B[mn]
;W[nn]
;B[mo]
;W[lm]
;B[mm]
;W[ol]
;B[ll]
;W[km]
;B[ml]
;W[nl]
;B[lk]
;W[hn]
;B[gn]
;W[gm]
;B[go]
;W[jm]
;B[jk]
;W[hk]
;B[ii]
;W[gi]
;B[bm]
;W[cl]
;B[fg]
;W[eh]
;B[en]
;W[em]
;B[fm]
;W[gl]
;B[el]
;W[dm]
;B[fl]
C[mlopezviedma: Thank you!
]
)