(;FF[4]
CA[UTF-8]
GM[1]
DT[2015-04-08]
PC[OGS: https://online-go.com/game/1841949]
GN[Teaching game]
PB[nazakthul]
PW[mlopezviedma]
BR[14k]
WR[9k]
TM[259200]OT[86400 fischer]
RE[B+T]
SZ[19]
KM[0.5]
RU[Japanese]
HA[4]
AB[dd][pp][pd][dp]
C[nazakthul: have a good game 
mlopezviedma: good game :)
mlopezviedma: I won't be able to play much today though
mlopezviedma: just a few stones :)
nazakthul: its ok 
nazakthul: neither d i
nazakthul: is night at my place
]
;W[nc]
C[mlopezviedma: I won't be able to play much today though
mlopezviedma: just a few stones :)
nazakthul: its ok 
nazakthul: neither d i
nazakthul: is night at my place
]
;B[pf]
C[mlopezviedma: yeah, here it's 21:45
]
;W[jd]
C[nazakthul: is 3  45 am
]
;B[hc]
;W[cn]
;B[fq]
;W[qn]
;B[pn]
;W[pm]
;B[on]
C[nazakthul: sr have 2 go 2 work here is 08:11 am
nazakthul: anyway i will keep open if i have time i will look at the board :)
mlopezviedma: Okay :)
]
;W[qo]
;B[qp]
;W[qj]
;B[qh]
;W[kp]
;B[mp]
;W[hq]
;B[ln]
;W[bp]
;B[cq]
;W[ck]
;B[ci]
;W[en]
;B[jo]
;W[jp]
;B[ip]
;W[iq]
;B[kq]
C[nazakthul: esta juego es interesante, gracias 
nazakthul: i think i wrote correctly, 
nazakthul: :)
]
;W[lq]
C[nazakthul: nice 
]
;B[lp]
;W[lr]
C[mlopezviedma: oh, you are a supporter now! Thanks!! <3
nazakthul: i like the site  it s a nice comunity
nazakthul: tough move 
]
;B[jq]
C[mlopezviedma: well, L3 was an overplay, I believe
]
;W[hp]
;B[io]
C[nazakthul: i wanted to cut your stone 
mlopezviedma: That's okay, I think :)
nazakthul: I have the game on a real goban  make some strategy . is like we play on goban :))
nazakthul: maybe next match will have a 9 stone  When i play 9x9 or enter in direct fight i can't keep track. i play time to time  at a go club and sensei there  always beat me because i cant fight directly. Anyway till then lets enjoy this game
]
;W[jr]
C[mlopezviedma: :)
nazakthul: porque siento peligro? i feel uneasy with this move 
nazakthul: to take or not to take L5 thats is the question 
nazakthul: sorry i know a little Spanish and i presume you too since you're from Argentina  
]
;B[ko]
C[mlopezviedma: that's great :)
mlopezviedma: podemos hablar en inglés o español, como prefieras
nazakthul: i understand but i cant speak i dont remember all words  but when i hear see  i understand 
nazakthul: i learnt from the tv from tele y novelas or telenovela  how is named in my country
nazakthul: tu puedes escribir in espaniol. yo entiendo ,
nazakthul: espero :))
mlopezviedma: bien :)
]
;W[fp]
;B[ep]
;W[fo]
C[mlopezviedma: you play very well for 17k
mlopezviedma: (I also play very bad for 12k :P)
]
;B[gr]
;W[or]
;B[nr]
;W[nq]
;B[oq]
;W[mr]
;B[pr]
C[nazakthul: 10x  
nazakthul: you broke  a little of my territory but it s ok. Don t worry if were live  if would had been much more white i am not good at fast fight
nazakthul: o boy i typed wrong  the second if is "I"
]
;W[ns]
;B[ps]
;W[gq]
;B[fr]
;W[bq]
;B[bo]
;W[co]
;B[cp]
;W[bn]
;B[kr]
C[mlopezviedma: I'm playing such a bad game! It's clear that I'm not dedicating time to Go these days. :)
]
;W[ir]
;B[os]
;W[ks]
;B[hs]
C[nazakthul: unnecesary move
]
;W[fs]
C[mlopezviedma: Mmm... Let me see if I read this ok :)
]
;B[es]
;W[er]
;B[dr]
;W[eq]
;B[ds]
;W[br]
;B[dq]
C[mlopezviedma: I thought I could kill it
mlopezviedma: but I missread :)
nazakthul: e1 would saved you
nazakthul: d1  sorry
]
;W[dg]
;B[ei]
)