(;FF[4]
CA[UTF-8]
GM[1]
DT[2013-06-16]
PC[OGS: https://online-go.com/game/1846]
GN[T:12 R:1 (prozz vs mlopezviedma)]
PB[mlopezviedma]
PW[prozz]
BR[18k]
WR[8k]
TM[1814400]OT[20/1728000 canadian]
RE[W+62.5]
SZ[19]
KM[6.5]
RU[Japanese]
C[mlopezviedma: Hi, have fun!
]
;B[pd]
;W[dp]
;B[cd]
;W[qp]
;B[oq]
;W[po]
;B[lp]
;W[qj]
;B[ed]
;W[cj]
;B[jc]
;W[qf]
;B[nd]
;W[je]
;B[fq]
;W[eq]
;B[fp]
;W[dn]
;B[fn]
;W[ic]
;B[kd]
;W[jb]
;B[kb]
;W[jd]
;B[kc]
;W[hd]
;B[gc]
;W[gd]
;B[fd]
;W[ke]
;B[le]
;W[lf]
;B[me]
;W[lg]
;B[fg]
;W[cg]
;B[ej]
;W[il]
;B[io]
;W[no]
;B[mn]
;W[mo]
;B[lo]
;W[ln]
;B[mm]
;W[kn]
;B[jo]
;W[kl]
;B[mk]
;W[lj]
;B[mj]
;W[li]
;B[mh]
;W[nf]
;B[on]
;W[oo]
;B[qm]
;W[qn]
;B[pm]
;W[oj]
;B[ok]
;W[pk]
;B[ol]
;W[nj]
;B[nk]
;W[mi]
;B[ni]
;W[oi]
;B[rm]
;W[pq]
;B[nq]
;W[rd]
;B[qc]
;W[er]
;B[fr]
;W[fs]
;B[gs]
;W[es]
;B[hr]
;W[hb]
;B[gb]
;W[rc]
;B[rb]
;W[ka]
;B[la]
;W[ja]
;B[lb]
;W[dk]
;B[ek]
;W[em]
;B[fm]
;W[el]
;B[fl]
;W[be]
;B[bd]
;W[hg]
;B[rk]
;W[rj]
;B[qk]
;W[nn]
;B[nm]
;W[gk]
;B[fk]
;W[gi]
;B[dh]
;W[ch]
;B[ce]
;W[bf]
;B[df]
;W[ad]
;B[ac]
;W[ae]
;B[bb]
;W[ko]
;B[kp]
;W[pr]
;B[or]
;W[os]
;B[ns]
;W[ps]
;B[hm]
;W[mr]
;B[nr]
;W[mq]
C[mlopezviedma: I thought that was gote. =(
]
;B[lq]
;W[lr]
;B[kr]
;W[mp]
;B[ro]
;W[rp]
;B[sp]
;W[sq]
;B[so]
;W[rn]
;B[sn]
;W[rq]
;B[ha]
;W[ib]
;B[cf]
;W[bg]
C[prozz: u want to play this game out now?
mlopezviedma: Ok
prozz: im happy to
prozz: grand :)
mlopezviedma: I'm sorry I'm still thinking =)
prozz: no worries
prozz: just asking as wasnt sure if close the browser :)
mlopezviedma: You crushed me XD
mlopezviedma: I would like a tiny review
mlopezviedma: If you want to, of course
prozz: sure, remind me later when im online, im too tired now to review :)
prozz: but happy to
mlopezviedma: Oh, thanks a lot!
]
;B[ge]
;W[jr]
;B[jq]
C[mlopezviedma: Got it. ^^
]
;W[ks]
;B[ir]
;W[kq]
;B[jp]
;W[he]
;B[gf]
;W[gg]
;B[fh]
;W[dg]
;B[eg]
;W[di]
;B[eh]
;W[im]
;B[in]
;W[hl]
;B[gm]
;W[ll]
;B[ml]
;W[qd]
;B[pb]
;W[pe]
;B[oe]
;W[of]
;B[ne]
;W[sj]
;B[sk]
;W[pn]
;B[om]
;W[eo]
;B[fo]
;W[hc]
;B[ga]
;W[sb]
;B[ra]
;W[pj]
;B[pl]
;W[ep]
;B[dj]
;W[ck]
;B[mf]
;W[mg]
;B[kr]
;W[sm]
;B[sl]
;W[kq]
;B[gh]
;W[hh]
;B[kr]
;W[qo]
;B[sm]
;W[kq]
;B[hf]
;W[if]
;B[kr]
;W[ff]
;B[fe]
;W[kq]
;B[lk]
;W[kk]
;B[kr]
;W[oc]
C[mlopezviedma: Wow! Is that a threat?
mlopezviedma: Oh, yeah
prozz: try me
prozz: :)
mlopezviedma: ^^
mlopezviedma: Double atari XD
]
;B[pc]
;W[kq]
;B[sa]
;W[kr]
;B[is]
;W[sc]
;B[ei]
;W[ci]
;B[gj]
;W[hj]
;B[fj]
;W[gl]
;B[fi]
;W[hi]
;B[jn]
;W[jm]
;B[lm]
;W[km]
;B[]
;W[]
C[prozz: thanks
prozz: catch me later
mlopezviedma: Thanks!
prozz: will do review
mlopezviedma: ok
mlopezviedma: =)
prozz: cu
mlopezviedma: gg!
]
)