(;FF[4]
CA[UTF-8]
GM[1]
DT[2013-06-16]
PC[OGS: https://online-go.com/game/1853]
GN[T:12 R:1 (gyc vs mlopezviedma)]
PB[mlopezviedma]
PW[gyc]
BR[18k]
WR[11k]
TM[1814400]OT[20/1728000 canadian]
RE[B+T]
SZ[19]
KM[6.5]
RU[Japanese]
C[mlopezviedma: Hi, have fun!
]
;B[dd]
;W[pq]
C[gyc: enjoy
]
;B[pd]
;W[cp]
;B[qo]
;W[po]
;B[pn]
;W[oo]
;B[qp]
;W[qq]
;B[qk]
;W[mq]
;B[ep]
;W[eo]
;B[fo]
)