(;FF[4]
CA[UTF-8]
GM[1]
DT[2013-06-16]
PC[OGS: https://online-go.com/game/1871]
GN[T:12 R:1 (seanachain vs mlopezviedma)]
PB[mlopezviedma]
PW[seanachain]
BR[18k]
WR[8k]
TM[1814400]OT[20/1728000 canadian]
RE[W+R]
SZ[19]
KM[6.5]
RU[Japanese]
C[mlopezviedma: Hi, have fun!
seanachain: enjoy!
]
;B[pp]
C[seanachain: enjoy!
]
;W[pe]
;B[dp]
;W[de]
;B[dc]
;W[fd]
;B[ce]
;W[df]
;B[cc]
;W[pc]
;B[kd]
;W[cn]
;B[fq]
;W[cf]
;B[be]
;W[dj]
;B[kp]
;W[mc]
;B[hc]
;W[qj]
;B[qm]
;W[fb]
;B[eb]
;W[gb]
;B[he]
;W[oj]
;B[om]
;W[pr]
;B[qq]
;W[nq]
;B[kq]
;W[qr]
;B[rr]
;W[no]
;B[mm]
;W[lo]
;B[kn]
;W[ko]
;B[jo]
;W[pn]
;B[qn]
;W[po]
;B[qo]
;W[op]
;B[pq]
;W[oq]
;B[rp]
;W[pm]
;B[pl]
;W[ol]
;B[on]
;W[oo]
;B[nm]
;W[rs]
;B[en]
;W[sr]
;B[rq]
;W[ql]
;B[rl]
;W[pk]
;B[mk]
;W[mi]
;B[kk]
;W[rk]
;B[rm]
;W[bp]
;B[cq]
;W[jn]
;B[jm]
;W[in]
;B[io]
;W[hn]
;B[ho]
;W[go]
;B[iq]
;W[il]
;B[jl]
;W[gl]
;B[ik]
;W[hl]
;B[ki]
;W[ln]
;B[km]
;W[dl]
;B[ah]
;W[bi]
;B[ai]
;W[ag]
;B[bg]
;W[bh]
;B[af]
;W[aj]
;B[ag]
;W[bj]
;B[cg]
;W[dh]
;B[gj]
;W[ec]
;B[db]
;W[dd]
;B[eg]
;W[dg]
;B[ek]
;W[el]
;B[fk]
;W[fl]
;B[ei]
;W[gp]
;B[gq]
;W[bq]
;B[br]
;W[me]
;B[kf]
;W[gf]
;B[hg]
;W[hf]
;B[if]
;W[jc]
C[mlopezviedma: Well, when it's done it's done. =)
mlopezviedma: Thanks for the game!
mlopezviedma: If you want to make a review I would be very thankful
]
)