(;FF[4]
CA[UTF-8]
GM[1]
DT[2019-11-10]
PC[OGS: https://online-go.com/game/20324351]
GN[Ladder Challenge: mlopezviedma(#24) vs Aldasla(#16)]
PB[Aldasla]
PW[mlopezviedma]
BR[15k]
WR[8k]
TM[259200]OT[86400 fischer]
RE[W+T]
SZ[19]
KM[6.5]
RU[Japanese]
C[mlopezviedma: Hi, have fun!
Aldasla: Hi! Gg 
]
;B[dq]
(;W[cd]
(;B[qp]
(;W[pc]
(;B[jc]
(;W[oq]
(;B[pn]
(;W[lq]
(;B[cg]
(;W[ec]
(;B[mc]
(;W[pe]
(;B[qk]
(;W[do]
(;B[fp]
(;W[cq]
(;B[cr]
(;W[cp]
(;B[cj]
(;W[cl]
(;B[qg]
(;W[qi]
(;B[ph]
(;W[pi]
(;B[nh]
(;W[oi]
(;B[oh]
(;W[ni]
(;B[mf]
(;W[qd]
(;B[gc]
(;W[ee]
(;B[iq]
(;W[qm]
(;B[pm]
(;W[ql]
(;B[pk]
(;W[pl]
(;B[ol]
(;W[qn]
(;B[qo]
(;W[rk]
(;B[rj]
(;W[sl]
(;B[rn]
(;W[rm]
(;B[sn]
(;W[sm]
(;B[ro]
(;W[qj]
(;B[ok]
(;W[lo]
(;B[mm]
(;W[eg]
(;B[ei]
(;W[po]
(;B[oo]
(;W[pp]
(;B[pq]
(;W[op]
(;B[pr]
(;W[on]
(;B[om]
(;W[nn]
(;B[ml]
(;W[mh]
(;B[mg]
(;W[mi]
(;B[kk]
(;W[ki]
(;B[im]
(;W[or]
(;B[rq]
(;W[io]
(;B[gn]
(;W[hp]
(;B[hq]
(;W[gp]
(;B[gq]
(;W[fo]
(;B[ep]
(;W[fn]
(;B[gl]
(;W[ek]
(;B[gj]
(;W[fj]
(;B[fi]
(;W[gi]
(;B[hj]
(;W[gh]
(;B[be]
(;W[bd]
(;B[ce]
(;W[de]
(;B[dg]
(;W[fg]
(;B[he]
(;W[if]
(;B[ie]
(;W[jf]
(;B[je]
(;W[kf]
(;B[ke]
(;W[br]
(;B[cs]
(;W[bs]
(;B[dr]
(;W[ps]
(;B[qs]
(;W[os]
(;B[qr]
(;W[jl]
(;B[jn]
(;W[jo]
(;B[kn]
(;W[jk]
(;B[jj]
(;W[kj]
(;B[kl]
(;W[ij]
(;B[ik]
(;W[ii]
(;B[il]
(;W[ji]
(;B[jm]
(;W[nb]
(;B[mb]
(;W[nc]
(;B[nd]
(;W[od]
(;B[ne]
(;W[ae]
(;B[bf]
(;W[bk]
(;B[bj]
(;W[jr]
(;B[ir]
(;W[jq]
(;B[js]
(;W[ks]
(;B[is]
(;W[lr]
(;B[fb]
(;W[eb]
(;B[af]
(;W[ad]
(;B[fe]
(;W[fd]
(;B[gd]
(;W[qf]
(;B[qh]
(;W[ri]
(;B[rh]
(;W[sh]
(;B[sg]
(;W[si]
(;B[rf]
(;W[re]
(;B[pf]
(;W[qe]
(;B[se]
(;W[sd]
(;B[rg]
(;W[of]
))))))))))))))))))))))))))))))))))))))))))))))))))))))))))))))))))))))))))))))))))))))))))))))))))))))))))))))))))))))))))))))))))))))))))))))))))))))))))))))))))))