(;FF[4]
CA[UTF-8]
GM[1]
DT[2019-11-23]
PC[OGS: https://online-go.com/game/20517911]
GN[Ladder Challenge: mlopezviedma(#15) vs Neophron(#8)]
PB[mlopezviedma]
PW[Neophron]
BR[8k]
WR[9k]
TM[259200]OT[86400 fischer]
RE[W+T]
SZ[19]
KM[6.5]
RU[Japanese]
C[mlopezviedma: Hi, have fun!
Neophron: hi, have a good game
]
;B[pd]
C[mlopezviedma: Hi, have fun!
Neophron: hi, have a good game
]
(;W[cp]
(;B[pq]
(;W[dc]
(;B[ep]
(;W[eq]
(;B[fq]
(;W[dq]
(;B[fp]
(;W[cn]
(;B[jp]
(;W[po]
(;B[qo]
(;W[qn]
(;B[qp]
(;W[pn]
(;B[np]
(;W[qj]
(;B[ce]
(;W[cd]
(;B[de]
(;W[fc]
(;B[ci]
(;W[qf]
(;B[nc]
(;W[ic]
(;B[rd]
(;W[ck]
(;B[qh]
(;W[ph]
(;B[qg]
(;W[pg]
(;B[rf]
(;W[qe]
(;B[re]
(;W[qd]
(;B[qc]
(;W[pf]
(;B[qi]
(;W[pi]
(;B[kc]
(;W[bg]
(;B[cg]
(;W[be]
(;B[bh]
(;W[bf]
(;B[eg]
(;W[cf]
(;B[df]
(;W[ko]
(;B[kp]
(;W[lo]
(;B[mp]
(;W[mo]
(;B[jo]
(;W[jn]
(;B[in]
(;W[jm]
(;B[no]
(;W[nn]
(;B[pj]
(;W[qk]
(;B[oj]
(;W[mh]
(;B[pl]
(;W[ql]
(;B[mm]
(;W[nm]
(;B[mk]
(;W[nl]
(;B[li]
(;W[mi]
(;B[lj]
(;W[mj]
(;B[ml]
(;W[nk]
(;B[jk]
(;W[mn]
(;B[hd]
(;W[hc]
(;B[gd]
(;W[gc]
(;B[jd]
(;W[id]
(;B[ie]
(;W[he]
(;B[ge]
(;W[hf]
(;B[gf]
(;W[hg]
(;B[je]
(;W[hi]
(;B[jh]
(;W[hk]
(;B[cl]
(;W[bl]
(;B[bk]
(;W[dl]
(;B[cm]
(;W[dm]
(;B[bm]
(;W[bn]
(;B[al]
(;W[en]
(;B[dk]
(;W[ek]
(;B[dj]
(;W[ej]
(;B[ei]
(;W[fi]
(;B[fh]
(;W[gi]
(;B[nf]
(;W[ng]
(;B[mf]
(;W[lp]
(;B[lq]
(;W[ho]
(;B[hp]
(;W[io]
(;B[ip]
(;W[go]
(;B[fo]
(;W[fn]
(;B[il]
(;W[hl]
(;B[im]
(;W[hm]
(;B[hn]
(;W[gn]
(;B[gp]
(;W[jb]
(;B[kb]
(;W[lh]
(;B[ji]
(;W[lk]
(;B[ll]
(;W[kl]
(;B[kk]
(;W[lm]
(;B[lk]
(;W[jg]
C[mlopezviedma: Gee, sorry about that!
]
))))))))))))))))))))))))))))))))))))))))))))))))))))))))))))))))))))))))))))))))))))))))))))))))))))))))))))))))))))))))))))))))))))))))))))))