(;FF[4]
CA[UTF-8]
GM[1]
DT[2019-12-01]
PC[OGS: https://online-go.com/game/20634503]
GN[Tournament Game: Fast Correspondence – December 2019 (B) (54143) R:1 (Starline vs mlopezviedma)]
PB[mlopezviedma]
PW[Starline]
BR[9k]
WR[9k]
TM[172800]OT[28800 fischer]
RE[B+T]
SZ[19]
KM[6.5]
RU[Japanese]
C[mlopezviedma: Hi, have fun!
]
;B[pd]
(;W[pp]
C[Starline: Have fun!
]
(;B[dc]
(;W[dp]
(;B[cf]
(;W[qf]
(;B[nc]
(;W[qd]
(;B[qc]
(;W[rc]
(;B[qb]
(;W[pe]
(;B[rd]
(;W[qe]
(;B[rb]
(;W[re]
(;B[sc]
(;W[od]
(;B[oc]
(;W[nd]
(;B[md]
(;W[me]
(;B[ld]
(;W[le]
(;B[kd]
(;W[pj]
(;B[qq]
(;W[pq]
(;B[qp]
(;W[qo]
(;B[ro]
(;W[rn]
(;B[qn]
(;W[po]
(;B[rm]
(;W[rp]
(;B[sn]
(;W[rq]
(;B[qk]
(;W[pk]
(;B[qj]
(;W[fq]
(;B[kq]
(;W[iq]
(;B[nq]
(;W[dj]
(;B[ko]
(;W[in]
(;B[cp]
(;W[co]
(;B[dq]
(;W[ep]
(;B[bo]
(;W[cn]
(;B[bq]
(;W[if]
(;B[hd]
(;W[ge]
(;B[gd]
(;W[fe]
(;B[ke]
(;W[kf]
(;B[jf]
(;W[kg]
(;B[jg]
(;W[ki]
(;B[ne]
(;W[oe]
(;B[nf]
(;W[mg]
(;B[ng]
(;W[mh]
(;B[pi]
(;W[oh]
(;B[oi]
(;W[ni]
(;B[nj]
(;W[nh]
(;B[pl]
(;W[ok]
(;B[ol]
(;W[nk]
(;B[oj]
(;W[mj]
(;B[ph]
(;W[pg]
(;B[qh]
(;W[jh]
(;B[ig]
(;W[he]
(;B[ie]
(;W[hf]
(;B[hg]
)))))))))))))))))))))))))))))))))))))))))))))))))))))))))))))))))))))))))))))))))))))))))))))