(;FF[4]
CA[UTF-8]
GM[1]
DT[2019-12-10]
PC[OGS: https://online-go.com/game/20795715]
GN[mlopezviedma vs. CaptRoy]
PB[mlopezviedma]
PW[CaptRoy]
BR[8k]
WR[7k]
TM[1200]OT[5x30 byo-yomi]
RE[W+R]
SZ[19]
KM[6.5]
RU[Japanese]
C[mlopezviedma: Hi, have fun!
]
;B[pd]
(;W[dp]
(;B[qp]
C[CaptRoy: hi u 2
]
(;W[dd]
(;B[fq]
C[CaptRoy: nice to meet you thx for playing
]
(;W[fp]
C[mlopezviedma: You too!
]
(;B[gp]
(;W[eq]
(;B[fo]
(;W[ep]
(;B[gq]
(;W[go]
(;B[fn]
(;W[ho]
(;B[jq]
(;W[ip]
(;B[iq]
(;W[jp]
(;B[kp]
(;W[kq]
(;B[lq]
(;W[kr]
(;B[lr]
(;W[hq]
(;B[hr]
(;W[ko]
(;B[lp]
(;W[hp]
(;B[jr]
(;W[er]
(;B[gr]
(;W[em]
(;B[fm]
(;W[fl]
(;B[dn]
(;W[en]
(;B[do]
(;W[eo]
(;B[cl]
(;W[dm]
(;B[cm]
(;W[co]
(;B[cn]
(;W[bo]
(;B[ci]
(;W[cj]
(;B[dj]
(;W[ck]
(;B[dk]
(;W[bi]
(;B[ch]
(;W[bh]
(;B[dl]
(;W[cg]
(;B[ei]
(;W[eh]
(;B[fi]
(;W[dg]
(;B[di]
(;W[gj]
(;B[gi]
(;W[hi]
(;B[gm]
(;W[hh]
(;B[gl]
(;W[gk]
(;B[gh]
(;W[gg]
(;B[fg]
(;W[fh]
(;B[hg]
(;W[gf]
(;B[hj]
(;W[hk]
(;B[ij]
(;W[ig]
(;B[il]
(;W[hl]
(;B[hm]
(;W[im]
(;B[fk]
(;W[hn]
(;B[el]
(;W[ik]
(;B[jk]
(;W[jl]
(;B[fj]
(;W[il]
(;B[bk]
(;W[bj]
(;B[al]
(;W[aj]
(;B[bn]
(;W[bl]
(;B[cp]
(;W[bp]
(;B[cq]
(;W[bq]
(;B[cr]
(;W[br]
(;B[dr]
(;W[cs]
(;B[es]
(;W[fs]
(;B[bm]
(;W[ak]
(;B[an]
(;W[bl]
(;B[ih]
(;W[hf]
(;B[bk]
(;W[js]
(;B[ks]
(;W[bl]
(;B[ii]
(;W[hg]
(;B[bk]
(;W[gn]
(;B[fl]
(;W[bl]
(;B[in]
(;W[jn]
(;B[bk]
(;W[jh]
(;B[jj]
(;W[bl]
(;B[kl]
(;W[io]
(;B[bk]
(;W[kk]
(;B[kj]
(;W[lk]
(;B[bs]
(;W[as]
(;B[bl]
(;W[lj]
(;B[ki]
(;W[mh]
(;B[cc]
(;W[dc]
(;B[cd]
(;W[ce]
(;B[db]
(;W[eb]
(;B[be]
(;W[bf]
(;B[bb]
(;W[ee]
(;B[ad]
(;W[qj]
(;B[nc]
(;W[qe]
(;B[qd]
(;W[da]
(;B[cb]
(;W[mb]
(;B[mc]
(;W[lc]
(;B[nb]
(;W[ro]
(;B[ld]
(;W[kc]
(;B[kd]
(;W[jd]
(;B[pe]
(;W[me]
(;B[le]
(;W[rp]
(;B[rq]
(;W[qq]
(;B[pq]
(;W[qr]
(;B[pr]
(;W[pp]
(;B[qo]
(;W[po]
(;B[qn]
(;W[rr]
(;B[on]
(;W[np]
(;B[op]
(;W[oo]
(;B[no]
(;W[oq]
(;B[pn]
(;W[op]
(;B[or]
(;W[mo]
(;B[mp]
(;W[nn]
(;B[nq]
(;W[no]
(;B[nr]
(;W[rn]
(;B[lo]
(;W[ln]
(;B[km]
(;W[kn]
(;B[qk]
(;W[qm]
(;B[nm]
(;W[mn]
(;B[ol]
(;W[pl]
(;B[om]
(;W[ok]
(;B[pk]
(;W[ql]
(;B[nk]
(;W[oj]
(;B[nj]
(;W[oi]
(;B[ni]
(;W[nh]
(;B[mi]
(;W[li]
(;B[kh]
(;W[kg]
(;B[qf]
(;W[mf]
(;B[md]
(;W[rg]
(;B[rf]
(;W[qg]
(;B[pg]
(;W[ph]
(;B[og]
(;W[of]
(;B[pf]
(;W[ng]
(;B[rh]
(;W[qh]
(;B[sg]
(;W[ri]
(;B[sh]
(;W[la]
(;B[je]
(;W[id]
(;B[ie]
(;W[he]
(;B[hd]
(;W[ic]
(;B[hc]
(;W[ib]
(;B[rk]
(;W[rl]
(;B[si]
(;W[sj]
(;B[sf]
(;W[pj]
(;B[oh]
(;W[kf]
(;B[ke]
(;W[oe]
(;B[lh]
(;W[lg]
(;B[ll]
(;W[ji]
C[mlopezviedma: Thanks for the game!
CaptRoy: ty gg c u
mlopezviedma: see you!
]
))))))))))))))))))))))))))))))))))))))))))))))))))))))))))))))))))))))))))))))))))))))))))))))))))))))))))))))))))))))))))))))))))))))))))))))))))))))))))))))))))))))))))))))))))))))))))))))))))))))))))))))))))))))))))))))))))))))))))))))))))))))))))))))))))