(;FF[4]
CA[UTF-8]
GM[1]
DT[2019-12-10]
PC[OGS: https://online-go.com/game/20792060]
GN[Friendly Match]
PB[oukropec]
PW[mlopezviedma]
BR[7k]
WR[8k]
TM[15]OT[3x5 byo-yomi]
RE[W+1.5]
SZ[9]
KM[5.5]
RU[Japanese]
C[mlopezviedma: Hi, have fun!
]
;B[gd]
C[mlopezviedma: Hi, have fun!
]
(;W[cf]
(;B[fg]
(;W[ff]
(;B[gf]
C[oukropec: hi
]
(;W[fe]
(;B[ge]
(;W[fd]
(;B[dc]
(;W[cd]
(;B[cc]
(;W[fc]
(;B[bd]
(;W[be]
(;B[dd]
(;W[eg]
(;B[bc]
(;W[gg]
(;B[fh]
(;W[gh]
(;B[hg]
(;W[eh]
(;B[hh]
(;W[fi]
(;B[gc]
(;W[gb]
(;B[hb]
(;W[fb]
(;B[ce]
(;W[ha]
(;B[bf]
(;W[hc]
(;B[hd]
(;W[ib]
(;B[bg]
(;W[id]
(;B[hf]
(;W[cg]
(;B[ie]
(;W[ic]
(;B[db]
(;W[bh]
(;B[ah]
(;W[bi]
(;B[hi]
(;W[ag]
(;B[ae]
(;W[ai]
(;B[df]
(;W[dg]
(;B[af]
(;W[ch]
(;B[ee]
(;W[ah]
(;B[ed]
(;W[ea]
(;B[da]
(;W[eb]
(;B[ef]
(;W[gi]
(;B[ec]
(;W[]
(;B[]
C[oukropec: gg
mlopezviedma: thanks, gg!
mlopezviedma: another one?
]
)))))))))))))))))))))))))))))))))))))))))))))))))))))))))))))))