(;FF[4]
CA[UTF-8]
GM[1]
DT[2019-12-11]
PC[OGS: https://online-go.com/game/20801717]
GN[Friendly Match]
PB[mlopezviedma]
PW[Francisco123123]
BR[9k]
WR[6k]
TM[300]OT[2x10 byo-yomi]
RE[B+5.5]
SZ[13]
KM[5.5]
RU[Japanese]
C[mlopezviedma: Hi, have fun!
]
;B[kd]
(;W[cj]
(;B[jk]
(;W[dc]
(;B[ej]
(;W[ki]
(;B[kj]
(;W[ji]
(;B[hj]
(;W[kf]
(;B[ic]
(;W[ce]
(;B[ck]
(;W[bk]
(;B[dk]
(;W[bi]
(;B[fc]
(;W[cl]
(;B[dl]
(;W[cm]
(;B[dm]
(;W[bl]
(;B[je]
(;W[lj]
(;B[lk]
(;W[jj]
(;B[kk]
(;W[mj]
(;B[mk]
(;W[lh]
(;B[jf]
(;W[jg]
(;B[ig]
(;W[kg]
(;B[fe]
(;W[eg]
(;B[ij]
(;W[le]
(;B[ld]
(;W[md]
(;B[mc]
(;W[me]
(;B[lb]
(;W[ih]
(;B[hg]
(;W[eb]
(;B[fb]
(;W[fa]
(;B[ga]
(;W[ea]
(;B[gb]
(;W[ed]
(;B[ec]
(;W[db]
(;B[ee]
(;W[de]
(;B[fd]
(;W[dd]
(;B[di]
(;W[ch]
(;B[dh]
(;W[dg]
(;B[fg]
(;W[eh]
(;B[ei]
(;W[fh]
(;B[gg]
(;W[ef]
(;B[ff]
(;W[ii]
(;B[ke]
(;W[lg]
(;B[fi]
(;W[gi]
(;B[gj]
(;W[ci]
(;B[gh]
(;W[hi]
(;B[dj]
(;W[hh]
(;B[]
(;W[fk]
(;B[fj]
(;W[il]
(;B[ik]
(;W[hl]
(;B[fl]
(;W[gk]
(;B[gl]
(;W[hk]
(;B[jl]
(;W[gm]
(;B[fm]
(;W[el]
(;B[em]
(;W[jm]
(;B[hm]
(;W[km]
(;B[lm]
(;W[ll]
(;B[ek]
(;W[mm]
(;B[im]
(;W[]
(;B[]
C[mlopezviedma: Thanks for the game!
]
)))))))))))))))))))))))))))))))))))))))))))))))))))))))))))))))))))))))))))))))))))))))))))))))))))))))))