(;FF[4]
CA[UTF-8]
GM[1]
DT[2020-03-09]
PC[OGS: https://online-go.com/game/22240102]
GN[Friendly Match]
PB[mlopezviedma]
PW[Zalillama]
BR[10k]
WR[8k]
TM[360]OT[3x30 byo-yomi]
RE[B+50.5]
SZ[19]
KM[6.5]
RU[Japanese]
C[mlopezviedma: Hi, have fun!
]
;B[qd]
(;W[dp]
C[Zalillama: heyo
]
(;B[pq]
(;W[dd]
(;B[nc]
(;W[fc]
(;B[qo]
(;W[jq]
(;B[cn]
(;W[co]
(;B[dn]
(;W[ci]
(;B[dj]
(;W[di]
(;B[fj]
(;W[mq]
(;B[pj]
(;W[ei]
(;B[cd]
(;W[cc]
(;B[ej]
(;W[ic]
(;B[ep]
(;W[dq]
(;B[eq]
(;W[do]
(;B[eo]
(;W[gq]
(;B[bo]
(;W[bp]
(;B[dr]
(;W[cq]
(;B[cr]
(;W[bn]
(;B[bm]
(;W[ao]
(;B[hp]
(;W[hq]
(;B[ip]
(;W[iq]
(;B[em]
(;W[lc]
(;B[ne]
(;W[le]
(;B[ng]
(;W[lg]
(;B[gh]
(;W[fi]
(;B[gi]
(;W[gj]
(;B[gk]
(;W[hj]
(;B[ii]
(;W[ij]
(;B[hd]
(;W[hc]
(;B[gd]
(;W[gf]
(;B[eg]
(;W[fh]
(;B[fg]
(;W[gg]
(;B[ih]
(;W[kj]
(;B[fe]
(;W[if]
(;B[gc]
(;W[gb]
(;B[dc]
(;W[db]
(;B[de]
(;W[ed]
(;B[ee]
(;W[ce]
(;B[id]
(;W[jc]
(;B[kd]
(;W[ld]
(;B[jf]
(;W[jg]
(;B[ig]
(;W[je]
(;B[hf]
(;W[ie]
(;B[hg]
(;W[he]
(;B[ge]
(;W[jd]
(;B[cf]
(;W[be]
(;B[bf]
(;W[bd]
(;B[hi]
(;W[bk]
(;B[bl]
(;W[cj]
(;B[bh]
(;W[dk]
(;B[fl]
(;W[dl]
(;B[cl]
(;W[dm]
(;B[cm]
(;W[ck]
(;B[el]
(;W[bi]
(;B[ch]
(;W[ek]
(;B[fk]
(;W[il]
(;B[hm]
(;W[im]
(;B[hn]
(;W[jp]
(;B[pm]
(;W[nm]
(;B[jo]
(;W[ko]
(;B[jn]
(;W[kn]
(;B[jm]
(;W[jl]
(;B[km]
(;W[lm]
(;B[kl]
(;W[kk]
(;B[gp]
(;W[ll]
(;B[in]
(;W[op]
(;B[pp]
(;W[oo]
(;B[qg]
(;W[oq]
(;B[mb]
(;W[lb]
(;B[mj]
(;W[mk]
(;B[nj]
(;W[of]
(;B[nf]
(;W[og]
(;B[oh]
(;W[od]
(;B[nd]
(;W[oe]
(;B[oc]
(;W[pd]
(;B[pc]
(;W[qe]
(;B[rd]
(;W[qf]
(;B[pg]
(;W[mc]
(;B[nb]
(;W[fr]
(;B[er]
(;W[fq]
(;B[fp]
(;W[br]
(;B[or]
(;W[nr]
(;B[pr]
(;W[af]
(;B[ag]
(;W[ae]
(;B[jh]
(;W[kg]
(;B[fd]
(;W[kh]
(;B[fb]
(;W[ec]
(;B[hb]
(;W[eb]
(;B[ga]
(;W[ji]
(;B[ff]
(;W[dh]
(;B[dg]
(;W[pl]
(;B[ql]
(;W[pk]
(;B[qk]
(;W[om]
(;B[pn]
(;W[mh]
(;B[nh]
(;W[mi]
(;B[nk]
(;W[nl]
(;B[oj]
(;W[ol]
(;B[qj]
(;W[hl]
(;B[gl]
(;W[hk]
(;B[fn]
(;W[am]
(;B[al]
(;W[an]
(;B[la]
(;W[ka]
(;B[ma]
(;W[ib]
(;B[ah]
(;W[lj]
(;B[mf]
(;W[ni]
(;B[oi]
(;W[po]
(;B[qn]
(;W[on]
(;B[ns]
(;W[ms]
(;B[os]
(;W[cs]
(;B[ds]
(;W[bs]
(;B[fs]
(;W[gs]
(;B[es]
(;W[lf]
(;B[ea]
(;W[da]
(;B[fa]
(;W[ia]
(;B[gb]
(;W[mg]
(;B[]
(;W[]
C[mlopezviedma: Thank you for the game!
]
))))))))))))))))))))))))))))))))))))))))))))))))))))))))))))))))))))))))))))))))))))))))))))))))))))))))))))))))))))))))))))))))))))))))))))))))))))))))))))))))))))))))))))))))))))))))))))))))))))))))))))))))))))))))))))))))))))))