(;FF[4]
CA[UTF-8]
GM[1]
DT[2020-03-10]
PC[OGS: https://online-go.com/game/22258133]
GN[Tournament Game: Firstish Moderators Round Robin (57137) R:1 (xhu98 vs mlopezviedma)]
PB[mlopezviedma]
PW[xhu98]
BR[21k]
WR[7d]
TM[604800]OT[172800 fischer]
RE[W+R]
SZ[19]
KM[0.5]
RU[Japanese]
HA[7]
AB[dj][pj][jj][dd][pp][pd][dp]
C[xhu98: Have a nice game!
mlopezviedma: Hi there! You too!
]
;W[fc]
C[xhu98: Have a nice game!
mlopezviedma: Hi there! You too!
]
(;B[cf]
(;W[nd]
(;B[qf]
(;W[fq]
(;B[cn]
(;W[nq]
(;B[qn]
(;W[dc]
(;B[cc]
(;W[cb]
(;B[ec]
(;W[db]
(;B[ed]
(;W[eb]
(;B[fd]
(;W[gc]
(;B[gd]
(;W[hd]
(;B[he]
(;W[ie]
(;B[id]
(;W[hc]
(;B[hf]
(;W[je]
(;B[oc]
(;W[dk]
(;B[ck]
(;W[cl]
(;B[cj]
(;W[do]
(;B[co]
(;W[dq]
(;B[cq]
(;W[ep]
(;B[cp]
(;W[pk]
(;B[qj]
(;W[pq]
(;B[qq]
(;W[qr]
(;B[oq]
(;W[pr]
(;B[op]
(;W[or]
(;B[np]
(;W[mp]
(;B[mo]
(;W[lp]
(;B[ok]
(;W[gg]
(;B[hg]
(;W[gi]
(;B[gk]
(;W[hh]
(;B[ih]
(;W[ii]
(;B[jh]
(;W[ji]
(;B[ki]
(;W[ij]
(;B[jk]
(;W[ik]
(;B[jl]
(;W[kh]
(;B[kg]
(;W[lh]
(;B[jg]
(;W[il]
(;B[jm]
(;W[nk]
(;B[ol]
(;W[kj]
(;B[li]
(;W[mi]
(;B[lj]
(;W[lk]
(;B[kk]
(;W[mj]
(;B[kj]
(;W[lg]
(;B[nh]
(;W[kf]
(;B[ge]
(;W[mh]
(;B[jp]
(;W[lo]
(;B[mn]
(;W[ln]
(;B[im]
(;W[gl]
(;B[lm]
(;W[mm]
(;B[ll]
(;W[qp]
(;B[on]
(;W[po]
(;B[oo]
(;W[nn]
(;B[qo]
(;W[no]
(;B[rp]
(;W[io]
(;B[jo]
(;W[kn]
(;B[km]
(;W[jn]
(;B[in]
(;W[ho]
(;B[ml]
(;W[nc]
(;B[ob]
(;W[dg]
(;B[cg]
(;W[dh]
(;B[dl]
(;W[ch]
(;B[bc]
(;W[bg]
(;B[bf]
(;W[bi]
(;B[bl]
(;W[df]
(;B[de]
(;W[be]
(;B[ce]
(;W[af]
(;B[bd]
(;W[ae]
(;B[ad]
(;W[ag]
(;B[ef]
(;W[fh]
(;B[bb]
(;W[ff]
(;B[eg]
(;W[eh]
C[mlopezviedma: Thank you very much!
xhu98: Thanks for the game!
]
)))))))))))))))))))))))))))))))))))))))))))))))))))))))))))))))))))))))))))))))))))))))))))))))))))))))))))))))))))))))))))))))))))))))))