(;FF[4]
CA[UTF-8]
GM[1]
DT[2020-03-11]
PC[OGS: https://online-go.com/game/22279923]
GN[mlopezviedma vs. Nevermind101]
PB[mlopezviedma]
PW[Nevermind101]
BR[8k]
WR[6k]
TM[1200]OT[5x30 byo-yomi]
RE[W+R]
SZ[19]
KM[6.5]
RU[Japanese]
C[mlopezviedma: Hi, have fun!
Nevermind101: hi have good time
]
;B[qd]
C[Nevermind101: hi have good time
]
(;W[dd]
(;B[pq]
(;W[dp]
(;B[oc]
(;W[pk]
(;B[qn]
(;W[qh]
(;B[fq]
(;W[eq]
(;B[fp]
(;W[kq]
(;B[iq]
(;W[nq]
(;B[op]
(;W[np]
(;B[oo]
(;W[jp]
(;B[ip]
(;W[no]
(;B[nn]
(;W[mn]
(;B[nm]
(;W[qm]
(;B[rm]
(;W[ql]
(;B[mm]
(;W[ln]
(;B[cn]
(;W[co]
(;B[dn]
(;W[er]
(;B[cj]
(;W[cf]
(;B[do]
(;W[bo]
(;B[ep]
(;W[cq]
(;B[lm]
(;W[jn]
(;B[jd]
(;W[hc]
(;B[qj]
(;W[rl]
(;B[rn]
(;W[pi]
(;B[fc]
(;W[jb]
(;B[ic]
(;W[ib]
(;B[hd]
(;W[gc]
(;B[gd]
(;W[fd]
(;B[fb]
(;W[ga]
(;B[ed]
(;W[fe]
(;B[ee]
(;W[ff]
(;B[kc]
(;W[kb]
(;B[lc]
(;W[lb]
(;B[mc]
(;W[mb]
(;B[nb]
(;W[gb]
(;B[dc]
(;W[cd]
(;B[cc]
(;W[ef]
(;B[bd]
(;W[be]
(;B[de]
(;W[ce]
(;B[bc]
(;W[df]
(;B[ec]
(;W[fa]
(;B[ea]
(;W[da]
(;B[eb]
(;W[ba]
(;B[ab]
(;W[ad]
(;B[ca]
(;W[cb]
(;B[db]
(;W[ca]
(;B[ha]
(;W[hb]
(;B[ia]
(;W[ja]
C[mlopezviedma: Thanks for the game, well played!
]
))))))))))))))))))))))))))))))))))))))))))))))))))))))))))))))))))))))))))))))))))))))))))))))