(;FF[4]
CA[UTF-8]
GM[1]
DT[2020-03-31]
PC[OGS: https://online-go.com/game/22731100]
GN[Tournament Game: Fast Correspondence SDK 2020-03-31 (57871) R:1 (wootfish vs mlopezviedma)]
PB[mlopezviedma]
PW[wootfish]
BR[22k]
WR[24k]
TM[172800]OT[28800 fischer]
RE[W+R]
SZ[19]
KM[6.5]
RU[Japanese]
C[mlopezviedma: Hi, have fun!
wootfish: you too!
wootfish: you're a site mod?
]
;B[qd]
C[wootfish: you too!
wootfish: you're a site mod?
]
(;W[pp]
C[wootfish: that's pretty cool
wootfish: this is literally my favorite web site
wootfish: bar none
mlopezviedma: Yes I am
mlopezviedma: Glad to hear! It's really a pleasure to work for the site :)
]
(;B[dc]
C[wootfish: right on! thanks for all you do :)
]
(;W[dp]
(;B[cn]
(;W[fq]
(;B[ch]
(;W[oc]
(;B[pf]
(;W[md]
(;B[ic]
(;W[qh]
(;B[qg]
(;W[ph]
(;B[qq]
(;W[pq]
(;B[qp]
(;W[qn]
(;B[qo]
(;W[po]
(;B[rn]
(;W[pg]
(;B[qf]
(;W[jp]
(;B[en]
(;W[qr]
(;B[rr]
(;W[rm]
(;B[pn]
(;W[qm]
(;B[pr]
(;W[or]
(;B[qs]
(;W[nq]
(;B[kp]
(;W[kq]
(;B[jo]
(;W[lp]
(;B[ko]
(;W[jq]
(;B[lo]
(;W[mp]
(;B[pc]
(;W[od]
(;B[lc]
(;W[of]
(;B[eh]
C[wootfish: god, you are so far ahead on this board
]
(;W[dg]
(;B[dh]
(;W[cc]
(;B[cd]
(;W[db]
(;B[bc]
(;W[cb]
(;B[dd]
(;W[bb]
(;B[bp]
(;W[cq]
(;B[ho]
(;W[fn]
C[wootfish: I think you're going to win this one for sure but I'll do my best to make it interesting
]
(;B[fo]
(;W[eo]
C[mlopezviedma: It's already an interesting game, I think 
]
(;B[fm]
(;W[dn]
(;B[gn]
(;W[dm]
(;B[bl]
(;W[cl]
(;B[ck]
(;W[bm]
(;B[cm]
(;W[dl]
(;B[bn]
(;W[bd]
(;B[be]
(;W[ac]
(;B[bj]
(;W[bf]
C[wootfish: at this point I'd agree - I guess I was just very intimidated by your opening
]
(;B[ae]
(;W[ce]
(;B[cf]
(;W[de]
(;B[ee]
(;W[df]
(;B[cg]
(;W[af]
(;B[ef]
(;W[ad]
(;B[eg]
(;W[be]
(;B[fk]
(;W[ml]
(;B[on]
(;W[mn]
(;B[gq]
(;W[gr]
(;B[hq]
(;W[hr]
(;B[ld]
(;W[ji]
(;B[jg]
(;W[kh]
(;B[mj]
(;W[kk]
(;B[ok]
(;W[oi]
(;B[qk]
(;W[pl]
(;B[ol]
(;W[pk]
(;B[mm]
(;W[nm]
(;B[lm]
(;W[nn]
(;B[ll]
(;W[lk]
(;B[nl]
(;W[mk]
(;B[nj]
(;W[pj]
(;B[kg]
(;W[lg]
(;B[lf]
(;W[mg]
(;B[jh]
(;W[ki]
(;B[eb]
(;W[fb]
(;B[fc]
(;W[ea]
(;B[ec]
(;W[hi]
(;B[hh]
(;W[ii]
(;B[ep]
(;W[do]
(;B[eq]
(;W[er]
(;B[fp]
(;W[dq]
(;B[fr]
(;W[fs]
(;B[gb]
(;W[fa]
(;B[ga]
(;W[da]
(;B[ob]
(;W[nb]
(;B[pb]
(;W[mc]
(;B[iq]
(;W[ir]
(;B[bq]
(;W[br]
(;B[gi]
(;W[rh]
(;B[rg]
(;W[ih]
(;B[hg]
(;W[ig]
(;B[if]
(;W[gj]
(;B[fj]
(;W[gh]
C[mlopezviedma: Great game, you really didn't give me any chance to use my opening advantage :)
wootfish: Thanks for the game! This was a fun one
]
))))))))))))))))))))))))))))))))))))))))))))))))))))))))))))))))))))))))))))))))))))))))))))))))))))))))))))))))))))))))))))))))))))))))))))))))))))))))))))))))))))