(;FF[4]
CA[UTF-8]
GM[1]
DT[2020-03-31]
PC[OGS: https://online-go.com/game/22731074]
GN[Tournament Game: Fast Correspondence SDK 2020-03-31 (57871) R:1 (Lis9763 vs mlopezviedma)]
PB[mlopezviedma]
PW[Lis9763]
BR[22k]
WR[26k]
TM[172800]OT[28800 fischer]
RE[W+R]
SZ[19]
KM[6.5]
RU[Japanese]
C[mlopezviedma: Hi, have fun!
Lis9763: hi
]
;B[qd]
C[Lis9763: hi
]
(;W[dd]
(;B[pp]
(;W[dp]
(;B[nc]
(;W[qj]
(;B[qh]
(;W[qm]
(;B[qo]
(;W[oj]
(;B[oq]
(;W[qf]
(;B[oh]
(;W[of]
(;B[mh]
(;W[pc]
(;B[pd]
(;W[qc]
(;B[od]
(;W[rd]
(;B[re]
(;W[rc]
(;B[qe]
(;W[ob]
(;B[nb]
(;W[dj]
(;B[cc]
(;W[cd]
(;B[dc]
(;W[ec]
(;B[eb]
(;W[fc]
(;B[fb]
(;W[gc]
(;B[bd]
(;W[be]
(;B[bc]
(;W[cf]
(;B[jd]
(;W[jq]
(;B[cq]
(;W[cp]
(;B[dq]
(;W[ep]
(;B[fr]
(;W[eq]
(;B[er]
(;W[gj]
(;B[gp]
(;W[go]
(;B[hp]
(;W[mq]
(;B[dk]
(;W[cj]
(;B[fo]
(;W[en]
(;B[gn]
(;W[fm]
(;B[gm]
(;W[gl]
(;B[fl]
(;W[el]
(;B[hl]
(;W[gk]
(;B[jo]
(;W[kp]
(;B[ko]
(;W[lo]
(;B[ln]
(;W[mo]
(;B[mn]
(;W[on]
(;B[no]
(;W[np]
(;B[oo]
(;W[nm]
(;B[nn]
(;W[pn]
(;B[ro]
(;W[rm]
(;B[or]
(;W[mr]
(;B[ee]
(;W[ed]
(;B[he]
(;W[fe]
(;B[gf]
(;W[ff]
(;B[gg]
(;W[kh]
(;B[fg]
(;W[eg]
(;B[ki]
(;W[li]
(;B[lh]
(;W[jh]
(;B[ji]
(;W[ih]
(;B[hi]
(;W[ii]
(;B[gi]
(;W[ij]
(;B[ei]
(;W[di]
(;B[kf]
(;W[mi]
(;B[ni]
(;W[mk]
(;B[nj]
(;W[kj]
(;B[ok]
(;W[pj]
(;B[nk]
(;W[ml]
(;B[eh]
(;W[dh]
(;B[ej]
(;W[ek]
(;B[ge]
(;W[ef]
(;B[ib]
(;W[bq]
(;B[br]
(;W[bp]
(;B[ar]
(;W[rh]
(;B[rg]
(;W[rf]
(;B[sg]
(;W[qg]
(;B[sf]
(;W[ph]
(;B[pg]
(;W[qi]
(;B[pf]
(;W[qh]
(;B[og]
(;W[na]
(;B[ma]
(;W[oa]
(;B[lb]
(;W[sd]
(;B[se]
(;W[hr]
(;B[gr]
(;W[iq]
(;B[eo]
(;W[do]
(;B[hk]
(;W[kg]
(;B[lf]
(;W[lg]
(;B[mg]
(;W[jm]
(;B[im]
(;W[km]
(;B[in]
(;W[gb]
(;B[pl]
(;W[ql]
(;B[hq]
(;W[ir]
(;B[jk]
(;W[ik]
(;B[il]
(;W[jl]
(;B[hj]
(;W[fa]
(;B[da]
(;W[pk]
(;B[om]
(;W[nl]
(;B[ol]
(;W[oi]
(;B[sh]
(;W[si]
(;B[oc]
(;W[qb]
(;B[jp]
(;W[lq]
C[mlopezviedma: Thank you for the game! I don't think there's much more to do
]
))))))))))))))))))))))))))))))))))))))))))))))))))))))))))))))))))))))))))))))))))))))))))))))))))))))))))))))))))))))))))))))))))))))))))))))))))))))))))))))))))))))))))))))))))))