(;FF[4]
CA[UTF-8]
GM[1]
DT[2020-04-05]
PC[OGS: https://online-go.com/game/22857705]
GN[Tournament Game: Fast Correspondence SDK 2020-04-05 (58146) R:1 (mlopezviedma vs kobuz)]
PB[kobuz]
PW[mlopezviedma]
BR[28k]
WR[22k]
TM[172800]OT[28800 fischer]
RE[B+R]
SZ[19]
KM[6.5]
RU[Japanese]
C[kobuz: Hi, have a good game
mlopezviedma: Hi, have fun!
]
;B[pd]
C[mlopezviedma: Hi, have fun!
]
(;W[dp]
(;B[qp]
(;W[dd]
(;B[np]
(;W[qc]
(;B[qd]
(;W[pc]
(;B[oc]
(;W[ob]
(;B[nb]
(;W[nc]
(;B[od]
(;W[mb]
(;B[pb]
(;W[na]
(;B[qb]
(;W[rc]
(;B[rb]
(;W[ic]
(;B[cq]
(;W[cp]
(;B[dq]
(;W[ep]
(;B[eq]
(;W[dj]
(;B[fp]
(;W[bq]
(;B[br]
(;W[bp]
(;B[cc]
(;W[cd]
(;B[dc]
(;W[ed]
(;B[fb]
(;W[fq]
(;B[gq]
(;W[fr]
(;B[gr]
(;W[fo]
(;B[gp]
(;W[go]
(;B[gc]
(;W[ge]
(;B[pj]
(;W[qi]
(;B[qj]
(;W[rf]
(;B[re]
(;W[pi]
(;B[oi]
(;W[oh]
(;B[nh]
(;W[ni]
(;B[oj]
(;W[ng]
(;B[mh]
(;W[pg]
(;B[mg]
(;W[nf]
(;B[nd]
(;W[md]
(;B[mf]
(;W[of]
(;B[pf]
(;W[pe]
(;B[qf]
(;W[qg]
(;B[qe]
(;W[rh]
(;B[rj]
(;W[qq]
(;B[pq]
(;W[rp]
(;B[qr]
(;W[qo]
(;B[rq]
(;W[rn]
(;B[qm]
(;W[pm]
(;B[rm]
(;W[pn]
(;B[mm]
(;W[no]
(;B[mo]
(;W[mp]
(;B[nn]
(;W[oo]
(;B[op]
(;W[lo]
(;B[mn]
(;W[kp]
(;B[mq]
(;W[io]
(;B[jm]
(;W[hm]
(;B[bc]
(;W[bd]
(;B[me]
(;W[ld]
(;B[sf]
C[mlopezviedma: Thank you for the game!
kobuz: Thanks
]
)))))))))))))))))))))))))))))))))))))))))))))))))))))))))))))))))))))))))))))))))))))))))))))))))))))