(;FF[4]
CA[UTF-8]
GM[1]
DT[2020-04-13]
PC[OGS: https://online-go.com/game/23067197]
GN[Tournament Game: Fast Correspondence SDK 2020-04-13 (58551) R:1 (mlopezviedma vs amarquis)]
PB[amarquis]
PW[mlopezviedma]
BR[23k]
WR[21k]
TM[172800]OT[28800 fischer]
RE[W+R]
SZ[19]
KM[6.5]
RU[Japanese]
C[amarquis: Hello, have fun!
mlopezviedma: Hi, have fun!
]
;B[qd]
C[mlopezviedma: Hi, have fun!
]
(;W[dp]
(;B[pq]
(;W[dc]
(;B[nd]
(;W[qo]
(;B[qm]
(;W[op]
(;B[pp]
(;W[po]
(;B[oo]
(;W[on]
(;B[no]
(;W[pm]
(;B[np]
(;W[ql]
(;B[fq]
(;W[cn]
(;B[jp]
(;W[df]
(;B[ic]
(;W[kc]
(;B[mc]
(;W[ke]
(;B[fc]
(;W[cd]
(;B[ie]
(;W[kg]
))))))))))))))))))))))))))))