(;FF[4]
CA[UTF-8]
GM[1]
DT[2015-07-17]
PC[OGS: https://online-go.com/game/2434838]
GN[Ladder Challenge: mlopezviedma(#562) vs Mendieta(#338)]
PB[Mendieta]
PW[mlopezviedma]
BR[9k]
WR[6k]
TM[259200]OT[86400 fischer]
RE[W+T]
SZ[19]
KM[6.5]
RU[Japanese]
C[mlopezviedma: Nos encontramos en la escalera. :) Buen juego!
Mendieta: Hola! Buena partida!
]
;B[pp]
;W[dq]
;B[cc]
;W[qd]
;B[od]
;W[oc]
;B[nc]
;W[pc]
;B[md]
;W[qf]
;B[ic]
;W[co]
;B[jq]
;W[qn]
;B[nq]
C[mlopezviedma: Muchas gracias, disculpas por la molestia!
]
;W[pj]
C[mlopezviedma: Oh, el telefono coloco mi piedra en otro lado. :(
Mendieta: no hay problema Mariano!
]
;B[ql]
C[mlopezviedma: Creo que no voy a seguir jugando con mi teléfono :P
]
;W[qq]
;B[qp]
;W[pq]
;B[op]
;W[rp]
;B[ro]
;W[rq]
;B[qo]
;W[oq]
;B[nr]
;W[or]
;B[np]
;W[hq]
;B[jo]
;W[pl]
;B[rn]
C[Mendieta: Hola Mariano. Salgo un rato. Quiero ver si puedo hacer andar la desktop. me parece que se murió la fuente. Estoy jugando con la netbook y no me gusta
Mendieta: Saludos
mlopezviedma: Me parece bien. Yo de todas formas a veces dejo la pestaña abierta pero no estoy en la computadora. Saludos!
]
;W[pm]
;B[qm]
;W[qk]
C[Mendieta: volví a la netbook. efectivamente se murió la fuente. te había invitado a un torneo pero parece que no se efectivizó por falta  de jugadors
]
;B[pn]
C[mlopezviedma: Ah, de todas formas estoy por salir, no tengo tiempo para jugar en vivo ahora.
]
;W[nm]
;B[cf]
;W[cj]
;B[if]
;W[dc]
;B[dd]
;W[ed]
;B[de]
;W[db]
;B[cb]
;W[hd]
;B[id]
;W[gf]
;B[cl]
;W[en]
;B[el]
;W[ej]
;B[gl]
;W[gn]
;B[bn]
;W[bo]
;B[cn]
;W[gj]
;B[il]
;W[ne]
;B[nd]
;W[hl]
;B[hm]
;W[hk]
;B[gm]
;W[im]
;B[in]
;W[jm]
;B[hn]
;W[lm]
;B[go]
;W[fo]
;B[fn]
;W[fp]
;B[em]
;W[dn]
;B[dm]
;W[of]
;B[lg]
;W[nh]
;B[me]
;W[mf]
;B[lf]
;W[li]
;B[pe]
;W[pf]
;B[qe]
;W[re]
;B[pd]
;W[rd]
;B[mg]
;W[ng]
;B[eb]
;W[fc]
;B[ec]
;W[fb]
;B[da]
;W[gh]
;B[ih]
;W[jj]
;B[ao]
;W[ap]
;B[an]
;W[bq]
;B[ir]
;W[hr]
;B[hs]
;W[gs]
)