(;FF[4]
CA[UTF-8]
GM[1]
DT[2020-06-27]
PC[OGS: https://online-go.com/game/24996809]
GN[Ladder Challenge: mlopezviedma(#2454) vs wonderland_hkmud(#1480)]
PB[wonderland_hkmud]
PW[mlopezviedma]
BR[24k]
WR[21k]
TM[259200]OT[86400 fischer]
RE[W+T]
SZ[19]
KM[6.5]
RU[Japanese]
C[mlopezviedma: Hi, have fun!
wonderland_hkmud: Hi 😊
]
;B[pd]
(;W[dp]
(;B[pp]
(;W[cd]
(;B[cq]
(;W[cp]
(;B[dq]
(;W[eq]
(;B[er]
(;W[fq]
(;B[fr]
(;W[dk]
(;B[gq]
(;W[gp]
(;B[hp]
(;W[go]
(;B[ho]
(;W[gn]
(;B[hn]
(;W[gm]
(;B[hm]
(;W[nq]
(;B[lq]
(;W[no]
(;B[pn]
(;W[pr]
(;B[qq]
(;W[kp]
(;B[lp]
(;W[lo]
(;B[ko]
(;W[mp]
(;B[ln]
(;W[mo]
(;B[kq]
(;W[nm]
(;B[ql]
(;W[ed]
(;B[lm]
(;W[pm]
(;B[qm]
(;W[pl]
(;B[on]
(;W[mm]
(;B[lk]
(;W[nj]
(;B[pj]
(;W[qc]
(;B[qd]
(;W[pc]
(;B[od]
(;W[nb]
(;B[mi]
(;W[pk]
(;B[qk]
(;W[oj]
(;B[pi]
(;W[mj]
(;B[lj]
(;W[ni]
(;B[li]
(;W[nh]
(;B[pg]
(;W[nf]
(;B[md]
(;W[le]
(;B[rc]
(;W[ld]
(;B[mc]
(;W[rb]
(;B[rd]
(;W[mb]
(;B[lc]
(;W[oc]
(;B[sb]
(;W[qa]
(;B[jc]
(;W[je]
(;B[gc]
(;W[fc]
(;B[gd]
(;W[dg]
(;B[mg]
(;W[mf]
(;B[ng]
(;W[mk]
(;B[om]
(;W[nl]
(;B[qr]
(;W[pq]
(;B[op]
(;W[nr]
(;B[oq]
(;W[or]
(;B[mr]
(;W[kn]
(;B[km]
(;W[jo]
(;B[jq]
(;W[jm]
(;B[jl]
(;W[kl]
(;B[im]
(;W[ll]
(;B[jn]
(;W[kk]
(;B[jj]
(;W[mh]
(;B[lh]
(;W[og]
(;B[lg]
(;W[ph]
(;B[qh]
(;W[kj]
(;B[ki]
(;W[ji]
))))))))))))))))))))))))))))))))))))))))))))))))))))))))))))))))))))))))))))))))))))))))))))))))))))))))))))))))))))