(;FF[4]
CA[UTF-8]
GM[1]
DT[2020-06-28]
PC[OGS: https://online-go.com/game/25019006]
GN[Tournament Game: Fast Correspondence 2020-06-28 (62235) R:1 (mlopezviedma vs rocky8668)]
PB[rocky8668]
PW[mlopezviedma]
BR[29k]
WR[21k]
TM[172800]OT[28800 fischer]
RE[B+R]
SZ[19]
KM[6.5]
RU[Japanese]
C[mlopezviedma: Hi there! Have fun!
]
;B[pd]
(;W[cp]
(;B[qp]
(;W[dd]
(;B[eq]
(;W[do]
(;B[hp]
(;W[oq]
(;B[lq]
(;W[po]
(;B[pp]
(;W[op]
(;B[oo]
(;W[no]
(;B[on]
(;W[nn]
(;B[pn]
(;W[jq]
(;B[jp]
(;W[kp]
(;B[kq]
(;W[ip]
(;B[jo]
(;W[iq]
(;B[io]
(;W[hq]
(;B[gp]
(;W[lp]
(;B[mp]
(;W[kn]
(;B[mo]
(;W[ln]
(;B[mq]
(;W[np]
(;B[gq]
(;W[mn]
(;B[jr]
(;W[qr]
(;B[fc]
(;W[cf]
(;B[id]
(;W[qc]
(;B[pc]
(;W[qd]
(;B[pe]
(;W[rf]
(;B[qg]
(;W[rg]
(;B[qh]
(;W[kc]
(;B[jc]
(;W[nc]
(;B[qb]
(;W[rb]
(;B[pb]
(;W[ri]
(;B[rh]
(;W[sh]
(;B[qi]
(;W[rj]
(;B[qj]
(;W[ne]
(;B[ra]
(;W[sc]
(;B[rk]
(;W[qf]
(;B[pf]
(;W[rd]
(;B[kd]
(;W[lc]
(;B[ng]
(;W[mf]
(;B[lh]
(;W[kf]
(;B[if]
(;W[jg]
(;B[hh]
(;W[ig]
(;B[hg]
(;W[ji]
(;B[kj]
(;W[jj]
(;B[lg]
(;W[lf]
(;B[jk]
(;W[ki]
(;B[li]
(;W[kk]
(;B[lj]
(;W[ik]
(;B[jl]
(;W[kl]
(;B[il]
(;W[hk]
(;B[hi]
(;W[ii]
(;B[gm]
(;W[hl]
(;B[hm]
(;W[nk]
(;B[md]
(;W[nd]
(;B[ld]
(;W[mc]
(;B[gj]
(;W[je]
(;B[jd]
(;W[ie]
(;B[he]
(;W[jb]
(;B[ib]
(;W[ka]
(;B[ma]
C[mlopezviedma: Thank you for the game!
]
)))))))))))))))))))))))))))))))))))))))))))))))))))))))))))))))))))))))))))))))))))))))))))))))))))))))))))))))))