(;FF[4]
CA[UTF-8]
GM[1]
DT[2020-06-30]
PC[OGS: https://online-go.com/game/25077313]
GN[Tournament Game: Fast Correspondence Unofficial Title Tournament 19x19 - 2020 (60257) R:1 (sterre vs mlopezviedma)]
PB[mlopezviedma]
PW[sterre]
BR[21k]
WR[20k]
TM[172800]OT[28800 fischer]
RE[B+R]
SZ[19]
KM[6.5]
RU[Japanese]
C[mlopezviedma: Hi there! Have fun!
sterre: You too!
]
;B[pd]
C[sterre: You too!
]
(;W[pp]
(;B[dc]
(;W[dp]
(;B[df]
(;W[jp]
(;B[cq]
(;W[cp]
(;B[dq]
(;W[eq]
(;B[er]
(;W[fq]
(;B[fr]
(;W[gq]
(;B[bp]
(;W[br]
(;B[bq]
(;W[dm]
(;B[qq]
(;W[qp]
(;B[pq]
(;W[oq]
(;B[or]
(;W[nq]
(;B[nr]
(;W[mq]
(;B[rp]
(;W[ro]
(;B[rq]
(;W[qn]
(;B[pj]
(;W[nc]
(;B[qf]
(;W[kc]
(;B[hc]
(;W[pb]
(;B[qc]
(;W[ib]
(;B[cj]
(;W[ch]
(;B[cg]
(;W[dh]
(;B[bm]
(;W[ej]
(;B[ek]
(;W[dk]
(;B[dj]
(;W[fj]
(;B[eo]
(;W[gm]
(;B[ep]
(;W[cn]
(;B[co]
(;W[bn]
(;B[dl]
(;W[em]
(;B[ql]
(;W[cl]
(;B[go]
(;W[ck]
(;B[hq]
(;W[hp]
(;B[gp]
(;W[iq]
(;B[hr]
(;W[ir]
(;B[gr]
(;W[gk]
(;B[ho]
(;W[jo]
(;B[om]
(;W[oo]
(;B[mm]
(;W[jm]
(;B[hb]
(;W[ge]
(;B[fd]
(;W[fg]
(;B[ne]
(;W[oh]
(;B[mh]
(;W[nj]
C[sterre: Need to set aside Go for a while due to work. Thank you very much for the game.
mlopezviedma: Take care! Thank you for the game!
]
))))))))))))))))))))))))))))))))))))))))))))))))))))))))))))))))))))))))))))))))))