(;FF[4]
CA[UTF-8]
GM[1]
DT[2020-06-30]
PC[OGS: https://online-go.com/game/25077315]
GN[Tournament Game: Fast Correspondence Unofficial Title Tournament 19x19 - 2020 (60257) R:1 (abcdev vs mlopezviedma)]
PB[mlopezviedma]
PW[abcdev]
BR[21k]
WR[20k]
TM[172800]OT[28800 fischer]
RE[W+R]
SZ[19]
KM[6.5]
RU[Japanese]
C[mlopezviedma: Hi there! Have fun!
abcdev: Let's have a good game!
]
;B[qd]
C[abcdev: Let's have a good game!
]
(;W[cp]
(;B[pq]
(;W[od]
(;B[oc]
(;W[nc]
(;B[pc]
(;W[nd]
(;B[qf]
(;W[jc]
(;B[dc]
(;W[po]
(;B[qo]
(;W[qn]
(;B[qp]
(;W[pn]
(;B[nq]
(;W[eq]
(;B[di]
(;W[de]
(;B[ce]
(;W[cf]
(;B[cd]
(;W[dg]
(;B[fc]
(;W[dk]
(;B[fi]
(;W[dd]
(;B[cc]
(;W[fk]
(;B[bi]
(;W[gf]
(;B[cl]
(;W[ck]
(;B[bk]
(;W[cj]
(;B[ci]
(;W[bj]
(;B[ej]
(;W[ek]
(;B[hi]
(;W[gd]
(;B[gc]
(;W[gh]
(;B[gi]
(;W[ik]
(;B[co]
(;W[do]
(;B[bp]
(;W[cq]
(;B[bn]
(;W[cn]
(;B[bo]
(;W[dn]
(;B[bq]
(;W[ji]
(;B[ih]
(;W[jh]
(;B[ig]
(;W[eh]
(;B[dj]
(;W[bl]
(;B[cr]
(;W[dr]
(;B[br]
(;W[dl]
(;B[jg]
(;W[hd]
(;B[jd]
(;W[je]
(;B[ke]
(;W[kd]
(;B[kf]
(;W[id]
(;B[nf]
(;W[mh]
(;B[mg]
(;W[ng]
(;B[og]
(;W[nh]
(;B[mf]
(;W[of]
(;B[oe]
(;W[oh]
(;B[pf]
(;W[pd]
(;B[qc]
(;W[pp]
(;B[qq]
(;W[lr]
(;B[lp]
(;W[mp]
(;B[mq]
(;W[lq]
(;B[mo]
(;W[np]
(;B[no]
(;W[op]
(;B[oq]
(;W[kp]
(;B[qi]
(;W[lo]
(;B[ql]
(;W[pj]
(;B[qj]
(;W[pk]
(;B[hk]
(;W[hl]
(;B[ij]
(;W[jk]
(;B[jj]
(;W[kj]
(;B[ki]
(;W[kh]
(;B[kk]
(;W[lj]
(;B[il]
(;W[jl]
(;B[gl]
(;W[ii]
(;B[hm]
(;W[hj]
(;B[gj]
(;W[hh]
(;B[ij]
(;W[gk]
(;B[jm]
(;W[jj]
(;B[hj]
(;W[fj]
(;B[ei]
(;W[in]
(;B[im]
(;W[kl]
(;B[fh]
(;W[fg]
(;B[hn]
(;W[io]
(;B[ho]
(;W[gq]
(;B[bg]
(;W[bf]
(;B[cg]
(;W[dh]
C[mlopezviedma: Thank you for the game!
abcdev: Thanks.
]
))))))))))))))))))))))))))))))))))))))))))))))))))))))))))))))))))))))))))))))))))))))))))))))))))))))))))))))))))))))))))))))))))))))))))))))))