(;FF[4]
CA[UTF-8]
GM[1]
DT[2020-06-30]
PC[OGS: https://online-go.com/game/25077312]
GN[Tournament Game: Fast Correspondence Unofficial Title Tournament 19x19 - 2020 (60257) R:1 (mlopezviedma vs taka2)]
PB[taka2]
PW[mlopezviedma]
BR[19k]
WR[21k]
TM[172800]OT[28800 fischer]
RE[W+19.5]
SZ[19]
KM[6.5]
RU[Japanese]
C[mlopezviedma: Hi there! Have fun!
]
;B[pd]
C[mlopezviedma: Hi there! Have fun!
]
(;W[cp]
(;B[pp]
(;W[dc]
(;B[eq]
(;W[dn]
(;B[jp]
(;W[qf]
(;B[qh]
(;W[qc]
(;B[qd]
(;W[pc]
(;B[od]
(;W[rd]
(;B[re]
(;W[rc]
(;B[qe]
(;W[nc]
(;B[ce]
(;W[ed]
(;B[ch]
(;W[qq]
(;B[qp]
(;W[pq]
(;B[oq]
(;W[or]
(;B[nq]
(;W[nr]
(;B[mq]
(;W[rp]
(;B[ro]
(;W[rq]
(;B[qn]
(;W[nd]
(;B[ne]
(;W[me]
(;B[nf]
(;W[ok]
(;B[om]
(;W[oh]
(;B[pg]
(;W[qk]
(;B[pj]
(;W[pk]
(;B[oj]
(;W[nk]
(;B[nj]
(;W[mj]
(;B[mk]
(;W[ml]
(;B[lk]
(;W[nm]
(;B[no]
(;W[qj]
(;B[pi]
(;W[ll]
(;B[kk]
(;W[kl]
(;B[jk]
(;W[kp]
(;B[ko]
(;W[jo]
(;B[kq]
(;W[kn]
(;B[lo]
(;W[in]
(;B[gd]
(;W[cd]
(;B[de]
(;W[ee]
(;B[jd]
(;W[kc]
(;B[jc]
(;W[kd]
(;B[ke]
(;W[kb]
(;B[jb]
(;W[le]
(;B[kf]
(;W[ja]
(;B[ia]
(;W[ka]
(;B[hb]
(;W[ip]
(;B[jq]
(;W[iq]
(;B[cr]
(;W[gr]
(;B[bp]
(;W[bq]
(;B[cq]
(;W[bo]
(;B[br]
(;W[ap]
(;B[dp]
(;W[do]
(;B[eo]
(;W[en]
(;B[fo]
(;W[cj]
(;B[eh]
(;W[ge]
(;B[he]
(;W[gf]
(;B[fc]
(;W[hf]
(;B[eb]
(;W[db]
(;B[be]
(;W[bd]
(;B[bb]
(;W[ec]
(;B[fb]
(;W[ef]
(;B[dg]
(;W[gh]
(;B[ih]
(;W[gj]
(;B[ej]
(;W[dl]
(;B[fl]
(;W[ek]
(;B[fk]
(;W[fj]
(;B[dk]
(;W[el]
(;B[dj]
(;W[ck]
(;B[ci]
(;W[fm]
(;B[gl]
(;W[hl]
(;B[gm]
(;W[gn]
(;B[hm]
(;W[il]
(;B[hn]
(;W[go]
(;B[ho]
(;W[gp]
(;B[im]
(;W[jm]
(;B[jl]
(;W[hk]
(;B[io]
(;W[jn]
(;B[ln]
(;W[km]
(;B[ir]
(;W[hq]
(;B[fr]
(;W[fq]
(;B[fp]
(;W[gq]
(;B[dr]
(;W[fs]
(;B[er]
(;W[ae]
(;B[af]
(;W[ad]
(;B[bf]
(;W[se]
(;B[sf]
(;W[sd]
(;B[rf]
(;W[ie]
(;B[hd]
(;W[ig]
(;B[jh]
(;W[jg]
(;B[kg]
(;W[id]
(;B[ic]
(;W[mr]
(;B[lr]
(;W[rm]
(;B[qm]
(;W[rl]
(;B[ri]
(;W[so]
(;B[sn]
(;W[sp]
(;B[rn]
(;W[mf]
(;B[mg]
(;W[ng]
(;B[lf]
(;W[mh]
(;B[lg]
(;W[qi]
(;B[ph]
(;W[rj]
(;B[si]
(;W[sj]
(;B[rg]
(;W[ij]
(;B[jj]
(;W[ii]
(;B[ji]
(;W[hh]
(;B[bi]
(;W[bj]
(;B[aj]
(;W[bl]
(;B[al]
(;W[am]
(;B[ak]
(;W[cm]
(;B[oc]
(;W[ob]
(;B[je]
(;W[if]
(;B[da]
(;W[ca]
(;B[ea]
(;W[cb]
(;B[ar]
(;W[aq]
(;B[fi]
(;W[gi]
(;B[fh]
(;W[df]
(;B[cf]
(;W[bk]
(;B[ai]
(;W[nn]
(;B[on]
(;W[hr]
(;B[jr]
(;W[ls]
(;B[ks]
(;W[ms]
(;B[is]
(;W[es]
(;B[ds]
(;W[gs]
(;B[fd]
(;W[fe]
(;B[fg]
(;W[gg]
(;B[eg]
(;W[sm]
(;B[mn]
(;W[pl]
(;B[mm]
(;W[nl]
(;B[pm]
(;W[nb]
(;B[ld]
(;W[md]
(;B[ep]
(;W[fn]
(;B[]
(;W[]
C[mlopezviedma: Thank you for the game!
]
))))))))))))))))))))))))))))))))))))))))))))))))))))))))))))))))))))))))))))))))))))))))))))))))))))))))))))))))))))))))))))))))))))))))))))))))))))))))))))))))))))))))))))))))))))))))))))))))))))))))))))))))))))))))))))))))))))))))))))))))))))))))))))))