(;FF[4]
CA[UTF-8]
GM[1]
DT[2020-07-16]
PC[OGS: https://online-go.com/game/25470090]
GN[Tournament Game: Monthly Simultaneous McMahon 2020-07-16 17:00 (62641) R:1 (mlopezviedma vs tonyhu0123)]
PB[tonyhu0123]
PW[mlopezviedma]
BR[23k]
WR[21k]
TM[259200]OT[86400 fischer]
RE[B+R]
SZ[19]
KM[6.5]
RU[Japanese]
C[mlopezviedma: Hi, have fun!
]
;B[dq]
C[mlopezviedma: Hi, have fun!
]
(;W[dd]
C[tonyhu0123: tks
tonyhu0123: you too
]
(;B[qp]
(;W[qd]
(;B[od]
(;W[oc]
(;B[nc]
(;W[pc]
(;B[nd]
(;W[qf]
(;B[jc]
(;W[co]
(;B[fp]
(;W[dm]
(;B[cc]
(;W[dc]
(;B[cd]
(;W[cf]
(;B[ce]
(;W[de]
(;B[bf]
(;W[cb]
(;B[bb]
(;W[db]
(;B[cg]
(;W[df]
(;B[bh]
(;W[oq]
(;B[qm]
(;W[qq]
(;B[rq]
(;W[rr]
(;B[pq]
(;W[qr]
(;B[pp]
(;W[pr]
(;B[kq]
(;W[op]
(;B[ro]
(;W[lc]
(;B[kd]
(;W[jb]
(;B[ib]
(;W[kb]
(;B[ld]
(;W[ic]
(;B[id]
(;W[hc]
(;B[hd]
(;W[gc]
(;B[gd]
(;W[fc]
(;B[og]
(;W[gf]
(;B[ck]
(;W[cq]
(;B[cr]
(;W[dp]
(;B[eq]
(;W[bq]
(;B[qh]
(;W[iq]
(;B[gq]
(;W[io]
(;B[ko]
(;W[im]
(;B[fm]
(;W[km]
(;B[oo]
(;W[no]
(;B[nn]
(;W[on]
(;B[po]
(;W[mn]
(;B[nm]
(;W[mo]
(;B[ir]
(;W[jr]
(;B[jq]
(;W[hq]
(;B[hr]
(;W[mm]
(;B[nl]
(;W[ml]
(;B[nk]
(;W[lr]
(;B[kr]
(;W[dk]
(;B[bl]
(;W[cj]
(;B[dl]
(;W[el]
(;B[cl]
(;W[em]
(;B[ek]
(;W[dj]
(;B[bj]
(;W[fk]
(;B[ej]
(;W[ei]
(;B[fj]
(;W[fi]
(;B[gj]
(;W[dh]
(;B[gi]
(;W[gh]
(;B[hh]
(;W[hg]
(;B[ij]
(;W[fn]
(;B[ih]
(;W[ig]
(;B[jg]
(;W[jf]
(;B[kf]
(;W[jh]
(;B[kg]
(;W[ji]
(;B[jj]
(;W[lh]
(;B[lj]
(;W[gk]
(;B[ii]
(;W[oh]
(;B[qg]
(;W[pf]
(;B[of]
(;W[mj]
(;B[mk]
(;W[ph]
(;B[pg]
(;W[pj]
(;B[pk]
(;W[qk]
(;B[ql]
(;W[qi]
(;B[rk]
(;W[ri]
(;B[rh]
(;W[ok]
(;B[qj]
(;W[nj]
(;B[kk]
(;W[ng]
(;B[mg]
(;W[nf]
(;B[ne]
C[mlopezviedma: Thank you for the game!
]
)))))))))))))))))))))))))))))))))))))))))))))))))))))))))))))))))))))))))))))))))))))))))))))))))))))))))))))))))))))))))))))))))))))))))))))))))))