(;FF[4]
CA[UTF-8]
GM[1]
DT[2020-07-16]
PC[OGS: https://online-go.com/game/25470081]
GN[Tournament Game: Monthly Simultaneous McMahon 2020-07-16 17:00 (62641) R:1 (mlopezviedma vs toferi)]
PB[toferi]
PW[mlopezviedma]
BR[22k]
WR[21k]
TM[259200]OT[86400 fischer]
RE[W+R]
SZ[19]
KM[6.5]
RU[Japanese]
C[toferi: hi
mlopezviedma: Hi, have fun!
]
;B[pd]
C[mlopezviedma: Hi, have fun!
]
(;W[dp]
(;B[pq]
(;W[dc]
(;B[qo]
(;W[ce]
(;B[jc]
(;W[jq]
(;B[ck]
(;W[cn]
(;B[ch]
(;W[qc]
(;B[pc]
(;W[qd]
(;B[pe]
(;W[rf]
(;B[qg]
(;W[rg]
(;B[qh]
(;W[kd]
(;B[kc]
(;W[ld]
(;B[lc]
(;W[lg]
(;B[rh]
(;W[qb]
(;B[pb]
(;W[ig]
(;B[gc]
(;W[eh]
(;B[dg]
(;W[eg]
(;B[df]
(;W[de]
(;B[ef]
(;W[ff]
(;B[ee]
(;W[ed]
(;B[fe]
(;W[gf]
(;B[ge]
(;W[hf]
(;B[fq]
(;W[eq]
(;B[fp]
(;W[hq]
(;B[lq]
(;W[ho]
(;B[ep]
(;W[dq]
(;B[en]
(;W[dl]
(;B[dm]
(;W[cm]
(;B[cl]
(;W[dk]
(;B[dj]
(;W[ej]
(;B[di]
(;W[fk]
(;B[el]
(;W[ek]
(;B[gn]
(;W[hn]
(;B[gm]
(;W[il]
(;B[dn]
(;W[do]
(;B[hm]
(;W[im]
(;B[fl]
(;W[hk]
(;B[gk]
(;W[gj]
(;B[gl]
(;W[hj]
(;B[ei]
(;W[fj]
(;B[er]
(;W[dr]
(;B[go]
(;W[eo]
(;B[fo]
(;W[fm]
(;B[in]
(;W[io]
(;B[jn]
(;W[jo]
(;B[kn]
(;W[gr]
C[toferi: thx for the game
mlopezviedma: Thank you for the game!
]
))))))))))))))))))))))))))))))))))))))))))))))))))))))))))))))))))))))))))))))))))))))))))