(;FF[4]
CA[UTF-8]
GM[1]
DT[2020-08-16]
PC[OGS: https://online-go.com/game/26205578]
GN[Tournament Game: Monthly Simultaneous McMahon 2020-08-16 17:00 (63820) R:1 (mlopezviedma vs tonyhu0123)]
PB[tonyhu0123]
PW[mlopezviedma]
BR[23k]
WR[21k]
TM[259200]OT[86400 fischer]
RE[B+R]
SZ[19]
KM[6.5]
RU[Japanese]
C[mlopezviedma: Hi there! Have fun!
]
;B[dp]
C[mlopezviedma: Hi there! Have fun!
]
(;W[cd]
C[tonyhu0123: tks
tonyhu0123: you too
]
(;B[qp]
(;W[pd]
(;B[ed]
(;W[ec]
(;B[fc]
(;W[dc]
(;B[fd]
(;W[cf]
(;B[jc]
(;W[oq]
(;B[lp]
(;W[po]
(;B[pp]
(;W[op]
(;B[oo]
(;W[pn]
(;B[no]
(;W[qr]
(;B[rn]
(;W[pl]
(;B[rr]
(;W[qq]
(;B[rq]
(;W[mr]
(;B[kq]
(;W[lr]
(;B[kr]
(;W[mp]
(;B[mo]
(;W[mq]
(;B[rl]
(;W[lo]
(;B[mm]
(;W[ko]
(;B[iq]
(;W[km]
(;B[mk]
(;W[pj]
(;B[io]
(;W[kk]
(;B[mi]
(;W[ri]
(;B[nc]
(;W[ne]
(;B[qc]
(;W[qd]
(;B[pc]
(;W[mc]
(;B[nb]
(;W[md]
(;B[lg]
(;W[ml]
(;B[nl]
(;W[ll]
(;B[nk]
(;W[oh]
(;B[pq]
(;W[pr]
(;B[qs]
(;W[os]
(;B[qo]
(;W[nr]
(;B[pm]
(;W[om]
(;B[qm]
(;W[ol]
(;B[on]
(;W[nm]
(;B[ln]
(;W[kn]
(;B[oi]
(;W[pi]
(;B[nh]
(;W[og]
(;B[il]
(;W[jj]
(;B[kf]
(;W[cq]
(;B[cp]
(;W[dq]
(;B[eq]
(;W[er]
(;B[fq]
(;W[fr]
(;B[gq]
(;W[gr]
(;B[bq]
(;W[br]
(;B[bp]
(;W[ar]
(;B[dj]
(;W[im]
(;B[hm]
(;W[hl]
(;B[hk]
(;W[gl]
(;B[ik]
(;W[in]
(;B[gn]
(;W[gk]
(;B[hi]
(;W[hj]
(;B[ij]
(;W[gj]
(;B[ji]
(;W[mn]
(;B[nn]
(;W[lm]
(;B[gi]
(;W[gm]
(;B[hn]
(;W[fi]
(;B[fj]
(;W[ej]
(;B[fk]
(;W[ek]
(;B[fl]
(;W[el]
(;B[fm]
(;W[di]
(;B[fh]
(;W[cj]
(;B[cl]
(;W[ck]
(;B[dl]
(;W[dk]
(;B[em]
(;W[bl]
(;B[bm]
(;W[ak]
(;B[rd]
(;W[re]
(;B[rc]
(;W[qf]
(;B[mb]
(;W[ke]
(;B[je]
(;W[kd]
(;B[jd]
(;W[am]
(;B[bn]
(;W[ef]
(;B[ff]
(;W[eh]
(;B[eg]
(;W[dg]
(;B[fg]
(;W[ki]
(;B[jh]
(;W[oj]
(;B[ni]
(;W[fb]
(;B[gb]
(;W[ea]
(;B[kc]
(;W[ga]
(;B[ha]
(;W[fa]
(;B[hc]
(;W[ks]
(;B[js]
(;W[ls]
(;B[hr]
(;W[lc]
(;B[lb]
(;W[kp]
(;B[le]
(;W[ld]
(;B[oe]
(;W[od]
(;B[nd]
C[mlopezviedma: Thank you for the game!
tonyhu0123: tks
]
)))))))))))))))))))))))))))))))))))))))))))))))))))))))))))))))))))))))))))))))))))))))))))))))))))))))))))))))))))))))))))))))))))))))))))))))))))))))))))))))))))))))))))))