(;FF[4]
CA[UTF-8]
GM[1]
DT[2015-08-27]
PC[OGS: https://online-go.com/game/2713732]
GN[Tournament Game: Live 19x19 Swiss Tournament 2015-08-27 20:30 (10289) R:3 (mlopezviedma vs chrae)]
PB[chrae]
PW[mlopezviedma]
BR[12k]
WR[8k]
TM[600]OT[3x30 byo-yomi]
RE[W+21.5]
SZ[19]
KM[6.5]
RU[Japanese]
C[mlopezviedma: Hi, good game
]
;B[dd]
C[mlopezviedma: Hi, good game
]
;W[dp]
C[chrae: hi, have fun :)
]
;B[qd]
;W[pp]
;B[jk]
;W[od]
;B[pc]
;W[oc]
;B[pb]
;W[kd]
;B[ma]
;W[fc]
;B[hc]
;W[cf]
;B[kb]
;W[ob]
;B[oa]
;W[ee]
;B[pg]
;W[cc]
;B[ec]
;W[eb]
;B[fb]
;W[dc]
;B[ed]
;W[gb]
;B[fd]
;W[gc]
;B[gd]
;W[hd]
;B[he]
;W[id]
;B[hb]
;W[fa]
;B[ic]
;W[jc]
;B[ie]
;W[jd]
;B[jb]
;W[ge]
;B[fe]
;W[gf]
;B[ff]
;W[fg]
;B[gg]
;W[hf]
;B[if]
;W[hg]
;B[gh]
;W[ig]
;B[jf]
;W[jg]
;B[kf]
;W[lf]
;B[kg]
;W[eg]
;B[ef]
;W[de]
;B[df]
;W[dg]
;B[ce]
;W[cg]
;B[jh]
;W[dk]
;B[ck]
;W[cl]
;B[dl]
;W[cm]
;B[dj]
;W[ek]
;B[bk]
;W[ej]
;B[ei]
;W[di]
;B[cj]
;W[fi]
;B[fj]
;W[gi]
;B[ci]
;W[hh]
;B[dh]
;W[ch]
;B[el]
;W[fk]
;B[gj]
;W[gk]
;B[hj]
;W[fm]
;B[hi]
;W[fh]
;B[bh]
;W[bg]
C[pounamu: phew it's getting to complicated for my poor brain :)
]
;B[ah]
;W[ag]
;B[bi]
;W[be]
;B[aj]
;W[ha]
;B[ib]
;W[kh]
;B[lh]
;W[ki]
;B[lg]
;W[ji]
;B[le]
;W[mb]
;B[lb]
;W[ld]
;B[md]
;W[me]
;B[mf]
;W[ne]
;B[mc]
;W[nb]
;B[lc]
;W[na]
;B[nd]
;W[oe]
;B[ke]
;W[pf]
;B[qf]
;W[pd]
;B[of]
;W[nf]
;B[pe]
;W[pa]
;B[qb]
;W[og]
;B[pf]
;W[mg]
;B[oh]
;W[mh]
;B[li]
;W[mi]
;B[lj]
;W[ng]
;B[nj]
;W[oi]
;B[ni]
;W[ph]
;B[nh]
;W[mj]
;B[mk]
;W[nk]
;B[oj]
;W[lk]
;B[ml]
;W[kj]
;B[kc]
;W[lf]
;B[je]
;W[pj]
;B[pi]
;W[ok]
;B[qh]
;W[nm]
;B[kk]
;W[ll]
;B[lm]
;W[kl]
;B[jl]
;W[km]
;B[kn]
;W[mm]
;B[jm]
;W[qj]
;B[nl]
;W[ol]
;B[om]
;W[pm]
;B[on]
;W[pn]
;B[oo]
;W[op]
;B[po]
;W[qo]
;B[mn]
;W[no]
;B[nn]
;W[ql]
;B[pk]
;W[pl]
;B[rk]
;W[rj]
;B[rl]
;W[rm]
;B[rn]
;W[sl]
;B[sk]
;W[sj]
;B[sm]
;W[qk]
;B[qm]
;W[qn]
;B[qp]
;W[rp]
;B[qq]
;W[rq]
;B[qr]
;W[or]
;B[ro]
;W[rr]
;B[rm]
;W[so]
;B[rs]
;W[pr]
;B[sr]
;W[pq]
;B[np]
;W[nq]
;B[mp]
;W[fq]
;B[co]
;W[dn]
;B[bm]
;W[bn]
;B[bl]
;W[cn]
;B[cq]
;W[cp]
;B[bp]
;W[bo]
;B[bq]
;W[dr]
;B[dq]
;W[eq]
;B[cr]
;W[er]
;B[ar]
;W[bs]
;B[cs]
;W[ap]
;B[ep]
;W[do]
;B[gq]
;W[gp]
;B[hq]
;W[hp]
;B[ip]
;W[iq]
;B[jq]
;W[ir]
;B[gr]
;W[jp]
;B[io]
;W[kq]
;B[kp]
;W[jr]
;B[jo]
;W[lp]
;B[jq]
;W[mq]
;B[mo]
;W[lq]
;B[go]
;W[fo]
;B[ho]
;W[fp]
;B[ii]
;W[ih]
;B[jj]
;W[jh]
;B[gl]
;W[hk]
;B[ij]
;W[fl]
;B[gm]
;W[rg]
;B[rh]
;W[sh]
C[pounamu: *too
]
;B[rf]
;W[cd]
;B[ri]
;W[si]
;B[qg]
;W[sg]
;B[qi]
;W[qs]
;B[sf]
;W[gn]
;B[hn]
;W[fn]
;B[hm]
;W[jp]
;B[lo]
;W[ko]
;B[an]
;W[ao]
;B[am]
;W[de]
;B[ia]
;W[ce]
;B[kp]
;W[ee]
;B[hd]
;W[ga]
;B[jq]
;W[eh]
;B[di]
;W[jp]
;B[da]
;W[db]
;B[jq]
;W[il]
;B[im]
;W[jp]
;B[ko]
;W[jq]
;B[ik]
;W[hl]
;B[ba]
;W[bb]
;B[ab]
;W[ac]
;B[ad]
;W[bc]
;B[ca]
;W[ea]
;B[]
;W[]
C[mlopezviedma: thanks for the game
chrae: thankyou for the game
]
)