(;FF[4]
CA[UTF-8]
GM[1]
DT[2020-10-08]
PC[OGS: https://online-go.com/game/27427791]
GN[Ladder Challenge: mlopezviedma(#9) vs โอ๋ชิงหยวน(#5)]
PB[โอ๋ชิงหยวน]
PW[mlopezviedma]
BR[24k]
WR[21k]
TM[259200]OT[86400 fischer]
RE[B+R]
SZ[19]
KM[6.5]
RU[Japanese]
C[mlopezviedma: Hi, have fun!
โอ๋ชิงหยวน: Hi.
]
;B[pd]
C[โอ๋ชิงหยวน: Hi.
]
(;W[dp]
(;B[pq]
(;W[dc]
(;B[ce]
(;W[ed]
(;B[cn]
(;W[fq]
(;B[dj]
(;W[qo]
(;B[qp]
(;W[po]
(;B[nq]
(;W[pk]
(;B[qm]
(;W[pm]
(;B[ro]
(;W[rn]
(;B[rp]
(;W[rm]
(;B[qf]
(;W[jd]
(;B[mc]
(;W[jq]
(;B[ic]
(;W[kc]
(;B[gd]
(;W[gc]
(;B[hc]
(;W[fc]
(;B[me]
(;W[ef]
(;B[cg]
(;W[jf]
(;B[hf]
(;W[hg]
(;B[gg]
(;W[gf]
(;B[ff]
(;W[ge]
(;B[he]
(;W[fe]
(;B[ig]
(;W[hh]
(;B[if]
(;W[fh]
(;B[kh]
(;W[lf]
(;B[mg]
(;W[cd]
(;B[bp]
(;W[cq]
(;B[bq]
(;W[ch]
(;B[dh]
(;W[dg]
(;B[ci]
(;W[cf]
(;B[bh]
(;W[bf]
(;B[qi]
(;W[qj]
(;B[pi]
(;W[mf]
(;B[ng]
(;W[ne]
(;B[nd]
(;W[nf]
(;B[og]
(;W[pe]
(;B[qe]
(;W[qd]
(;B[oe]
(;W[pc]
(;B[od]
(;W[qc]
(;B[ob]
(;W[re]
(;B[rf]
(;W[pb]
(;B[rd]
(;W[rc]
(;B[se]
(;W[ra]
(;B[sb]
(;W[sc]
(;B[rb]
(;W[oa]
(;B[nb]
(;W[id]
(;B[hd]
(;W[jg]
(;B[ih]
(;W[jh]
(;B[ji]
(;W[ii]
(;B[hi]
(;W[gh]
(;B[ij]
C[mlopezviedma: Thank you for the game!
โอ๋ชิงหยวน: Thanks for the game.
]
)))))))))))))))))))))))))))))))))))))))))))))))))))))))))))))))))))))))))))))))))))))))))))))))))))