(;FF[4]
CA[UTF-8]
GM[1]
DT[2020-10-16]
PC[OGS: https://online-go.com/game/27615137]
GN[Tournament Game: Monthly Simultaneous McMahon 2020-10-16 17:00 (66101) R:1 (arnie31 vs mlopezviedma)]
PB[mlopezviedma]
PW[arnie31]
BR[21k]
WR[22k]
TM[259200]OT[86400 fischer]
RE[W+R]
SZ[19]
KM[6.5]
RU[Japanese]
C[mlopezviedma: Hi again, have fun!
]
;B[qd]
(;W[dp]
(;B[qp]
(;W[dd]
(;B[fq]
(;W[cn]
(;B[np]
(;W[oc]
(;B[pf]
(;W[ld]
(;B[cf]
(;W[fc]
(;B[ci]
(;W[qk]
(;B[qi]
(;W[qn]
(;B[jp]
(;W[er]
(;B[fr]
(;W[lq]
(;B[kq]
(;W[lp]
(;B[nn]
(;W[ln]
(;B[nl]
(;W[pj]
(;B[pi]
(;W[nj]
(;B[ll]
(;W[mm]
(;B[nm]
(;W[ml]
(;B[nk]
(;W[mk]
(;B[mj]
(;W[oi]
(;B[lj]
(;W[rl]
(;B[lk]
(;W[jn]
(;B[ho]
(;W[hn]
(;B[gn]
(;W[hm]
(;B[gm]
(;W[hl]
(;B[gl]
(;W[hk]
(;B[jj]
(;W[hi]
(;B[ih]
(;W[hh]
(;B[ig]
(;W[oo]
(;B[no]
(;W[op]
(;B[oq]
(;W[pq]
(;B[pp]
(;W[nq]
(;B[or]
(;W[pr]
(;B[nr]
(;W[mq]
(;B[pn]
(;W[mr]
(;B[on]
(;W[ns]
(;B[po]
(;W[op]
(;B[oo]
(;W[os]
(;B[op]
(;W[rq]
(;B[qq]
(;W[rr]
(;B[qr]
(;W[qs]
C[mlopezviedma: Thank you for the game!
]
))))))))))))))))))))))))))))))))))))))))))))))))))))))))))))))))))))))))))))))