(;FF[4]
CA[UTF-8]
GM[1]
DT[2020-12-26]
PC[OGS: https://online-go.com/game/29516913]
GN[Tournament Game: Monthly Simultaneous McMahon 2020-08-16 17:00 (63820) R:2 (caillouuu vs mlopezviedma)]
PB[mlopezviedma]
PW[caillouuu]
BR[24k]
WR[28k]
TM[259200]OT[86400 fischer]
RE[B+R]
SZ[19]
KM[6.5]
RU[Japanese]
)