(;FF[4]
CA[UTF-8]
GM[1]
DT[2021-01-16]
PC[OGS: https://online-go.com/game/30173749]
GN[Ladder Challenge: mlopezviedma(#323) vs AgingGuru(#199)]
PB[mlopezviedma]
PW[AgingGuru]
BR[6k]
WR[4k]
TM[259200]OT[86400 fischer]
RE[W+4.5]
SZ[19]
KM[6.5]
RU[Japanese]
C[mlopezviedma: Hi, have fun!
AgingGuru: Hi, you too
]
;B[qd]
C[AgingGuru: Hi, you too
]
(;W[dd]
(;B[pq]
(;W[od]
(;B[oc]
(;W[pd]
(;B[pc]
(;W[qe]
(;B[qc]
(;W[nd]
(;B[mc]
(;W[nc]
(;B[nb]
(;W[md]
(;B[lc]
(;W[qk]
(;B[dp]
(;W[qo]
(;B[np]
(;W[on]
(;B[cf]
(;W[di]
(;B[cc]
(;W[cd]
(;B[dc]
(;W[ed]
(;B[bd]
(;W[be]
(;B[bc]
(;W[ce]
(;B[fc]
(;W[ec]
(;B[eb]
(;W[df]
(;B[fd]
(;W[cn]
(;B[fp]
(;W[bp]
(;B[cq]
(;W[en]
(;B[hp]
(;W[lq]
(;B[qp]
(;W[iq]
(;B[hq]
(;W[nr]
(;B[lp]
(;W[kp]
(;B[lo]
(;W[ko]
(;B[ln]
(;W[kn]
(;B[lm]
(;W[in]
(;B[gn]
(;W[ld]
(;B[pj]
(;W[pk]
(;B[nj]
(;W[ml]
(;B[km]
(;W[jm]
(;B[lk]
(;W[mk]
(;B[mj]
(;W[ok]
(;B[kk]
(;W[oj]
(;B[nh]
(;W[oh]
(;B[ng]
(;W[og]
(;B[jg]
(;W[ir]
(;B[hr]
(;W[kc]
(;B[lb]
(;W[kb]
(;B[ma]
(;W[id]
(;B[dm]
(;W[dn]
(;B[cj]
(;W[ck]
(;B[dj]
(;W[ik]
(;B[fl]
(;W[fm]
(;B[el]
(;W[gm]
(;B[ei]
(;W[ci]
(;B[bi]
(;W[cg]
(;B[bk]
(;W[bh]
(;B[po]
(;W[qn]
(;B[rp]
(;W[so]
(;B[pn]
(;W[qm]
(;B[om]
(;W[pm]
(;B[oo]
(;W[nm]
(;B[nn]
(;W[ol]
(;B[mq]
(;W[mr]
(;B[fb]
(;W[ai]
(;B[cm]
(;W[bj]
(;B[dk]
(;W[bl]
(;B[cl]
(;W[bm]
(;B[bq]
(;W[qs]
(;B[ij]
(;W[cp]
(;B[hk]
(;W[hn]
(;B[go]
(;W[jk]
(;B[jj]
(;W[lg]
(;B[lh]
(;W[kg]
(;B[kh]
(;W[re]
(;B[rd]
(;W[hg]
(;B[hh]
(;W[gh]
(;B[hi]
(;W[eh]
(;B[fi]
(;W[ig]
(;B[jf]
(;W[ih]
(;B[jh]
(;W[nf]
(;B[mg]
(;W[ke]
(;B[mf]
(;W[le]
(;B[ib]
(;W[ak]
(;B[fh]
(;W[hc]
(;B[hb]
(;W[fg]
(;B[se]
(;W[sf]
(;B[sd]
(;W[rf]
(;B[oi]
(;W[pi]
(;B[ni]
(;W[of]
(;B[ro]
(;W[rn]
(;B[ap]
(;W[bo]
(;B[il]
(;W[hs]
(;B[gs]
(;W[is]
(;B[fr]
(;W[jl]
(;B[hl]
(;W[fe]
(;B[ie]
(;W[he]
(;B[ic]
(;W[je]
(;B[if]
(;W[hf]
(;B[jd]
(;W[hd]
(;B[jc]
(;W[kd]
(;B[or]
(;W[os]
(;B[pr]
(;W[ps]
(;B[rr]
(;W[ao]
(;B[aq]
(;W[ii]
(;B[gi]
(;W[gg]
(;B[ip]
(;W[jp]
(;B[sp]
(;W[sn]
(;B[ka]
(;W[ja]
(;B[la]
(;W[jb]
(;B[gc]
(;W[gl]
(;B[gk]
(;W[ji]
(;B[ki]
(;W[nq]
(;B[mp]
(;W[lr]
(;B[lf]
(;W[kf]
(;B[ae]
(;W[af]
(;B[ad]
(;W[ha]
(;B[gb]
(;W[ia]
(;B[ga]
(;W[do]
(;B[ep]
(;W[oq]
(;B[op]
(;W[rs]
(;B[qr]
(;W[io]
(;B[ge]
(;W[ff]
(;B[gd]
(;W[me]
(;B[on]
(;W[mm]
(;B[nk]
(;W[nl]
(;B[mn]
(;W[ns]
(;B[sr]
(;W[ck]
(;B[em]
(;W[bk]
(;B[fn]
(;W[hm]
(;B[im]
(;W[eo]
(;B[ho]
(;W[]
C[mlopezviedma: Thank you for the game!
]
(;B[]
C[mlopezviedma: Sorry about that, I forgot K6. It doesn't change the result, but just to finish it correctly :)
]
(;W[jn]
(;B[]
(;W[]
C[AgingGuru: Close match!
mlopezviedma: Yeah! Thank you, I really enjoyed it 
]
))))))))))))))))))))))))))))))))))))))))))))))))))))))))))))))))))))))))))))))))))))))))))))))))))))))))))))))))))))))))))))))))))))))))))))))))))))))))))))))))))))))))))))))))))))))))))))))))))))))))))))))))))))))))))))))))))))))))))))))))))))))))))