(;FF[4]
CA[UTF-8]
GM[1]
DT[2021-01-27]
PC[OGS: https://online-go.com/game/30525284]
GN[Tournament Game: Correspondence 19x19 RoundRobin 2021-01-27 19:00 (70606) R:1 (ecore vs mlopezviedma)]
PB[mlopezviedma]
PW[ecore]
BR[5k]
WR[4k]
TM[259200]OT[86400 fischer]
RE[B+24.5]
SZ[19]
KM[6.5]
RU[Japanese]
C[mlopezviedma: Hi, have fun!
ecore: hi have a good game
]
;B[qd]
C[ecore: hi have a good game
]
(;W[pp]
(;B[dd]
(;W[dq]
(;B[co]
(;W[fp]
(;B[cl]
(;W[od]
(;B[oc]
(;W[nc]
(;B[pc]
(;W[md]
(;B[qf]
(;W[jc]
(;B[nq]
(;W[oq]
(;B[np]
(;W[qn]
(;B[jq]
(;W[cp]
(;B[dg]
(;W[iq]
(;B[ip]
(;W[hq]
(;B[jn]
(;W[fn]
(;B[fc]
(;W[qj]
(;B[ql]
(;W[pl]
(;B[pm]
(;W[ol]
(;B[om]
(;W[nl]
(;B[qm]
(;W[rn]
(;B[qk]
(;W[pj]
(;B[oo]
(;W[nm]
(;B[nn]
(;W[kl]
(;B[ne]
(;W[nd]
(;B[fl]
(;W[ng]
(;B[ni]
(;W[me]
(;B[pk]
(;W[oj]
(;B[ok]
(;W[nj]
(;B[nk]
(;W[mj]
(;B[ml]
(;W[mm]
(;B[lm]
(;W[ll]
(;B[mn]
(;W[mk]
(;B[qh]
(;W[of]
(;B[oh]
(;W[mi]
(;B[pg]
(;W[pe]
(;B[qe]
(;W[hf]
(;B[id]
(;W[jd]
(;B[ie]
(;W[jf]
(;B[gd]
(;W[if]
(;B[fg]
(;W[hi]
(;B[gi]
(;W[gj]
(;B[fi]
(;W[hh]
(;B[hl]
(;W[ik]
(;B[hk]
(;W[hj]
(;B[il]
(;W[jl]
(;B[cd]
(;W[jr]
(;B[kq]
(;W[kr]
(;B[lr]
(;W[ir]
(;B[eo]
(;W[fo]
(;B[em]
(;W[en]
(;B[dn]
(;W[fj]
(;B[ej]
(;W[ri]
(;B[rh]
(;W[sk]
(;B[bo]
(;W[bp]
(;B[qq]
(;W[pq]
(;B[po]
(;W[qp]
(;B[qo]
(;W[ro]
(;B[nr]
(;W[or]
(;B[ic]
(;W[ib]
(;B[hb]
(;W[jb]
(;B[gb]
(;W[ek]
(;B[dj]
(;W[fk]
(;B[gl]
(;W[dk]
(;B[ck]
(;W[ei]
(;B[di]
(;W[ff]
(;B[ef]
(;W[fe]
(;B[ee]
(;W[fh]
(;B[eh]
(;W[gh]
(;B[ei]
(;W[gg]
(;B[hp]
(;W[gp]
(;B[ap]
(;W[aq]
(;B[ao]
(;W[ho]
(;B[io]
(;W[hn]
(;B[je]
(;W[ke]
(;B[nb]
(;W[mb]
(;B[ob]
(;W[nh]
(;B[bq]
(;W[br]
(;B[ar]
(;W[cq]
(;B[aq]
(;W[cr]
(;B[ma]
(;W[la]
(;B[na]
(;W[lb]
(;B[rk]
(;W[sl]
(;B[si]
(;W[sj]
(;B[sh]
(;W[rj]
(;B[os]
(;W[ps]
(;B[ns]
(;W[rq]
(;B[km]
(;W[oi]
(;B[rm]
(;W[sm]
(;B[jm]
(;W[in]
(;B[dl]
(;W[lq]
(;B[kp]
(;W[mr]
(;B[mq]
(;W[ls]
(;B[lp]
(;W[lr]
(;B[jk]
(;W[jj]
(;B[ij]
(;W[kk]
(;B[ik]
(;W[ji]
(;B[fd]
(;W[ii]
(;B[ge]
(;W[gf]
(;B[ia]
(;W[ja]
(;B[ha]
(;W[el]
(;B[fm]
(;W[im]
(;B[ep]
(;W[eq]
(;B[do]
(;W[gm]
(;B[hm]
(;W[gn]
(;B[bs]
(;W[cs]
(;B[as]
(;W[og]
(;B[ph]
(;W[pn]
(;B[on]
(;W[gk]
(;B[dm]
(;W[pd]
(;B[qc]
(;W[he]
(;B[hd]
(;W[eg]
(;B[pf]
(;W[fg]
(;B[]
(;W[]
C[ecore: tnx for game
mlopezviedma: Thank you for the game!
]
))))))))))))))))))))))))))))))))))))))))))))))))))))))))))))))))))))))))))))))))))))))))))))))))))))))))))))))))))))))))))))))))))))))))))))))))))))))))))))))))))))))))))))))))))))))))))))))))))))))))))))))))))))))))))))))