(;FF[4]
CA[UTF-8]
GM[1]
DT[2021-01-30]
PC[OGS: https://online-go.com/game/30624566]
GN[Tournament Game: Correspondence 19x19 RoundRobin 2021-01-30 19:00 (70718) R:1 (Armok vs mlopezviedma)]
PB[mlopezviedma]
PW[Armok]
BR[5k]
WR[7k]
TM[259200]OT[86400 fischer]
RE[B+R]
SZ[19]
KM[6.5]
RU[Japanese]
C[mlopezviedma: Hi, have fun!
]
;B[pd]
(;W[dq]
C[Armok: Hi, have an interesting game!
]
(;B[cd]
(;W[qp]
(;B[do]
(;W[co]
(;B[cn]
(;W[cp]
(;B[dn]
(;W[fq]
(;B[dj]
(;W[ed]
(;B[ec]
(;W[fc]
(;B[dc]
(;W[fd]
(;B[df]
(;W[jc]
(;B[op]
(;W[mp]
(;B[qo]
(;W[pp]
(;B[po]
(;W[oq]
(;B[oo]
(;W[nq]
(;B[pk]
(;W[qf]
(;B[qe]
(;W[qh]
(;B[qj]
(;W[jp]
(;B[pf]
(;W[pg]
(;B[of]
(;W[og]
(;B[nf]
(;W[oj]
(;B[ok]
(;W[nj]
(;B[lc]
(;W[ld]
(;B[mc]
(;W[md]
(;B[nd]
(;W[kc]
(;B[kd]
(;W[lf]
(;B[ng]
(;W[nh]
(;B[lg]
(;W[ke]
(;B[jd]
(;W[id]
(;B[je]
(;W[jf]
(;B[ie]
(;W[if]
(;B[he]
(;W[hc]
(;B[hf]
(;W[ii]
(;B[me]
(;W[kg]
(;B[le]
(;W[lh]
(;B[mg]
(;W[mh]
(;B[kh]
(;W[jh]
(;B[ki]
(;W[kj]
(;B[ig]
(;W[ih]
(;B[kf]
(;W[jg]
(;B[gp]
(;W[fp]
(;B[go]
(;W[fo]
(;B[gn]
(;W[fn]
(;B[gm]
(;W[fm]
(;B[gl]
(;W[fl]
(;B[gk]
(;W[fk]
(;B[gj]
(;W[fj]
(;B[dl]
(;W[gi]
(;B[jn]
(;W[il]
(;B[io]
(;W[ip]
(;B[ln]
(;W[km]
(;B[kn]
(;W[lm]
(;B[mn]
(;W[eh]
(;B[ch]
(;W[nm]
(;B[nn]
(;W[om]
(;B[qm]
(;W[im]
(;B[mm]
(;W[nl]
(;B[ml]
(;W[nk]
(;B[jm]
(;W[kl]
(;B[jl]
(;W[jk]
(;B[lk]
(;W[kk]
(;B[lj]
(;W[li]
(;B[rf]
(;W[qg]
(;B[ib]
(;W[ic]
(;B[fb]
(;W[gb]
(;B[ea]
(;W[kb]
(;B[ga]
(;W[ha]
(;B[fa]
(;W[hb]
(;B[lb]
(;W[ja]
(;B[ff]
(;W[gd]
(;B[hd]
(;W[ef]
(;B[eg]
(;W[dd]
(;B[cc]
C[Armok: Thanks for the game
mlopezviedma: Thank you for the game!
]
)))))))))))))))))))))))))))))))))))))))))))))))))))))))))))))))))))))))))))))))))))))))))))))))))))))))))))))))))))))))))))))))))))))))))))))