(;FF[4]
CA[UTF-8]
GM[1]
DT[2015-10-20]
PC[OGS: https://online-go.com/game/3078857]
GN[Tournament Game: Fast DDK Double Elimination Tournament (9911) R:2 (otesuji vs mlopezviedma)]
PB[mlopezviedma]
PW[otesuji]
BR[7k]
WR[12k]
TM[864000]OT[0 absolute]
RE[B+T]
SZ[19]
KM[6.5]
RU[Japanese]
C[mlopezviedma: Hi, good game!
]
;B[pd]
C[mlopezviedma: Hi, good game!
]
;W[dp]
;B[pq]
;W[po]
C[otesuji: U2
]
;B[qo]
;W[pp]
;B[qp]
;W[oq]
;B[pr]
;W[or]
;B[qn]
;W[kp]
;B[pn]
;W[on]
;B[om]
;W[nn]
;B[dd]
;W[cf]
;B[dj]
;W[fd]
;B[df]
;W[cc]
;B[cd]
;W[dc]
;B[cg]
)