(;FF[4]
CA[UTF-8]
GM[1]
DT[2021-02-05]
PC[OGS: https://online-go.com/game/30820177]
GN[Tournament Game: Correspondence 19x19 RoundRobin 2021-02-05 19:00 (71006) R:1 (scotto vs mlopezviedma)]
PB[mlopezviedma]
PW[scotto]
BR[5k]
WR[6k]
TM[259200]OT[86400 fischer]
RE[W+5.5]
SZ[19]
KM[6.5]
RU[Japanese]
C[mlopezviedma: Hi, have fun!
scotto: Greetings. glhf
]
;B[pd]
C[scotto: Greetings. glhf
]
(;W[dp]
(;B[qp]
(;W[dd]
(;B[np]
(;W[qj]
(;B[ql]
(;W[qg]
(;B[nc]
(;W[qc]
(;B[qd]
(;W[rd]
(;B[re]
(;W[rc]
(;B[qf]
(;W[ob]
(;B[oc]
(;W[nb]
(;B[mc]
(;W[pg]
(;B[rg]
(;W[oj]
(;B[ol]
(;W[lq]
(;B[cn]
(;W[fp]
(;B[cq]
(;W[cp]
(;B[bp]
(;W[dq]
(;B[bq]
(;W[co]
(;B[bo]
(;W[dn]
(;B[cm]
(;W[dm]
(;B[cl]
(;W[dl]
(;B[dk]
(;W[lo]
(;B[kp]
(;W[ip]
(;B[lp]
(;W[kq]
(;B[mq]
(;W[jp]
(;B[ko]
(;W[ci]
(;B[cj]
(;W[di]
(;B[ek]
(;W[fm]
(;B[cc]
(;W[cd]
(;B[dc]
(;W[ec]
(;B[eb]
(;W[fb]
(;B[fc]
(;W[ed]
(;B[gb]
(;W[db]
(;B[fa]
(;W[cb]
(;B[in]
(;W[on]
(;B[mm]
(;W[ln]
(;B[km]
(;W[fd]
(;B[gd]
(;W[ge]
(;B[hd]
(;W[he]
(;B[id]
(;W[mb]
(;B[lc]
(;W[lm]
(;B[ll]
(;W[ml]
(;B[nm]
(;W[kl]
(;B[lk]
(;W[kn]
(;B[jm]
(;W[jo]
(;B[mp]
(;W[jn]
(;B[il]
(;W[jk]
(;B[ik]
(;W[jj]
(;B[gl]
(;W[fj]
(;B[fk]
(;W[gj]
(;B[ij]
(;W[ji]
(;B[ii]
(;W[jh]
(;B[nk]
(;W[mj]
(;B[mk]
(;W[nj]
(;B[mn]
(;W[mo]
(;B[no]
(;W[rl]
(;B[rm]
(;W[rk]
(;B[qm]
(;W[lr]
(;B[mr]
(;W[ms]
(;B[ns]
(;W[ls]
(;B[or]
(;W[sm]
(;B[sn]
(;W[sl]
(;B[ro]
(;W[bi]
(;B[bj]
(;W[dr]
(;B[hh]
(;W[fg]
(;B[fh]
(;W[eh]
(;B[gg]
(;W[ff]
(;B[ai]
(;W[ah]
(;B[aj]
(;W[bh]
(;B[qh]
(;W[ph]
(;B[ri]
(;W[qi]
(;B[rj]
(;W[qk]
(;B[of]
(;W[ng]
(;B[nf]
(;W[mg]
(;B[mf]
(;W[lg]
(;B[lf]
(;W[kf]
(;B[lj]
(;W[li]
(;B[cr]
(;W[ke]
(;B[lb]
(;W[kd]
(;B[jc]
(;W[kc]
(;B[kb]
(;W[fi]
(;B[gh]
(;W[pf]
(;B[pe]
(;W[le]
(;B[pc]
(;W[pb]
(;B[ds]
(;W[es]
(;B[cs]
(;W[er]
(;B[gm]
(;W[fn]
(;B[gn]
(;W[go]
(;B[ho]
(;W[hp]
(;B[da]
(;W[bc]
(;B[me]
(;W[jl]
(;B[im]
(;W[ca]
(;B[ea]
(;W[io]
(;B[rh]
(;W[fl]
(;B[gk]
(;W[ih]
(;B[hi]
(;W[la]
(;B[ka]
(;W[ma]
(;B[ej]
(;W[ei]
(;B[ie]
(;W[ld]
(;B[md]
(;W[kj]
(;B[og]
(;W[oh]
(;B[pk]
(;W[pj]
(;B[hn]
(;W[ok]
(;B[pl]
(;W[sj]
(;B[si]
(;W[se]
(;B[sf]
(;W[sd]
(;B[el]
(;W[em]
(;B[ig]
(;W[jg]
(;B[hf]
(;W[jf]
(;B[if]
(;W[hj]
(;B[hk]
(;W[sk]
(;B[gf]
(;W[fe]
(;B[jd]
(;W[kk]
(;B[nl]
(;W[]
(;B[]
C[scotto: Thanks for the game.
mlopezviedma: Thank you for the game!
]
)))))))))))))))))))))))))))))))))))))))))))))))))))))))))))))))))))))))))))))))))))))))))))))))))))))))))))))))))))))))))))))))))))))))))))))))))))))))))))))))))))))))))))))))))))))))))))))))))))))))))))))))))))))))))))))))))