(;FF[4]
CA[UTF-8]
GM[1]
DT[2021-02-16]
PC[OGS: https://online-go.com/game/31167740]
GN[Tournament Game: Monthly Simultaneous McMahon 2021-02-16 17:00 (70865) R:1 (mlopezviedma vs qingxiang96)]
PB[qingxiang96]
PW[mlopezviedma]
BR[5k]
WR[5k]
TM[259200]OT[86400 fischer]
RE[W+T]
SZ[19]
KM[6.5]
RU[Japanese]
C[mlopezviedma: Hi, have fun!
]
;B[pd]
C[mlopezviedma: Hi, have fun!
]
(;W[dp]
(;B[pp]
(;W[dd]
(;B[fq]
(;W[cn]
(;B[jp]
(;W[qf]
(;B[qh]
(;W[qc]
(;B[qd]
(;W[pc]
(;B[od]
(;W[rd]
(;B[re]
(;W[rc]
(;B[rf]
(;W[nc]
(;B[me]
(;W[ld]
(;B[cf]
(;W[fd]
(;B[bd]
(;W[cc]
(;B[ci]
(;W[qn]
(;B[ql]
(;W[rp]
(;B[qo]
(;W[ro]
(;B[pn]
(;W[pq]
(;B[oq]
(;W[qq]
(;B[op]
(;W[qm]
(;B[pm]
(;W[pl]
(;B[qk]
(;W[ol]
(;B[nm]
(;W[pj]
(;B[qj]
(;W[ph]
(;B[pi]
(;W[oi]
(;B[qi]
(;W[oj]
(;B[oh]
(;W[nh]
(;B[og]
(;W[ng]
(;B[of]
(;W[lj]
(;B[mi]
(;W[ni]
(;B[mj]
(;W[mk]
(;B[li]
(;W[kk]
(;B[lg]
(;W[mf]
(;B[jh]
(;W[lf]
(;B[kg]
(;W[je]
(;B[md]
(;W[mc]
(;B[le]
(;W[kd]
(;B[cl]
(;W[dr]
(;B[fo]
(;W[kp]
(;B[ko]
(;W[jo]
(;B[ip]
(;W[lo]
(;B[kn]
(;W[ln]
(;B[km]
(;W[lm]
(;B[lp]
(;W[mp]
(;B[kq]
(;W[om]
(;B[on]
(;W[nl]
(;B[nn]
(;W[lq]
(;B[kp]
(;W[no]
(;B[nr]
(;W[mr]
(;B[lr]
(;W[mq]
(;B[ms]
(;W[ll]
(;B[rl]
(;W[rn]
(;B[rr]
(;W[pr]
(;B[or]
(;W[rq]
(;B[ik]
(;W[kf]
(;B[if]
(;W[ie]
(;B[hf]
(;W[em]
(;B[ek]
(;W[ef]
(;B[dm]
(;W[dn]
(;B[en]
(;W[eo]
(;B[fn]
(;W[cm]
(;B[dl]
(;W[eh]
(;B[gi]
(;W[jl]
(;B[il]
(;W[jm]
(;B[jn]
(;W[im]
(;B[hm]
(;W[in]
(;B[io]
(;W[hn]
(;B[gm]
(;W[bc]
))))))))))))))))))))))))))))))))))))))))))))))))))))))))))))))))))))))))))))))))))))))))))))))))))))))))))))))))))))))))))))))))))))