(;FF[4]
CA[UTF-8]
GM[1]
DT[2021-03-16]
PC[OGS: https://online-go.com/game/32045999]
GN[Tournament Game: Monthly Simultaneous McMahon 2020-10-16 17:00 (66101) R:2 (mlopezviedma vs Nosean)]
PB[Nosean]
PW[mlopezviedma]
BR[9k]
WR[5k]
TM[259200]OT[86400 fischer]
RE[W+R]
SZ[19]
KM[6.5]
RU[Japanese]
C[Nosean: Hello, have a good game!
mlopezviedma: Hello there, have fun!
]
;B[pd]
C[mlopezviedma: Hello there, have fun!
]
(;W[dp]
(;B[dd]
(;W[qp]
(;B[np]
(;W[oq]
(;B[nq]
(;W[pn]
(;B[pl]
(;W[pj]
(;B[nl]
(;W[nn]
(;B[qf]
(;W[nj]
(;B[ll]
(;W[ln]
(;B[rm]
(;W[rj]
(;B[ro]
(;W[rp]
(;B[or]
(;W[pq]
(;B[qm]
(;W[on]
(;B[qk]
(;W[qj]
(;B[rk]
(;W[kp]
(;B[lq]
(;W[kq]
(;B[lr]
(;W[kr]
(;B[pr]
(;W[qr]
(;B[ps]
(;W[qs]
(;B[ns]
(;W[jm]
(;B[lj]
(;W[pg]
(;B[qg]
(;W[qh]
(;B[pf]
(;W[og]
(;B[of]
(;W[li]
(;B[mg]
(;W[mi]
(;B[ol]
(;W[kj]
(;B[cq]
(;W[dq]
(;B[cp]
(;W[do]
(;B[co]
(;W[cn]
(;B[dr]
(;W[er]
(;B[ds]
(;W[es]
(;B[cr]
(;W[bn]
(;B[bo]
(;W[fq]
(;B[dm]
(;W[dn]
(;B[cl]
(;W[dj]
(;B[cj]
(;W[ci]
(;B[bj]
(;W[cf]
(;B[ce]
(;W[df]
(;B[fd]
(;W[bi]
(;B[dk]
(;W[ej]
(;B[ek]
(;W[fk]
(;B[fj]
(;W[fl]
(;B[fi]
(;W[dh]
(;B[ei]
(;W[di]
(;B[fg]
(;W[aj]
(;B[ak]
(;W[ai]
(;B[bk]
(;W[el]
(;B[em]
(;W[fm]
(;B[dg]
(;W[eg]
(;B[eh]
(;W[ef]
(;B[ff]
(;W[nc]
(;B[oc]
(;W[nd]
(;B[nb]
(;W[mb]
(;B[ne]
(;W[me]
(;B[mf]
(;W[le]
(;B[kg]
(;W[hc]
(;B[jd]
(;W[he]
(;B[jb]
(;W[jf]
(;B[kf]
(;W[je]
(;B[ke]
(;W[id]
(;B[ld]
(;W[jc]
(;B[kd]
(;W[kc]
(;B[md]
(;W[mc]
(;B[lc]
(;W[kb]
(;B[lb]
(;W[la]
(;B[od]
(;W[ma]
(;B[ob]
(;W[fb]
(;B[ib]
(;W[ic]
(;B[jg]
(;W[if]
(;B[op]
(;W[pp]
(;B[qo]
(;W[po]
(;B[jl]
(;W[lk]
(;B[kk]
(;W[mk]
(;B[nk]
(;W[jk]
(;B[hf]
(;W[ig]
(;B[hg]
(;W[ih]
(;B[hh]
(;W[kl]
(;B[ki]
(;W[ji]
(;B[kh]
(;W[il]
(;B[qn]
(;W[db]
(;B[cb]
(;W[dc]
(;B[cc]
(;W[be]
(;B[ec]
(;W[eb]
(;B[ge]
(;W[fc]
(;B[ed]
(;W[bd]
(;B[cd]
(;W[ee]
(;B[ab]
(;W[hi]
(;B[hj]
(;W[gi]
(;B[gh]
(;W[gj]
(;B[fh]
(;W[bc]
(;B[bb]
(;W[fe]
(;B[gd]
(;W[gf]
C[Nosean: thank you for the game!
mlopezviedma: Thank you for the game!
]
))))))))))))))))))))))))))))))))))))))))))))))))))))))))))))))))))))))))))))))))))))))))))))))))))))))))))))))))))))))))))))))))))))))))))))))))))))))))))))))))))))))))))))))))))))))