(;FF[4]
CA[UTF-8]
GM[1]
DT[2021-06-02]
PC[OGS: https://online-go.com/game/34206104]
GN[Tournament Game: Correspondence 19x19 RoundRobin 2021-06-02 19:00 (75838) R:1 (mlopezviedma vs Christoph_R)]
PB[Christoph_R]
PW[mlopezviedma]
BR[2k]
WR[5k]
TM[259200]OT[86400 fischer]
RE[B+R]
SZ[19]
KM[6.5]
RU[Japanese]
C[Christoph_R: hi, hf
mlopezviedma: Hi, have fun!
]
;B[pd]
C[mlopezviedma: Hi, have fun!
]
(;W[cp]
(;B[pq]
(;W[dc]
(;B[po]
(;W[fq]
(;B[de]
(;W[ce]
(;B[cf]
(;W[cd]
(;B[dg]
(;W[fc]
(;B[co]
(;W[do]
(;B[cn]
(;W[dn]
(;B[bp]
(;W[cq]
(;B[bq]
(;W[jp]
(;B[dm]
(;W[em]
(;B[dl]
(;W[el]
(;B[dk]
(;W[qf]
(;B[qi]
(;W[qd]
(;B[qc]
(;W[rc]
(;B[qe]
(;W[rd]
(;B[pe]
(;W[re]
(;B[qb]
(;W[pf]
(;B[rg]
(;W[rf]
(;B[ne]
(;W[ph]
(;B[qh]
(;W[pi]
(;B[pj]
(;W[ng]
(;B[kc]
(;W[oj]
(;B[pk]
(;W[ok]
(;B[pl]
(;W[qp]
(;B[qo]
(;W[oq]
(;B[pp]
(;W[or]
(;B[pr]
(;W[no]
(;B[en]
(;W[eo]
(;B[fn]
(;W[gl]
(;B[fo]
(;W[ep]
(;B[hn]
(;W[il]
(;B[jn]
(;W[kl]
(;B[ek]
(;W[gm]
(;B[hp]
(;W[hq]
(;B[ip]
(;W[iq]
(;B[jo]
(;W[kp]
(;B[fp]
(;W[eq]
(;B[ln]
(;W[nm]
(;B[lp]
(;W[lq]
(;B[mp]
(;W[mq]
(;B[ll]
(;W[lk]
(;B[ml]
(;W[nl]
(;B[mk]
(;W[kk]
(;B[mn]
(;W[nn]
(;B[mj]
(;W[kh]
(;B[mh]
(;W[mg]
(;B[ki]
(;W[jh]
(;B[ji]
(;W[ii]
(;B[lh]
(;W[lg]
(;B[ij]
(;W[ih]
(;B[hj]
(;W[gj]
(;B[jj]
(;W[gi]
(;B[hi]
(;W[gh]
(;B[hh]
(;W[hg]
(;B[gg]
(;W[fg]
(;B[ig]
(;W[gf]
(;B[kg]
(;W[di]
(;B[ci]
(;W[dh]
(;B[ch]
(;W[ps]
(;B[qs]
(;W[os]
(;B[qr]
(;W[np]
(;B[oi]
(;W[ni]
(;B[oh]
(;W[nh]
(;B[pg]
(;W[of]
(;B[nj]
(;W[kf]
(;B[jf]
(;W[oe]
(;B[od]
(;W[nd]
(;B[nc]
(;W[md]
(;B[mc]
(;W[ld]
(;B[lc]
(;W[ke]
(;B[hk]
(;W[gk]
(;B[hl]
(;W[hm]
(;B[im]
(;W[dj]
(;B[cj]
(;W[ic]
(;B[ed]
(;W[ec]
(;B[ie]
(;W[fd]
(;B[hd]
(;W[hc]
(;B[fe]
(;W[ge]
(;B[gd]
C[mlopezviedma: Thank you for the game!
]
)))))))))))))))))))))))))))))))))))))))))))))))))))))))))))))))))))))))))))))))))))))))))))))))))))))))))))))))))))))))))))))))))))))))))))))))))))))))))))))))