(;FF[4]
CA[UTF-8]
GM[1]
DT[2021-06-20]
PC[OGS: https://online-go.com/game/34677469]
GN[Ladder Challenge: mlopezviedma(#226) vs Nutsy(#136)]
PB[Nutsy]
PW[mlopezviedma]
BR[6k]
WR[4k]
TM[259200]OT[86400 fischer]
RE[W+R]
SZ[19]
KM[6.5]
RU[Japanese]
C[mlopezviedma: Hi, have fun!
Nutsy: hi gg
]
;B[pc]
(;W[dp]
(;B[qp]
(;W[cd]
(;B[oq]
(;W[qe]
(;B[qd]
(;W[pe]
(;B[od]
(;W[qi]
(;B[ql]
(;W[fd]
(;B[jc]
(;W[dj]
(;B[fq]
(;W[eq]
(;B[fp]
(;W[ip]
(;B[kq]
(;W[ir]
(;B[ko]
(;W[in]
(;B[fn]
(;W[dn]
(;B[fl]
(;W[hl]
(;B[dm]
(;W[cm]
(;B[dl]
(;W[cl]
(;B[dk]
(;W[ck]
(;B[ej]
(;W[di]
(;B[km]
(;W[ei]
(;B[fj]
(;W[hj]
(;B[fi]
(;W[fh]
(;B[gh]
(;W[gi]
(;B[gj]
(;W[hi]
(;B[eh]
(;W[fg]
(;B[hk]
(;W[ik]
(;B[gk]
(;W[il]
(;B[en]
(;W[do]
(;B[ho]
(;W[io]
(;B[hq]
(;W[iq]
(;B[hr]
(;W[je]
(;B[ij]
(;W[jj]
(;B[ii]
(;W[hh]
(;B[ih]
(;W[hg]
(;B[jk]
(;W[jl]
(;B[kk]
(;W[kl]
(;B[lk]
(;W[ll]
(;B[ki]
(;W[ml]
(;B[nj]
(;W[ok]
(;B[oj]
(;W[pk]
(;B[pj]
(;W[qj]
(;B[qk]
(;W[on]
(;B[nl]
(;W[mk]
(;B[mj]
(;W[nk]
(;B[nm]
(;W[nn]
(;B[mm]
(;W[lm]
(;B[mn]
(;W[ln]
(;B[mo]
(;W[kn]
(;B[lo]
(;W[qn]
(;B[pm]
(;W[om]
(;B[ol]
(;W[pl]
(;B[qm]
(;W[pn]
(;B[rn]
(;W[ro]
(;B[rm]
(;W[qo]
(;B[rp]
(;W[so]
(;B[rj]
(;W[ri]
(;B[sk]
(;W[sn]
(;B[rl]
(;W[sm]
(;B[po]
(;W[sl]
(;B[oo]
(;W[hc]
(;B[id]
(;W[ie]
(;B[hd]
(;W[gc]
(;B[ge]
(;W[fe]
(;B[gf]
(;W[gg]
(;B[ff]
(;W[ef]
(;B[eg]
(;W[df]
(;B[hf]
(;W[ig]
(;B[if]
(;W[jg]
(;B[jf]
(;W[kf]
(;B[ke]
(;W[ji]
(;B[kj]
(;W[jh]
(;B[kg]
(;W[kh]
(;B[lg]
(;W[lh]
(;B[mh]
(;W[mg]
(;B[lf]
(;W[mi]
(;B[ni]
(;W[nh]
(;B[oh]
(;W[og]
(;B[ph]
(;W[pg]
C[Nutsy: Thanks for the game.
mlopezviedma: Thank you for the game!
]
))))))))))))))))))))))))))))))))))))))))))))))))))))))))))))))))))))))))))))))))))))))))))))))))))))))))))))))))))))))))))))))))))))))))))))))))))))))))