(;FF[4]
CA[UTF-8]
GM[1]
DT[2021-06-23]
PC[OGS: https://online-go.com/game/34756121]
GN[Tournament Game: Monthly Simultaneous McMahon 2020-07-16 17:00 (62641) R:3 (mlopezviedma vs 🐬Sofiam🐬)]
PB[🐬Sofiam🐬]
PW[mlopezviedma]
BR[7k]
WR[5k]
TM[259200]OT[86400 fischer]
RE[W+R]
SZ[19]
KM[6.5]
RU[Japanese]
C[🐬Sofiam🐬: Hello, have a good game! 🌸
mlopezviedma: Hey again! Have fun :)
]
;B[qd]
C[mlopezviedma: Hey again! Have fun :)
]
(;W[dp]
(;B[pq]
C[mlopezviedma: Missclick?
🐬Sofiam🐬: thank you very much
mlopezviedma: Anytime :)
]
(;W[dd]
C[🐬Sofiam🐬: yes
🐬Sofiam🐬: Thanks for asking
🐬Sofiam🐬: I didn't notice it before
🐬Sofiam🐬: But of course I didn't want to play there
🐬Sofiam🐬: if you want that I undo (if yes, thank you) you have to undo too
🐬Sofiam🐬: otherwise let's continue, it's like one handicap stone
mlopezviedma: Oh you are right. Sorry about that!
]
(;B[oc]
(;W[po]
(;B[qo]
(;W[qn]
(;B[qp]
(;W[pm]
(;B[nq]
(;W[qi]
(;B[qg]
(;W[oi]
(;B[fc]
(;W[cf]
(;B[jd]
(;W[dj]
(;B[fq]
(;W[dn]
(;B[cq]
(;W[dq]
(;B[dr]
(;W[er]
(;B[cr]
(;W[eq]
(;B[bo]
(;W[bn]
(;B[co]
(;W[cn]
(;B[do]
(;W[eo]
(;B[fr]
(;W[fs]
(;B[fp]
(;W[ep]
(;B[en]
(;W[fo]
(;B[iq]
(;W[gr]
(;B[hq]
(;W[fn]
(;B[hr]
(;W[em]
(;B[fe]
(;W[io]
(;B[kp]
(;W[ko]
(;B[lo]
(;W[kn]
(;B[ln]
(;W[km]
(;B[ch]
(;W[eg]
(;B[cj]
(;W[ck]
(;B[bk]
(;W[ci]
(;B[bj]
(;W[dh]
(;B[bi]
(;W[di]
(;B[cg]
(;W[bf]
(;B[cl]
(;W[dk]
(;B[bm]
(;W[cp]
(;B[bp]
(;W[ao]
(;B[aq]
(;W[am]
(;B[al]
(;W[an]
(;B[ds]
(;W[es]
(;B[bs]
(;W[bg]
(;B[bh]
(;W[ef]
(;B[og]
(;W[li]
(;B[lg]
(;W[lm]
(;B[no]
(;W[nm]
(;B[nn]
(;W[jh]
(;B[jg]
(;W[ih]
(;B[ig]
(;W[db]
(;B[eb]
(;W[ec]
(;B[fb]
(;W[jp]
(;B[kq]
(;W[jq]
(;B[jr]
(;W[hg]
(;B[hf]
(;W[gg]
(;B[rh]
(;W[ri]
(;B[da]
(;W[cb]
(;B[ca]
(;W[ba]
(;B[ea]
(;W[bb]
(;B[rn]
(;W[rm]
(;B[so]
(;W[sm]
(;B[ff]
(;W[gf]
(;B[ge]
(;W[if]
(;B[he]
(;W[kg]
(;B[jf]
(;W[kf]
(;B[je]
(;W[lh]
(;B[le]
(;W[mg]
(;B[lf]
(;W[oh]
(;B[mf]
(;W[ng]
(;B[of]
(;W[qh]
(;B[rg]
(;W[op]
(;B[oq]
(;W[on]
(;B[np]
(;W[oo]
(;B[mm]
(;W[ml]
(;B[mn]
(;W[nl]
(;B[ip]
(;W[jo]
(;B[ho]
(;W[hn]
(;B[go]
(;W[gn]
(;B[gq]
(;W[gs]
(;B[si]
(;W[sj]
(;B[sh]
(;W[rj]
(;B[ph]
(;W[pi]
(;B[pg]
(;W[ed]
(;B[fd]
(;W[sn]
(;B[ro]
(;W[fg]
(;B[ag]
(;W[aj]
C[🐬Sofiam🐬: Thanks for the game🌺
mlopezviedma: Thank you for the game!
]
))))))))))))))))))))))))))))))))))))))))))))))))))))))))))))))))))))))))))))))))))))))))))))))))))))))))))))))))))))))))))))))))))))))))))))))))))))))))))))))))))))