(;FF[4]
CA[UTF-8]
GM[1]
DT[2021-06-23]
PC[OGS: https://online-go.com/game/34756157]
GN[Tournament Game: Monthly Simultaneous McMahon 2020-07-16 17:00 (62641) R:3 (pelikan10 vs mlopezviedma)]
PB[mlopezviedma]
PW[pelikan10]
BR[6k]
WR[10k]
TM[259200]OT[86400 fischer]
RE[B+R]
SZ[19]
KM[6.5]
RU[Japanese]
C[mlopezviedma: Hi, have fun!
]
;B[pd]
(;W[dd]
(;B[qp]
(;W[dp]
(;B[np]
(;W[nd]
(;B[qf]
(;W[jc]
(;B[cn]
(;W[cp]
(;B[dk]
(;W[cj]
(;B[dj]
(;W[di]
(;B[ck]
(;W[bj]
(;B[bk]
(;W[ei]
(;B[cc]
(;W[cd]
(;B[dc]
(;W[ec]
(;B[eb]
(;W[fc]
(;B[fb]
(;W[gc]
(;B[bd]
(;W[be]
(;B[bc]
(;W[cf]
(;B[gq]
(;W[en]
(;B[fk]
(;W[fq]
(;B[go]
(;W[fp]
(;B[gp]
(;W[fo]
(;B[gm]
(;W[qj]
(;B[qm]
(;W[qg]
(;B[pg]
(;W[qh]
(;B[ph]
(;W[pi]
(;B[pf]
(;W[pc]
(;B[qc]
(;W[oc]
(;B[qb]
(;W[nb]
(;B[gi]
(;W[gg]
(;B[fh]
(;W[gh]
(;B[fi]
(;W[ej]
(;B[gl]
(;W[ni]
(;B[nf]
(;W[mf]
(;B[mg]
(;W[lf]
(;B[lg]
(;W[kg]
(;B[li]
(;W[lj]
(;B[kh]
(;W[ql]
(;B[pm]
(;W[jq]
(;B[jo]
(;W[mp]
(;B[mq]
(;W[lq]
(;B[mo]
(;W[lp]
(;B[nq]
(;W[lo]
(;B[mn]
(;W[ln]
(;B[kj]
(;W[oe]
(;B[of]
(;W[mm]
(;B[nn]
(;W[nm]
(;B[on]
(;W[om]
(;B[pl]
(;W[pk]
(;B[ol]
(;W[nk]
(;B[lk]
(;W[mj]
(;B[kk]
(;W[km]
(;B[ll]
(;W[lm]
(;B[nl]
(;W[ml]
(;B[mk]
(;W[ok]
(;B[rl]
(;W[qk]
(;B[rk]
(;W[rj]
(;B[rm]
(;W[io]
(;B[jn]
(;W[in]
(;B[jm]
(;W[jp]
(;B[ir]
(;W[iq]
(;B[hr]
(;W[fr]
(;B[jr]
(;W[kr]
(;B[mr]
(;W[el]
(;B[ek]
(;W[cm]
(;B[bm]
(;W[dm]
(;B[fn]
(;W[bo]
(;B[bn]
(;W[dn]
(;B[jl]
(;W[ji]
(;B[ki]
(;W[jh]
(;B[eg]
(;W[dg]
(;B[ef]
(;W[ee]
(;B[aj]
(;W[bi]
(;B[ai]
(;W[ah]
(;B[ak]
(;W[bg]
(;B[gb]
(;W[hc]
(;B[ne]
(;W[ke]
(;B[me]
(;W[ld]
(;B[md]
(;W[mc]
(;B[od]
(;W[nc]
(;B[qd]
(;W[rf]
(;B[re]
(;W[sf]
(;B[se]
(;W[rh]
(;B[hi]
(;W[oh]
(;B[jg]
(;W[kf]
(;B[ig]
(;W[ih]
(;B[hh]
(;W[hf]
(;B[hg]
(;W[ff]
(;B[fg]
(;W[gf]
(;B[le]
(;W[kd]
(;B[df]
(;W[de]
(;B[dh]
(;W[ch]
(;B[eh]
(;W[pb]
(;B[hb]
(;W[ib]
(;B[if]
(;W[ie]
(;B[mi]
(;W[nj]
(;B[sj]
(;W[si]
(;B[sk]
(;W[ng]
(;B[og]
(;W[nh]
(;B[mh]
(;W[qa]
(;B[ra]
(;W[pa]
(;B[sb]
(;W[lr]
(;B[im]
(;W[gr]
(;B[hq]
(;W[co]
(;B[fj]
(;W[ci]
(;B[je]
(;W[id]
(;B[jf]
(;W[ha]
(;B[ga]
(;W[ia]
(;B[ae]
(;W[af]
(;B[ad]
(;W[ko]
(;B[gs]
(;W[fs]
(;B[hs]
(;W[ms]
(;B[ns]
(;W[ls]
(;B[hn]
(;W[fm]
(;B[gn]
(;W[dl]
(;B[fl]
(;W[qq]
(;B[pq]
(;W[pr]
(;B[qr]
(;W[rq]
(;B[or]
(;W[rr]
(;B[ps]
(;W[rp]
(;B[qo]
(;W[ro]
(;B[rs]
(;W[sr]
(;B[rn]
(;W[an]
(;B[am]
(;W[ao]
(;B[bl]
(;W[jd]
(;B[cg]
(;W[bh]
(;B[dg]
)))))))))))))))))))))))))))))))))))))))))))))))))))))))))))))))))))))))))))))))))))))))))))))))))))))))))))))))))))))))))))))))))))))))))))))))))))))))))))))))))))))))))))))))))))))))))))))))))))))))))))))))))))))))))))))))))))))))))))))))))))))))