(;FF[4]
CA[UTF-8]
GM[1]
DT[2021-07-06]
PC[OGS: https://online-go.com/game/35084999]
GN[Tournament Game: Monthly Simultaneous McMahon 2021-02-16 17:00 (70865) R:2 (mlopezviedma vs toferi)]
PB[toferi]
PW[mlopezviedma]
BR[6k]
WR[5k]
TM[259200]OT[86400 fischer]
RE[B+2.5]
SZ[19]
KM[6.5]
RU[Japanese]
C[toferi: hi
mlopezviedma: Hi, have fun!
]
;B[pd]
C[mlopezviedma: Hi, have fun!
]
(;W[dp]
(;B[pq]
(;W[dd]
(;B[qo]
(;W[fq]
(;B[cj]
(;W[nc]
(;B[lc]
(;W[qc]
(;B[pc]
(;W[qd]
(;B[pe]
(;W[pb]
(;B[ob]
(;W[qb]
(;B[oc]
(;W[qf]
(;B[og]
(;W[fc]
(;B[cg]
(;W[ph]
(;B[oh]
(;W[pi]
(;B[ql]
(;W[oi]
(;B[mh]
(;W[kp]
(;B[mq]
(;W[lq]
(;B[mp]
(;W[ln]
(;B[cm]
(;W[kd]
(;B[kc]
(;W[jd]
(;B[jc]
(;W[id]
(;B[ic]
(;W[hd]
(;B[ni]
(;W[nj]
(;B[mj]
(;W[nk]
(;B[mk]
(;W[qk]
(;B[pl]
(;W[rk]
(;B[rl]
(;W[nl]
(;B[hq]
(;W[go]
(;B[io]
(;W[hm]
(;B[jq]
(;W[jm]
(;B[kq]
(;W[lp]
(;B[lr]
(;W[li]
(;B[mi]
(;W[dh]
(;B[ch]
(;W[di]
(;B[dg]
(;W[fh]
(;B[fg]
(;W[gh]
(;B[gg]
(;W[hh]
(;B[hg]
(;W[ih]
(;B[ig]
(;W[jg]
(;B[jh]
(;W[ji]
(;B[kh]
(;W[ki]
(;B[lh]
(;W[jf]
(;B[eh]
(;W[ei]
(;B[eg]
(;W[ii]
(;B[ci]
(;W[ek]
(;B[dk]
(;W[el]
(;B[ej]
(;W[fj]
(;B[dj]
(;W[fi]
(;B[bp]
(;W[cq]
(;B[bq]
(;W[ce]
(;B[hc]
(;W[gd]
(;B[pk]
(;W[qj]
(;B[qe]
(;W[re]
(;B[pf]
(;W[qg]
(;B[oj]
(;W[ml]
(;B[kk]
(;W[jk]
(;B[ll]
(;W[lm]
(;B[nn]
(;W[nm]
(;B[om]
(;W[mo]
(;B[no]
(;W[mm]
(;B[cp]
(;W[dq]
(;B[do]
(;W[eo]
(;B[dn]
(;W[en]
(;B[dl]
(;W[ld]
(;B[md]
(;W[me]
(;B[nd]
(;W[gr]
(;B[cr]
(;W[dr]
(;B[br]
(;W[hr]
(;B[ir]
(;W[bf]
(;B[bg]
(;W[gb]
(;B[hb]
(;W[ag]
(;B[ah]
(;W[af]
(;B[cf]
(;W[be]
(;B[gc]
(;W[fb]
(;B[ee]
(;W[ed]
(;B[fe]
(;W[fd]
(;B[hn]
(;W[gn]
(;B[im]
(;W[il]
(;B[in]
(;W[kl]
(;B[lk]
(;W[ip]
(;B[jp]
(;W[hp]
(;B[ko]
(;W[lo]
(;B[kn]
(;W[km]
(;B[jo]
(;W[iq]
(;B[jr]
(;W[oa]
(;B[na]
(;W[pa]
(;B[nb]
(;W[mf]
(;B[ne]
(;W[ng]
(;B[nf]
(;W[mg]
(;B[nh]
(;W[sl]
(;B[sm]
(;W[sk]
(;B[rn]
(;W[pj]
(;B[ok]
(;W[if]
(;B[kf]
(;W[le]
(;B[kg]
(;W[ke]
(;B[hf]
(;W[he]
(;B[ge]
(;W[de]
(;B[df]
(;W[ha]
(;B[ia]
(;W[ga]
(;B[em]
(;W[fm]
(;B[dm]
(;W[cs]
(;B[bs]
(;W[ds]
(;B[ho]
(;W[gp]
(;B[pg]
(;W[is]
(;B[js]
(;W[hs]
(;B[kj]
(;W[jj]
(;B[ol]
(;W[jn]
(;B[kr]
(;W[jl]
(;B[]
(;W[]
C[mlopezviedma: Thank you for the game!
toferi: thx for the game
]
))))))))))))))))))))))))))))))))))))))))))))))))))))))))))))))))))))))))))))))))))))))))))))))))))))))))))))))))))))))))))))))))))))))))))))))))))))))))))))))))))))))))))))))))))))))))))))))))))))))))))))))))))))))