(;FF[4]
CA[UTF-8]
GM[1]
DT[2021-07-06]
PC[OGS: https://online-go.com/game/35084997]
GN[Tournament Game: Monthly Simultaneous McMahon 2021-02-16 17:00 (70865) R:2 (Olvik1 vs mlopezviedma)]
PB[mlopezviedma]
PW[Olvik1]
BR[5k]
WR[5k]
TM[259200]OT[86400 fischer]
RE[B+22.5]
SZ[19]
KM[6.5]
RU[Japanese]
C[mlopezviedma: Hi, have fun!
Olvik1: Hi, gg
]
;B[qd]
C[Olvik1: Hi, gg
]
(;W[dp]
(;B[pp]
(;W[dc]
(;B[ce]
(;W[cd]
(;B[de]
(;W[bd]
(;B[di]
(;W[fd]
(;B[cn]
(;W[co]
(;B[dn]
(;W[bo]
(;B[oc]
(;W[ld]
(;B[pj]
(;W[mc]
(;B[jp]
(;W[pm]
(;B[qn]
(;W[qm]
(;B[np]
(;W[rn]
(;B[qo]
(;W[ro]
(;B[rp]
(;W[rk]
(;B[ri]
(;W[qj]
(;B[qi]
(;W[pk]
(;B[oj]
(;W[ok]
(;B[nk]
(;W[nl]
(;B[nj]
(;W[nm]
(;B[gq]
(;W[fq]
(;B[gp]
(;W[fp]
(;B[fo]
(;W[ph]
(;B[pi]
(;W[og]
(;B[mg]
(;W[nf]
(;B[qg]
(;W[qh]
(;B[rh]
(;W[pf]
(;B[qf]
(;W[ne]
(;B[jm]
(;W[lp]
(;B[lq]
(;W[mp]
(;B[mq]
(;W[kp]
(;B[kq]
(;W[ln]
(;B[jj]
(;W[id]
(;B[gf]
(;W[he]
(;B[hf]
(;W[if]
(;B[ig]
(;W[jf]
(;B[jg]
(;W[kf]
(;B[kg]
(;W[bj]
(;B[ck]
(;W[bg]
(;B[dg]
(;W[cj]
(;B[dj]
(;W[bk]
(;B[cl]
(;W[bm]
(;B[ge]
(;W[gd]
(;B[eo]
(;W[jo]
(;B[ip]
(;W[in]
(;B[hm]
(;W[im]
(;B[il]
(;W[km]
(;B[kl]
(;W[kn]
(;B[hn]
(;W[qq]
(;B[rq]
(;W[cm]
(;B[dm]
(;W[bn]
(;B[qr]
(;W[po]
(;B[oo]
(;W[pn]
(;B[qp]
(;W[nn]
(;B[no]
(;W[mo]
(;B[ll]
(;W[nb]
(;B[ob]
(;W[oa]
(;B[pa]
(;W[na]
(;B[qb]
(;W[ml]
(;B[mk]
(;W[lf]
(;B[so]
(;W[rm]
(;B[ep]
(;W[eq]
(;B[do]
(;W[dq]
(;B[dd]
(;W[ec]
(;B[fe]
(;W[be]
(;B[fr]
(;W[er]
(;B[gr]
(;W[lg]
(;B[lh]
(;W[nh]
(;B[mh]
(;W[mf]
(;B[pg]
(;W[oh]
(;B[pe]
(;W[of]
(;B[nc]
(;W[mb]
(;B[ch]
(;W[bh]
(;B[io]
(;W[jn]
(;B[jl]
(;W[nd]
(;B[ed]
(;W[cf]
(;B[df]
(;W[cg]
(;B[ci]
(;W[bi]
(;B[bl]
(;W[al]
(;B[rj]
(;W[qk]
(;B[sk]
(;W[sl]
(;B[sj]
(;W[sn]
(;B[sp]
(;W[od]
(;B[pd]
(;W[ni]
(;B[mi]
(;W[es]
(;B[fs]
(;W[lm]
(;B[on]
(;W[om]
(;B[nq]
(;W[]
(;B[]
C[mlopezviedma: Thank you for the game!
Olvik1: ths
]
)))))))))))))))))))))))))))))))))))))))))))))))))))))))))))))))))))))))))))))))))))))))))))))))))))))))))))))))))))))))))))))))))))))))))))))))))))))))))))))))))))))))))))))))