(;FF[4]
CA[UTF-8]
GM[1]
DT[2015-12-21]
PC[OGS: https://online-go.com/game/3531112]
GN[Ladder Challenge: mlopezviedma(#46) vs baelofoax(#31)]
PB[baelofoax]
PW[mlopezviedma]
BR[7k]
WR[7k]
TM[259200]OT[86400 fischer]
RE[W+R]
SZ[19]
KM[6.5]
RU[Japanese]
C[mlopezviedma: Hello, have a good game :)
baelofoax: Hello! Have a good game.
]
;B[pd]
;W[dp]
;B[qp]
;W[dc]
;B[fq]
;W[cn]
;B[kq]
;W[qf]
;B[qi]
;W[nc]
;B[pf]
;W[pg]
;B[qg]
;W[pe]
;B[of]
;W[qe]
;B[oe]
;W[rg]
;B[qh]
;W[qd]
;B[od]
;W[qc]
;B[pb]
;W[qb]
;B[dm]
;W[dn]
;B[de]
;W[pn]
;B[op]
;W[qk]
;B[oh]
;W[ob]
;B[pc]
;W[pa]
;B[cc]
;W[cb]
;B[cd]
;W[eb]
;B[ci]
;W[ck]
;B[cm]
;W[dj]
;B[di]
;W[ej]
;B[fh]
;W[em]
;B[hc]
;W[fd]
;B[kc]
;W[ff]
;B[ef]
;W[ib]
;B[ic]
;W[hb]
;B[if]
;W[gc]
;B[dr]
;W[cq]
;B[hp]
;W[jd]
;B[jc]
;W[mp]
;B[mq]
;W[nq]
;B[np]
;W[nr]
;B[pr]
;W[lq]
;B[lr]
;W[mr]
;B[lp]
;W[mq]
;B[mo]
;W[kp]
;B[jq]
;W[lo]
;B[mn]
;W[qo]
;B[ks]
;W[no]
;B[po]
;W[oo]
;B[pp]
;W[on]
;B[qn]
;W[qm]
;B[rn]
;W[rm]
;B[ro]
;W[ok]
;B[km]
;W[ln]
;B[mm]
;W[lm]
;B[ml]
;W[ll]
;B[ol]
;W[pl]
;B[nl]
;W[mj]
;B[bk]
;W[bj]
C[baelofoax: Thank you for the game.
mlopezviedma: thank you!
]
)