(;FF[4]
CA[UTF-8]
GM[1]
DT[2021-07-16]
PC[OGS: https://online-go.com/game/35354098]
GN[Tournament Game: Monthly Simultaneous McMahon 2021-07-16 17:00 (76958) R:1 (shalya vs mlopezviedma)]
PB[mlopezviedma]
PW[shalya]
BR[4k]
WR[7k]
TM[259200]OT[86400 fischer]
RE[B+T]
SZ[19]
KM[6.5]
RU[Japanese]
C[mlopezviedma: Hi, have fun!
]
;B[qd]
(;W[oc]
(;B[pe]
(;W[qb]
(;B[pp]
(;W[qq]
(;B[qp]
(;W[pq]
(;B[op]
(;W[oq]
(;B[np]
(;W[nq]
(;B[pk]
(;W[qj]
(;B[qk]
(;W[pj]
(;B[oj]
(;W[pi]
(;B[oi]
(;W[ph]
(;B[qg]
(;W[oh]
(;B[ne]
(;W[of]
(;B[oe]
(;W[mh]
(;B[mj]
(;W[nj]
(;B[nk]
(;W[ni]
(;B[ok]
(;W[ml]
(;B[mk]
(;W[nl]
(;B[ll]
(;W[mn]
(;B[mp]
(;W[lm]
(;B[kl]
(;W[km]
(;B[mq]
(;W[rp]
(;B[ro]
(;W[sp]
(;B[so]
(;W[rr]
(;B[mr]
(;W[nr]
(;B[fp]
(;W[jo]
(;B[jq]
(;W[hp]
(;B[hq]
(;W[dq]
(;B[co]
(;W[cp]
(;B[do]
(;W[fr]
(;B[gq]
(;W[is]
(;B[jm]
(;W[jn]
(;B[im]
(;W[lo]
(;B[pm]
(;W[om]
(;B[on]
(;W[nn]
(;B[pn]
(;W[cc]
(;B[dj]
(;W[ch]
(;B[kh]
(;W[lg]
(;B[kg]
(;W[lf]
(;B[mc]
(;W[rc]
(;B[rd]
(;W[sd]
(;B[se]
(;W[sc]
(;B[rf]
)))))))))))))))))))))))))))))))))))))))))))))))))))))))))))))))))))))))))))))))))))