(;FF[4]
CA[UTF-8]
GM[1]
DT[2021-07-18]
PC[OGS: https://online-go.com/game/35394305]
GN[Ladder Challenge: gugamircea(#6) vs mlopezviedma(#3)]
PB[mlopezviedma]
PW[gugamircea]
BR[6k]
WR[2k]
TM[259200]OT[86400 fischer]
RE[B+T]
SZ[19]
KM[6.5]
RU[Japanese]
C[mlopezviedma: Hi, have fun!
]
;B[pd]
(;W[qq]
(;B[dc]
(;W[cp]
(;B[ce]
(;W[fp]
(;B[qf]
(;W[jc]
(;B[dk]
(;W[cm]
(;B[iq]
(;W[gq]
(;B[lq]
(;W[nq]
(;B[lo]
(;W[qk]
(;B[hc]
(;W[nc]
(;B[oc]
(;W[nd]
(;B[lc]
(;W[kd]
(;B[ld]
(;W[le]
(;B[ke]
(;W[me]
(;B[je]
(;W[jb]
(;B[nb]
(;W[mb]
(;B[ob]
(;W[lb]
(;B[op]
(;W[np]
(;B[on]
(;W[oq]
(;B[no]
(;W[pp]
(;B[qn]
(;W[qh]
(;B[ok]
(;W[id]
(;B[hd]
(;W[ie]
(;B[kg]
(;W[ig]
(;B[ki]
(;W[ii]
(;B[jk]
(;W[rf]
(;B[re]
(;W[rg]
(;B[qe]
(;W[cg]
(;B[dg]
(;W[dh]
(;B[ch]
(;W[df]
(;B[eg]
(;W[cf]
(;B[ci]
(;W[ef]
(;B[eh]
(;W[cd]
(;B[dd]
(;W[de]
(;B[cc]
(;W[bd]
(;B[bc]
(;W[be]
(;B[ff]
(;W[fe]
(;B[ge]
(;W[gf]
(;B[fd]
(;W[fg]
(;B[fh]
(;W[ed]
(;B[fc]
(;W[he]
(;B[dm]
(;W[cl]
(;B[dl]
(;W[dn]
(;B[en]
(;W[do]
(;B[hj]
(;W[jp]
(;B[kq]
(;W[jq]
(;B[jr]
(;W[ip]
(;B[hr]
(;W[hq]
(;B[ir]
(;W[gr]
(;B[hn]
(;W[jm]
(;B[jn]
(;W[kn]
(;B[ko]
(;W[in]
(;B[jo]
(;W[io]
(;B[im]
(;W[hm]
(;B[il]
(;W[gn]
(;B[hl]
(;W[gm]
(;B[oi]
(;W[lh]
(;B[kh]
(;W[mi]
(;B[mj]
(;W[se]
(;B[sd]
(;W[sf]
(;B[rc]
(;W[gd]
(;B[gc]
(;W[ac]
(;B[ab]
(;W[ad]
(;B[ba]
(;W[ga]
(;B[fb]
(;W[qo]
(;B[rn]
(;W[oo]
(;B[nn]
(;W[lj]
(;B[mk]
(;W[li]
(;B[lk]
(;W[kj]
(;B[jj]
(;W[ji]
(;B[hi]
(;W[jg]
(;B[qj]
(;W[rj]
(;B[qi]
(;W[ri]
(;B[pk]
(;W[sh]
(;B[ql]
(;W[rk]
(;B[sq]
(;W[rp]
(;B[sp]
(;W[rr]
(;B[gs]
(;W[fs]
(;B[hs]
(;W[fr]
(;B[ck]
(;W[sr]
(;B[so]
(;W[bk]
(;B[bj]
(;W[bl]
(;B[mr]
(;W[nr]
(;B[rl]
(;W[ng]
(;B[ni]
(;W[nh]
(;B[gl]
(;W[fm]
(;B[em]
(;W[eo]
(;B[fl]
(;W[fn]
(;B[of]
(;W[nf]
(;B[fa]
(;W[gh]
(;B[gi]
(;W[hh]
(;B[hb]
(;W[ia]
(;B[ha]
(;W[bh]
(;B[bi]
(;W[bg]
(;B[ph]
(;W[qg]
(;B[pg]
(;W[oe]
(;B[pe]
(;W[od]
(;B[og]
(;W[sl]
(;B[sm]
(;W[sk]
(;B[mp]
(;W[mq]
(;B[ls]
(;W[ns]
(;B[ms]
(;W[kk]
(;B[kl]
(;W[ij]
(;B[ik]
)))))))))))))))))))))))))))))))))))))))))))))))))))))))))))))))))))))))))))))))))))))))))))))))))))))))))))))))))))))))))))))))))))))))))))))))))))))))))))))))))))))))))))))))))))))))))))))))))))))))))))))