(;FF[4]
CA[UTF-8]
GM[1]
DT[2021-07-30]
PC[OGS: https://online-go.com/game/35751187]
GN[Tournament Game: Monthly Simultaneous McMahon 2021-01-16 17:00 (69638) R:2 (engelmandel vs mlopezviedma)]
PB[mlopezviedma]
PW[engelmandel]
BR[6k]
WR[8k]
TM[259200]OT[86400 fischer]
RE[B+28.5]
SZ[19]
KM[6.5]
RU[Japanese]
C[mlopezviedma: Hi, have fun!
]
;B[pd]
(;W[pp]
(;B[dc]
(;W[dp]
(;B[df]
(;W[kc]
(;B[nc]
(;W[hc]
(;B[cn]
(;W[fq]
(;B[qn]
(;W[nq]
(;B[pk]
(;W[cl]
(;B[en]
(;W[el]
(;B[bp]
(;W[cq]
(;B[gn]
(;W[dh]
(;B[ch]
(;W[di]
(;B[ci]
(;W[dk]
(;B[cg]
(;W[hp]
(;B[lq]
(;W[jq]
(;B[lo]
(;W[no]
(;B[lm]
(;W[md]
(;B[mc]
(;W[ld]
(;B[qf]
(;W[qc]
(;B[pc]
(;W[qb]
(;B[pb]
(;W[re]
(;B[rf]
(;W[qe]
(;B[pe]
(;W[sb]
(;B[pf]
(;W[hf]
(;B[mf]
(;W[kf]
(;B[lh]
(;W[jh]
(;B[nm]
(;W[rp]
(;B[in]
(;W[fg]
(;B[eg]
(;W[fi]
(;B[kj]
(;W[jj]
(;B[jk]
(;W[ij]
(;B[kk]
(;W[ik]
(;B[il]
(;W[hl]
(;B[hm]
(;W[gl]
(;B[eo]
(;W[ep]
(;B[ff]
(;W[eh]
(;B[gg]
(;W[fh]
(;B[gf]
(;W[hg]
(;B[gh]
(;W[hh]
(;B[gi]
(;W[fj]
(;B[qo]
(;W[qp]
(;B[fc]
(;W[sm]
(;B[rl]
(;W[rn]
(;B[rm]
(;W[ro]
(;B[lg]
(;W[mn]
(;B[ln]
(;W[mm]
(;B[ml]
(;W[nl]
(;B[om]
(;W[mk]
(;B[ll]
(;W[gb]
(;B[fb]
(;W[gc]
(;B[ip]
(;W[iq]
(;B[jp]
(;W[cj]
(;B[se]
(;W[rd]
(;B[bq]
(;W[br]
(;B[cp]
(;W[cr]
(;B[ho]
(;W[gp]
(;B[gd]
(;W[hd]
(;B[he]
(;W[ie]
(;B[ge]
(;W[bj]
(;B[bi]
(;W[do]
(;B[dn]
(;W[co]
(;B[bo]
(;W[qm]
(;B[pm]
(;W[ql]
(;B[qk]
(;W[sl]
(;B[rk]
(;W[sk]
(;B[sj]
(;W[sn]
(;B[rj]
(;W[lb]
(;B[ne]
(;W[nd]
(;B[od]
(;W[ki]
(;B[li]
(;W[kh]
(;B[mq]
(;W[nr]
(;B[aj]
(;W[ak]
(;B[ai]
(;W[bl]
(;B[gj]
(;W[gk]
(;B[mo]
(;W[nn]
(;B[kq]
(;W[ks]
(;B[kg]
(;W[jg]
(;B[lf]
(;W[le]
(;B[mb]
(;W[lc]
(;B[ga]
(;W[ha]
(;B[fa]
(;W[je]
(;B[jr]
(;W[ir]
(;B[kr]
(;W[js]
(;B[ls]
(;W[is]
(;B[sd]
(;W[sc]
(;B[sf]
(;W[ra]
(;B[np]
(;W[op]
(;B[mp]
(;W[oo]
(;B[hi]
(;W[ii]
(;B[mr]
(;W[ns]
(;B[ms]
(;W[dg]
(;B[ef]
(;W[cf]
(;B[bf]
(;W[ce]
(;B[be]
(;W[cd]
(;B[ag]
(;W[cc]
(;B[cb]
(;W[db]
(;B[da]
(;W[bb]
(;B[eb]
(;W[ae]
(;B[bd]
(;W[bc]
(;B[ad]
(;W[bm]
(;B[bn]
(;W[fm]
(;B[go]
(;W[dm]
(;B[la]
(;W[ka]
(;B[ma]
(;W[am]
(;B[an]
(;W[hj]
(;B[qd]
(;W[rc]
(;B[ar]
(;W[bs]
(;B[pn]
(;W[as]
(;B[aq]
(;W[ed]
(;B[fd]
(;W[ee]
(;B[ec]
(;W[pa]
(;B[oa]
(;W[ob]
(;B[na]
(;W[qa]
(;B[em]
(;W[cm]
(;B[gm]
(;W[fl]
(;B[fo]
(;W[fp]
(;B[]
(;W[]
C[mlopezviedma: Thank you for the game!
]
))))))))))))))))))))))))))))))))))))))))))))))))))))))))))))))))))))))))))))))))))))))))))))))))))))))))))))))))))))))))))))))))))))))))))))))))))))))))))))))))))))))))))))))))))))))))))))))))))))))))))))))))))))))))))))))))))))))))