(;FF[4]
CA[UTF-8]
GM[1]
DT[2021-08-04]
PC[OGS: https://online-go.com/game/35869196]
GN[Tournament Game: Monthly Simultaneous McMahon 2021-03-16 17:00 (72083) R:2 (He Who Walks in Shadows vs mlopezviedma)]
PB[mlopezviedma]
PW[He Who Walks in Shadows]
BR[6k]
WR[5k]
TM[259200]OT[86400 fischer]
RE[W+6.5]
SZ[19]
KM[6.5]
RU[Japanese]
C[mlopezviedma: Hi again, have fun!
]
;B[qd]
(;W[qq]
(;B[dc]
(;W[cq]
(;B[ce]
(;W[od]
(;B[oc]
(;W[nc]
(;B[pc]
(;W[nd]
(;B[qf]
(;W[jc]
(;B[gc]
(;W[jp]
(;B[dj]
(;W[cl]
(;B[cn]
(;W[bj]
(;B[dp]
(;W[dq]
(;B[fp]
(;W[eq]
(;B[ep]
(;W[gq]
(;B[em]
(;W[ci]
(;B[di]
(;W[ch]
(;B[eg]
(;W[qk]
(;B[oq]
(;W[mq]
(;B[qp]
(;W[pq]
(;B[pp]
(;W[or]
(;B[op]
(;W[qn]
(;B[mp]
(;W[nr]
(;B[lq]
(;W[lp]
(;B[kp]
(;W[lr]
(;B[lo]
(;W[kq]
(;B[lp]
(;W[jq]
(;B[jo]
(;W[qh]
(;B[bm]
(;W[bl]
(;B[io]
(;W[el]
(;B[fl]
(;W[ek]
(;B[fm]
(;W[fk]
(;B[gk]
(;W[gj]
(;B[hk]
(;W[fi]
(;B[dh]
(;W[ii]
(;B[jj]
(;W[og]
(;B[ji]
(;W[ig]
(;B[cg]
(;W[ij]
(;B[ik]
(;W[jh]
(;B[kh]
(;W[kg]
(;B[lh]
(;W[lj]
(;B[kj]
(;W[ll]
(;B[kl]
(;W[lm]
(;B[km]
(;W[gp]
(;B[go]
(;W[on]
(;B[nh]
(;W[mi]
(;B[mh]
(;W[oi]
(;B[id]
(;W[ic]
(;B[hd]
(;W[rg]
(;B[rf]
(;W[nb]
(;B[ob]
(;W[hb]
(;B[gb]
(;W[ga]
(;B[fa]
(;W[ha]
(;B[eb]
(;W[jd]
(;B[fq]
(;W[fr]
(;B[mn]
(;W[nm]
(;B[mm]
(;W[ml]
(;B[ni]
(;W[nj]
(;B[mf]
(;W[le]
(;B[me]
(;W[ld]
(;B[oh]
(;W[pi]
(;B[pg]
(;W[of]
(;B[ph]
(;W[qi]
(;B[rq]
(;W[rr]
(;B[rp]
(;W[rn]
(;B[bg]
(;W[ff]
(;B[fg]
(;W[gf]
(;B[gg]
(;W[hf]
(;B[fd]
(;W[ee]
(;B[de]
(;W[ed]
(;B[ec]
(;W[ie]
(;B[ef]
(;W[fe]
(;B[cj]
(;W[bi]
(;B[cp]
(;W[bq]
(;B[bp]
(;W[hh]
(;B[hc]
(;W[ib]
(;B[md]
(;W[mc]
(;B[qg]
(;W[rh]
(;B[hp]
(;W[hq]
(;B[nn]
(;W[om]
(;B[lf]
(;W[kf]
(;B[sr]
(;W[rs]
(;B[nq]
(;W[mr]
(;B[hj]
(;W[hi]
(;B[gh]
(;W[gi]
(;B[ej]
(;W[fj]
(;B[aq]
(;W[ar]
(;B[ap]
(;W[br]
(;B[li]
(;W[mj]
(;B[pe]
(;W[nf]
(;B[ip]
(;W[iq]
(;B[dm]
(;W[ck]
(;B[cm]
(;W[oo]
(;B[no]
(;W[ln]
(;B[kn]
(;W[sf]
(;B[se]
(;W[sg]
(;B[rd]
(;W[pd]
(;B[na]
(;W[mb]
(;B[ma]
(;W[la]
(;B[oa]
(;W[lb]
(;B[al]
(;W[ak]
(;B[am]
(;W[ah]
(;B[ag]
(;W[bh]
(;B[dd]
(;W[eh]
(;B[ei]
(;W[fh]
(;B[po]
(;W[pn]
(;B[he]
(;W[ge]
(;B[gd]
(;W[hg]
(;B[lk]
(;W[mk]
(;B[kk]
(;W[pf]
(;B[oe]
(;W[ne]
(;B[qe]
(;W[so]
(;B[ro]
(;W[sn]
(;B[sq]
(;W[qr]
(;B[lg]
(;W[ng]
(;B[np]
(;W[]
(;B[]
C[mlopezviedma: Thank you for the game!
]
)))))))))))))))))))))))))))))))))))))))))))))))))))))))))))))))))))))))))))))))))))))))))))))))))))))))))))))))))))))))))))))))))))))))))))))))))))))))))))))))))))))))))))))))))))))))))))))))))))))))))))))))))))))))))))))))))))