(;FF[4]
CA[UTF-8]
GM[1]
DT[2021-08-16]
PC[OGS: https://online-go.com/game/36241745]
GN[Tournament Game: Monthly Simultaneous McMahon 2021-08-16 17:01 (78292) R:1 (mlopezviedma vs Locminh)]
PB[Locminh]
PW[mlopezviedma]
BR[2k]
WR[5k]
TM[259200]OT[86400 fischer]
RE[B+R]
SZ[19]
KM[6.5]
RU[Japanese]
C[Locminh: hi have a good game
mlopezviedma: Hi, have fun!
]
;B[pd]
C[mlopezviedma: Hi, have fun!
]
(;W[dp]
(;B[pq]
(;W[dc]
(;B[qk]
(;W[ci]
(;B[jp]
(;W[jd]
(;B[fq]
(;W[nc]
(;B[oc]
(;W[eq]
(;B[de]
(;W[po]
(;B[qo]
(;W[pp]
(;B[qp]
(;W[oq]
(;B[op]
(;W[oo]
(;B[np]
(;W[nq]
(;B[mq]
(;W[mp]
(;B[no]
(;W[nn]
(;B[mo]
(;W[mn]
(;B[lo]
(;W[om]
(;B[qg]
(;W[nd]
(;B[fd]
(;W[fc]
(;B[gc]
(;W[gd]
(;B[ec]
(;W[fb]
(;B[eb]
(;W[ed]
(;B[dd]
(;W[fe]
(;B[db]
(;W[cc]
(;B[cb]
(;W[cf]
(;B[ee]
(;W[fd]
(;B[bc]
(;W[ce]
(;B[cd]
(;W[fp]
(;B[gq]
(;W[dm]
(;B[ck]
(;W[ej]
(;B[ek]
(;W[fk]
(;B[el]
(;W[fl]
(;B[em]
(;W[dn]
(;B[fm]
(;W[hl]
(;B[fj]
(;W[ei]
(;B[gj]
(;W[hk]
(;B[fg]
(;W[fh]
(;B[gh]
(;W[eg]
(;B[gg]
(;W[gm]
(;B[fo]
(;W[gp]
(;B[eo]
(;W[ep]
(;B[do]
(;W[hq]
(;B[cp]
(;W[cq]
(;B[co]
(;W[bq]
(;B[ji]
(;W[kl]
(;B[go]
(;W[ho]
(;B[hn]
(;W[io]
(;B[gn]
(;W[in]
(;B[dh]
(;W[ch]
(;B[eh]
(;W[dg]
(;B[fi]
(;W[bg]
(;B[be]
(;W[bf]
(;B[bj]
(;W[bi]
(;B[df]
(;W[ae]
(;B[bd]
(;W[ah]
(;B[af]
C[mlopezviedma: Thank you for the game!
Locminh: thank you for the game
]
)))))))))))))))))))))))))))))))))))))))))))))))))))))))))))))))))))))))))))))))))))))))))))))))))))))))))))