(;FF[4]
CA[UTF-8]
GM[1]
DT[2021-08-17]
PC[OGS: https://online-go.com/game/36279674]
GN[Ladder Challenge: mlopezviedma(#6) vs tienslebien(#5)]
PB[mlopezviedma]
PW[tienslebien]
BR[5k]
WR[6k]
TM[259200]OT[86400 fischer]
RE[Void]
SZ[19]
KM[6.5]
RU[Japanese]
C[mlopezviedma: Hi again, have fun!
]
;B[qd]
)