(;FF[4]
CA[UTF-8]
GM[1]
DT[2021-08-18]
PC[OGS: https://online-go.com/game/36300849]
GN[Tournament Game: Monthly Simultaneous McMahon 2020-10-16 17:00 (66101) R:3 (gass_ vs mlopezviedma)]
PB[mlopezviedma]
PW[gass_]
BR[5k]
WR[3k]
TM[259200]OT[86400 fischer]
RE[B+R]
SZ[19]
KM[6.5]
RU[Japanese]
C[mlopezviedma: Hi, have fun!
]
;B[qd]
)