(;FF[4]
CA[UTF-8]
GM[1]
DT[2021-09-19]
PC[OGS: https://online-go.com/game/37177986]
GN[Tournament Game: Monthly Simultaneous McMahon 2021-04-16 17:00 (73328) R:2 (mlopezviedma vs Asagaolv)]
PB[Asagaolv]
PW[mlopezviedma]
BR[9k]
WR[5k]
TM[259200]OT[86400 fischer]
RE[W+T]
SZ[19]
KM[6.5]
RU[Japanese]
)