(;FF[4]
CA[UTF-8]
GM[1]
DT[2021-10-30]
PC[OGS: https://online-go.com/game/38251370]
GN[Friendly Match]
PB[spiridon]
PW[mlopezviedma]
BR[13k]
WR[6k]
TM[259200]OT[86400 fischer]
RE[W+T]
SZ[19]
KM[6.5]
RU[Japanese]
C[mlopezviedma: Onegaishimasu
mlopezviedma: /me bows
spiridon: Onegaishimasu
spiridon: /me bows
]
;B[pc]
C[spiridon: Onegaishimasu
spiridon: /me bows
]
(;W[pp]
(;B[cd]
(;W[cp]
(;B[qi]
(;W[ed]
(;B[dc]
(;W[ec]
(;B[cg]
(;W[ic]
(;B[ep]
(;W[eq]
(;B[fq]
(;W[dq]
(;B[fr]
(;W[cn]
(;B[jq]
(;W[pe]
(;B[qd]
(;W[ph]
(;B[pi]
(;W[nh]
C[spiridon: Se pone lindo
]
(;B[np]
C[mlopezviedma: muy!
]
(;W[qn]
(;B[oq]
(;W[pq]
(;B[on]
C[spiridon: Creo que he mejorado desde aquella primera partida
spiridon: La influencia me sigue costando
mlopezviedma: A quién no!
]
(;W[pl]
(;B[nl]
(;W[oi]
(;B[oj]
(;W[nj]
(;B[ll]
(;W[pj]
(;B[ok]
(;W[pk]
(;B[qh]
(;W[pg]
(;B[pf]
C[spiridon: Querés pelear? Pues bien
mlopezviedma: Kamae!
]
(;W[qf]
(;B[of]
(;W[qe]
C[spiridon: Interesante pelea se armo. Necesito calcular un toque
mlopezviedma: Obvio, no es momento de tomar decisiones apresuradas
]
(;B[mc]
C[spiridon: Creo no haberle pifiado muy fiero al menos
mlopezviedma: Ya veremos
]
(;W[oe]
(;B[nf]
C[spiridon: /me trembles
]
(;W[qg]
(;B[mi]
(;W[ni]
(;B[mk]
(;W[ne]
(;B[mg]
(;W[mf]
(;B[me]
(;W[lf]
(;B[kd]
(;W[lg]
(;B[mh]
(;W[ng]
))))))))))))))))))))))))))))))))))))))))))))))))))))))))))