(;FF[4]
CA[UTF-8]
GM[1]
DT[2013-11-05]
PC[OGS: https://online-go.com/game/426436]
GN[Unrated teaching game]
PB[mlopezviedma]
PW[fly]
BR[15k]
WR[1k]
TM[0]OT[0 none]
RE[W+R]
SZ[19]
KM[6.5]
RU[Japanese]
C[mlopezviedma: Thanks. Have fun :)
fly: You too!
]
;B[pd]
C[mlopezviedma: Thanks. Have fun :)
fly: You too!
]
;W[qo]
;B[dd]
;W[dp]
;B[op]
;W[mq]
;B[on]
;W[pm]
;B[om]
;W[pl]
;B[pq]
;W[jq]
C[fly: The spirit of the p6 and p7 stones seems to be to build a wall for attacking n3... so my instinct would be for black to play a pincer instead of q3
mlopezviedma: Oh, I see
fly: but q3 can't be too bad
fly: it's an important point
mlopezviedma: My idea was to keep flexible about getting the corner or outside influence
mlopezviedma: But now that I see, this is a good result for W, yeah
mlopezviedma: good point
fly: well you certainly have outside influence and you can take the corner at your will
fly: you can still attack white's q7 group too
mlopezviedma: oh, ok!
mlopezviedma: from the bottom? like R10 e.g.?
fly: if white's better, it's not a major advantage
]
;B[cn]
C[fly: r10 is the key point for attacking - but you might want to take the corner first, so I don't simply slip into it
]
;W[fp]
C[mlopezviedma: oh, right
]
;B[dj]
;W[fc]
;B[ec]
;W[fd]
;B[df]
C[fly: the e17 kick is usually used when you have an attacking stone in the k16 area
]
;W[jc]
C[mlopezviedma: So this is not good, having left side territory?
fly: oh, it is!
mlopezviedma: oh, ok
fly: the question is which stone is more valuable - e17 or f16
]
;B[qf]
C[mlopezviedma: Riiight
fly: since e17 doesn't properly defend the corner - I can still play c17 - but f16 works well with my k17 extension, it's thought that white gets a slight benefit from the exchange
]
;W[qi]
C[mlopezviedma: i see
mlopezviedma: But C17 now isn't ko?
fly: but honestly it's super subtle
fly: I don't know!
]
;B[oc]
C[mlopezviedma: Hehe
]
;W[bp]
;B[kp]
;W[kq]
;B[mp]
;W[lp]
;B[lo]
;W[lq]
;B[mo]
C[fly: this sequence makes me very solid - and helps me defend the h3 weak spot in my position 
fly: black doesn't get much compensation
]
;W[rq]
C[mlopezviedma: Hmmm... How could I take advantage from H3?
fly: before playing l4, you could consider simply playing there and starting an invasion
fly: but it would be a safer idea to start with a move like e6, making your surrounding positions stronger for the fight to come
mlopezviedma: Wow... I never get the courage to invade. Hehehe
mlopezviedma: cool
fly: I think, rather than L4, R4 was a very good point to take
fly: it's a lot of territory and it unsettles my right side stones
fly: also m17 and e6 are big points
mlopezviedma: You mean L4 and then R4?
fly: no - R4 instead of L4
mlopezviedma: Hmm... I'm thinking about K6 'cause there's a weekness there. But I think it's too slow.
mlopezviedma: I like M17
fly: oh, much too slow!
mlopezviedma: Haha
fly: you've got to look at L4 and say: "That is an expendable stone"
mlopezviedma: I see
mlopezviedma: leave it as aji
fly: it's not doing anything for you right now
mlopezviedma: The thing with M17 is that is low and not sente
mlopezviedma: is it big enough?
fly: m17 has a mild sente flavor
fly: it sets up an invasion at h17
mlopezviedma: Hmm!
mlopezviedma: Oh, right!
fly: I could ignore it, but my top group would no longer be secure
]
;B[lc]
;W[je]
C[mlopezviedma: Now are M15and F14 like miai?
fly: f14 is much better
mlopezviedma: 'cause F17 is stronger?
fly: your q16 corner is so secure, adding another stones in that area is redundant
mlopezviedma: aaah
fly: if you do add one, it should be large-scale - like p11
mlopezviedma: I see
]
;B[ff]
C[fly: your left side has a number of holes
mlopezviedma: And does F14 eliminates the posibility of a 3-3 invation?
mlopezviedma: Yeah...
]
;W[em]
;B[dl]
C[fly: f14 does discourage the invasion - now that my top side stones are a bit weaker, I'm reluctant to give you the thickness of a 3-3 invasion
]
;W[jn]
C[fly: d8 is sensible, but it feels a little submissive to me...
mlopezviedma: aja
fly: I wonder if a move like j5 would have been better? But it's a sifficult moment
fly: difficult*
fly: ahh, I think d8 was alright :)
mlopezviedma: Oh, I don't want to respond! XD
mlopezviedma: :)
fly: good! you should never want to!!
mlopezviedma: Hahaha
]
;B[oi]
C[fly: woooo
mlopezviedma: wrong?
fly: I like that move
mlopezviedma: Oh, cool
fly: I don't know if it's correct, but it has a good spirit
mlopezviedma: It works well with both of my groups, doesn't it?
]
;W[pj]
;B[oj]
;W[fk]
C[fly: p10, connecting your two groups, means you have abundant central power.
fly: you want to use that power to attack severly
fly: white's been pretty conservative this game though, it's hard to know where to strike
fly: j16 comes to mind
mlopezviedma: yeeah
mlopezviedma: I'm struggling :)
fly: another attacking point is g7
mlopezviedma: F10 ? L6 ? 
mlopezviedma: g7?
mlopezviedma: I would've never seen that one
fly: l7 is a territory-building move
mlopezviedma: yeah, not atacking at all
fly: l6 is a bit meek
mlopezviedma: reducing, more or less
mlopezviedma: meek?
fly: yes, but reducing while building territory, so not a terrible idea
fly: but I think white gets more territory than black
mlopezviedma: yeah, I don't like it
fly: l6 is like pushing from behind - white comes out to k7 and has the grander stone of the two
mlopezviedma: i see
]
;B[fj]
;W[gj]
;B[fi]
C[fly: awww
fly: it was time to cut!
mlopezviedma: Wo!
mlopezviedma: I should be more agresive
]
;W[ik]
C[fly: yes - when you have super-solid positions, as in this game, you need to be aggressive
mlopezviedma: Ok, I'll keep that in mind
fly: you play slowly in the beginning, build very strong positions but end up behind in territory - so then you start invading and attacking
fly: it's a legitimate strategy!
mlopezviedma: oK!
mlopezviedma: Well, now I'm blocked
mlopezviedma: Is it lost already?
fly: I'd say the game is about over for black
mlopezviedma: 'cause I don't see atacking points
fly: the attacking opportunities have dried up
mlopezviedma: what a hard game XD
fly: on the whole, you played quite well1
fly: !
mlopezviedma: You said you had to go in about 20'. If you want, we can stop here
mlopezviedma: You think?
fly: I do! I'd call L4 the first mistake
mlopezviedma: I see
fly: Thank you for the game :)
mlopezviedma: So, this would've been a very different game, ha?. From move 24: H3 
mlopezviedma: Thank you very much!
fly: yes!
mlopezviedma: It was very instructive
fly: I'd advise you to build your aggression :)
mlopezviedma: yeah
mlopezviedma: I sort of knew that
fly: aggressive!!. From move 10: K3 
mlopezviedma: Shoot, now i would do that
mlopezviedma: heeh
fly: Maybe we'll have a chance for another game later, sorry to be on a schedule :)
fly: In any case, good luck with your go!
mlopezviedma: Please, I'm thankful anyway!
mlopezviedma: Thanks, see you around!
fly: so long!
]
)