(;FF[4]
CA[UTF-8]
GM[1]
DT[2013-12-29]
PC[OGS: https://online-go.com/game/459201]
GN[]
PB[mlopezviedma]
PW[Jadeite]
BR[15k]
WR[6k]
TM[1800]OT[5x30 byo-yomi]
RE[W+R]
SZ[19]
KM[6.5]
RU[Japanese]
C[mlopezviedma: Good game. And thanks in advance. :)
Jadeite: have a good game :)
Jadeite: ur welcome
]
;B[pd]
;W[dp]
;B[pq]
;W[dd]
;B[qk]
;W[nc]
;B[pf]
;W[jd]
;B[fq]
C[mlopezviedma: oooh missclick
Jadeite: undo
mlopezviedma: sorry :)
Jadeite: np
]
;W[jp]
;B[mp]
;W[cm]
;B[fo]
;W[jn]
;B[iq]
;W[jq]
;B[ir]
;W[mn]
;B[nn]
;W[nm]
;B[om]
;W[mm]
;B[on]
;W[mo]
;B[np]
;W[fm]
;B[df]
;W[fd]
;B[ci]
;W[cg]
;B[dg]
;W[ch]
;B[dh]
;W[cf]
;B[di]
;W[dr]
;B[fr]
;W[jr]
;B[ip]
;W[io]
;B[ho]
;W[hn]
;B[go]
;W[de]
;B[ff]
;W[hf]
;B[gh]
;W[hh]
;B[gj]
;W[gg]
;B[fg]
;W[gi]
;B[fh]
;W[hi]
;B[fi]
;W[fj]
;B[ej]
;W[fk]
;B[ck]
;W[nf]
;B[oh]
;W[og]
;B[pg]
;W[ph]
;B[oi]
;W[qh]
;B[rg]
;W[pb]
;B[qc]
;W[qb]
;B[rc]
;W[lh]
;B[ij]
;W[mj]
;B[nk]
;W[nj]
;B[oj]
;W[mk]
;B[nl]
;W[ml]
;B[gm]
;W[gn]
;B[hm]
;W[fn]
;B[gk]
;W[gl]
;B[hl]
;W[fl]
;B[hj]
;W[jl]
;B[ig]
;W[hg]
;B[ih]
;W[ii]
;B[ji]
;W[jj]
;B[jh]
;W[ik]
;B[hk]
;W[ge]
C[mlopezviedma: Ok, I think I'll resign now
mlopezviedma: :D
Jadeite: ok
Jadeite: thanks for the game
Jadeite: you quite well
mlopezviedma: Thanks to you too
]
)