(;FF[4]
CA[UTF-8]
GM[1]
DT[2014-02-06]
PC[OGS: https://online-go.com/game/495223]
GN[T:7 R:3 (uPWarrior vs mlopezviedma)]
PB[mlopezviedma]
PW[uPWarrior]
BR[15k]
WR[3k]
TM[259200]OT[86400 fischer]
RE[W+R]
SZ[19]
KM[6.5]
RU[Japanese]
C[mlopezviedma: Hi! Good game! :)
]
;B[qd]
;W[dc]
;B[pp]
;W[dq]
;B[do]
;W[co]
;B[cn]
;W[cp]
;B[dn]
;W[fq]
;B[cj]
;W[oc]
;B[de]
;W[qg]
;B[pe]
;W[qj]
;B[qn]
;W[qb]
;B[ne]
C[uPWarrior: have fun
uPWarrior: sorry the delay!
]
;W[md]
C[mlopezviedma: No problem. I do that too sometimes. :)
]
;B[fd]
;W[og]
;B[kc]
;W[me]
;B[nf]
;W[ng]
;B[mf]
;W[ke]
;B[lf]
;W[jc]
;B[ic]
;W[jb]
;B[ib]
;W[jd]
;B[ie]
;W[jg]
;B[lh]
;W[nj]
;B[oq]
;W[kp]
;B[cc]
;W[ji]
;B[lj]
;W[ml]
;B[kk]
;W[fo]
;B[fn]
;W[gn]
;B[fm]
;W[ik]
;B[ih]
;W[jh]
;B[gk]
;W[np]
;B[nq]
;W[mp]
;B[qf]
;W[rg]
;B[rf]
;W[rc]
;B[rd]
;W[od]
;B[oe]
;W[jl]
;B[qc]
;W[rb]
;B[ni]
;W[oi]
;B[nh]
;W[mg]
;B[lg]
;W[mj]
C[mlopezviedma: thanks for the game.
]
)