(;FF[4]
CA[UTF-8]
GM[1]
DT[2014-02-06]
PC[OGS: https://online-go.com/game/495219]
GN[T:7 R:3 (SIsaimon vs mlopezviedma)]
PB[mlopezviedma]
PW[SIsaimon]
BR[15k]
WR[1k]
TM[259200]OT[86400 fischer]
RE[W+R]
SZ[19]
KM[6.5]
RU[Japanese]
C[mlopezviedma: Hi! Good game! :)
SIsaimon: Hi, have a good game!
]
;B[pd]
C[SIsaimon: Hi, have a good game!
]
;W[dp]
;B[qp]
;W[dd]
;B[fq]
;W[op]
;B[pp]
;W[oo]
;B[oq]
;W[nq]
;B[or]
;W[nr]
;B[pn]
;W[iq]
;B[fo]
;W[dn]
;B[io]
;W[kq]
;B[fc]
;W[hc]
;B[cc]
;W[dc]
;B[cd]
;W[de]
;B[db]
;W[eb]
;B[cb]
;W[ec]
;B[cf]
;W[kc]
;B[qi]
;W[qf]
;B[qe]
;W[pf]
;B[nc]
;W[oi]
;B[pk]
;W[nf]
;B[cj]
;W[dr]
;B[id]
;W[ic]
;B[kd]
;W[jd]
;B[je]
;W[jc]
;B[ie]
;W[cl]
;B[ge]
;W[fb]
;B[fd]
;W[hp]
;B[ho]
;W[gp]
;B[go]
;W[fp]
;B[ig]
;W[df]
;B[cg]
;W[dg]
;B[dh]
;W[qh]
;B[ri]
;W[pi]
;B[pj]
;W[od]
;B[oc]
;W[qc]
;B[qd]
;W[pc]
;B[nd]
;W[oe]
;B[ld]
;W[rc]
;B[lf]
;W[ce]
;B[be]
;W[bd]
;B[bc]
;W[bf]
;B[ad]
;W[ch]
;B[bg]
;W[bh]
;B[af]
;W[di]
;B[eh]
;W[ci]
;B[lb]
;W[lc]
;B[mc]
;W[ei]
;B[fh]
;W[kb]
;B[ma]
;W[gj]
;B[gl]
;W[ik]
;B[il]
;W[jl]
;B[im]
;W[ko]
;B[em]
;W[gh]
;B[fg]
;W[ek]
;B[fl]
;W[on]
;B[pm]
;W[rh]
;B[jk]
;W[km]
;B[kk]
;W[ij]
;B[mk]
;W[si]
;B[sj]
;W[rj]
;B[sh]
;W[qj]
;B[si]
;W[sk]
C[mlopezviedma: Wow. :) T11 was sente...
SIsaimon: Thank you :-)
mlopezviedma: Thanks for the game :)
SIsaimon: S12 was big endgame
mlopezviedma: Yeeah
SIsaimon: I have a bit more - the corner R17 was quite a loss, you can't give corners for free :-)
mlopezviedma: Yes, I thought I could manage to have it
SIsaimon: but gg
mlopezviedma: I don't know where I made my mistakes, really
SIsaimon: why did I play these moves..
SIsaimon: good for b now I think
mlopezviedma: Maybe this instead?. From move 66: Q17 
mlopezviedma: I'm sorry?
SIsaimon: I'll show
mlopezviedma: ok
SIsaimon: this is a bit small?
SIsaimon: no need to play here no?
SIsaimon: if you want to play, then connect
mlopezviedma: connect where?
SIsaimon: this
mlopezviedma: We are not in a review mode, so I can't see what you are doing
SIsaimon: this is small
mlopezviedma: Let me make a review
SIsaimon: ..
]
)