(;FF[4]
CA[UTF-8]
GM[1]
DT[2016-06-25]
PC[OGS: https://online-go.com/game/5651333]
GN[Tournament Game: Correspondence Weekly McMahon 19x19 2016-06-25 17:00 (18407) R:1 (mlopezviedma vs peter)]
PB[peter]
PW[mlopezviedma]
BR[9k]
WR[5k]
TM[259200]OT[86400 fischer]
RE[W+R]
SZ[19]
KM[6.5]
RU[Japanese]
C[mlopezviedma: Hi, have fun!
]
;B[pd]
;W[dc]
;B[pp]
;W[dq]
;B[co]
;W[do]
;B[dn]
;W[eo]
;B[cp]
;W[cq]
;B[bq]
;W[br]
;B[bp]
;W[gq]
;B[ck]
;W[ce]
;B[jc]
;W[qf]
;B[qh]
;W[qc]
;B[qd]
;W[pc]
;B[od]
;W[rd]
;B[re]
;W[rc]
;B[qe]
;W[nc]
;B[md]
;W[mc]
;B[ld]
;W[qn]
;B[ql]
;W[qq]
;B[qp]
;W[pq]
;B[op]
;W[rp]
;B[ro]
;W[rq]
;B[qo]
;W[nq]
;B[oq]
;W[or]
;B[cg]
;W[ci]
;B[di]
;W[ch]
;B[dg]
;W[dh]
;B[de]
;W[dd]
;B[ee]
;W[eh]
;B[fc]
;W[ed]
;B[fd]
;W[fe]
;B[ff]
;W[ge]
;B[fg]
;W[ef]
)