(;FF[4]
CA[UTF-8]
GM[1]
DT[2016-07-16]
PC[OGS: https://online-go.com/game/5838884]
GN[Tournament Game: Monthly Simultaneous McMahon 2016-07-16 17:00 (18666) R:1 (mlopezviedma vs HyunJung)]
PB[HyunJung]
PW[mlopezviedma]
BR[7k]
WR[6k]
TM[259200]OT[86400 fischer]
RE[W+R]
SZ[19]
KM[6.5]
RU[Japanese]
;B[pd]
;W[cp]
C[mlopezviedma: Hi, good game!
]
;B[pq]
;W[dc]
;B[ep]
;W[po]
;B[np]
;W[qq]
;B[qr]
;W[qp]
;B[or]
;W[ql]
;B[qj]
;W[hq]
;B[cq]
;W[bq]
;B[dq]
;W[cm]
;B[br]
;W[kq]
;B[bp]
;W[bo]
;B[aq]
;W[dj]
;B[jc]
;W[ce]
;B[gc]
;W[qc]
;B[pc]
;W[qd]
;B[qf]
;W[pb]
;B[ob]
;W[qb]
;B[nc]
;W[re]
;B[ch]
;W[eh]
;B[bj]
;W[bg]
;B[dk]
;W[ck]
;B[cj]
;W[dl]
;B[ek]
;W[di]
;B[cg]
;W[cf]
;B[db]
;W[ef]
;B[cc]
;W[dd]
;B[bb]
;W[eb]
;B[ca]
;W[bd]
;B[bc]
;W[fm]
;B[bn]
;W[bm]
;B[co]
;W[cn]
;B[ao]
;W[bk]
;B[ge]
;W[kd]
;B[kc]
;W[ld]
;B[lf]
;W[hd]
;B[fc]
;W[ec]
;B[hc]
;W[jf]
;B[je]
;W[ie]
;B[jd]
;W[ig]
;B[id]
;W[he]
;B[fe]
;W[gg]
;B[ok]
;W[pe]
;B[qe]
;W[rf]
;B[pf]
;W[oe]
;B[of]
;W[ne]
;B[nf]
;W[nd]
;B[oc]
;W[mc]
;B[mb]
;W[ib]
;B[jb]
;W[qg]
;B[rh]
;W[rg]
;B[om]
;W[no]
;B[mo]
;W[nn]
C[mlopezviedma: Thanks
]
)