(;FF[4]
CA[UTF-8]
GM[1]
DT[2016-08-14]
PC[OGS: https://online-go.com/game/6080562]
GN[Ladder Challenge: mikserc(#108) vs mlopezviedma(#100)]
PB[mikserc]
PW[mlopezviedma]
BR[7k]
WR[6k]
TM[259200]OT[86400 fischer]
RE[W+0.5]
SZ[19]
KM[6.5]
RU[Japanese]
C[mikserc: Hi have a good game :) 
mlopezviedma: Hi, you too :)
]
;B[pd]
C[mikserc: Hi have a good game :) 
mlopezviedma: Hi, you too :)
]
;W[dp]
;B[pq]
;W[po]
;B[qo]
;W[qn]
;B[qp]
;W[pm]
;B[nq]
;W[dc]
;B[ce]
;W[ed]
;B[dg]
;W[qf]
;B[qi]
;W[qk]
;B[nd]
;W[rd]
;B[qc]
;W[of]
;B[oi]
;W[rh]
;B[rj]
;W[rk]
;B[ok]
;W[nm]
;B[lj]
;W[mf]
;B[ld]
;W[pj]
;B[pi]
;W[oj]
;B[mh]
;W[nk]
;B[og]
;W[ng]
;B[nh]
;W[ll]
;B[cn]
;W[dk]
;B[ci]
;W[dn]
;B[cq]
;W[dq]
;B[cp]
;W[cm]
;B[bn]
;W[kq]
;B[fr]
;W[dr]
;B[iq]
;W[jo]
;B[io]
;W[in]
;B[jp]
;W[ko]
;B[kp]
;W[lp]
;B[lq]
;W[mq]
;B[lr]
;W[mr]
;B[mp]
;W[lo]
;B[nr]
;W[mo]
;B[np]
;W[br]
;B[bm]
;W[cl]
;B[bk]
;W[ho]
;B[ip]
;W[bl]
;B[al]
;W[bj]
;B[cj]
;W[ck]
;B[ak]
;W[ke]
;B[kd]
;W[je]
;B[kg]
;W[jd]
;B[jc]
;W[ic]
;B[jb]
;W[ib]
;B[cc]
;W[cb]
;B[bc]
;W[ig]
;B[ee]
;W[jj]
;B[mj]
;W[nj]
;B[pg]
;W[pf]
;B[ni]
;W[lh]
;B[mg]
;W[kh]
;B[nf]
;W[ne]
;B[lf]
;W[me]
;B[le]
;W[lg]
;B[oe]
;W[ng]
;B[jh]
;W[ki]
;B[nf]
;W[am]
;B[an]
;W[ng]
;B[ji]
;W[kj]
;B[nf]
;W[aj]
;B[am]
;W[ng]
;B[qg]
;W[nf]
;B[rg]
;W[md]
;B[mc]
;W[nc]
;B[od]
;W[lc]
;B[mb]
;W[kc]
;B[lb]
;W[kf]
;B[rc]
;W[re]
;B[sj]
;W[sk]
;B[fe]
;W[hi]
;B[dd]
;W[ec]
;B[gh]
;W[gi]
;B[fi]
;W[fj]
;B[hh]
;W[ih]
;B[gc]
;W[gb]
;B[fc]
;W[fb]
;B[hc]
;W[hb]
;B[gp]
;W[hp]
;B[hq]
;W[go]
;B[fp]
;W[eo]
;B[co]
;W[do]
;B[fo]
;W[fn]
;B[ei]
;W[fd]
;B[ge]
C[mikserc: \[object Object\]
]
;W[gd]
;B[he]
;W[hd]
;B[bb]
;W[rn]
;B[ro]
;W[kb]
;B[nb]
;W[db]
;B[mk]
;W[ml]
;B[ej]
;W[fk]
;B[ek]
;W[el]
;B[no]
;W[lk]
;B[mi]
;W[qj]
;B[ri]
;W[gg]
;B[hg]
;W[hf]
;B[fh]
;W[gf]
;B[if]
;W[ie]
;B[fg]
;W[jf]
;B[ff]
;W[if]
;B[rf]
;W[qd]
;B[cr]
;W[cs]
;B[bq]
;W[ar]
;B[aq]
;W[bs]
;B[es]
;W[ds]
;B[nn]
;W[mn]
;B[on]
;W[pn]
;B[om]
;W[ol]
;B[pp]
;W[er]
;B[fs]
;W[sc]
;B[rb]
;W[sb]
;B[pc]
;W[fq]
;B[gq]
;W[eq]
;B[gr]
;W[so]
;B[sp]
;W[sn]
;B[ba]
;W[dj]
;B[di]
;W[oo]
;B[op]
;W[la]
;B[ma]
;W[ka]
;B[oc]
;W[sf]
;B[sg]
;W[se]
;B[ca]
;W[da]
;B[ra]
;W[sd]
;B[sa]
;W[qe]
;B[]
C[mikserc: Nice game
mikserc: Thank you 
mlopezviedma: Thanks for the game, well played 
]
;W[]
C[mlopezviedma: Waw, so close
mikserc: Nice result :) 
mikserc: Yep 
mikserc: Big mistake near g17
mlopezviedma: I counted that you won by 2 or 4 points, I guess I caught up in the endgame
mikserc: Think so
mlopezviedma: Yeah, that made some difference
mlopezviedma: Well played on the right
mlopezviedma: You managed well to live 
mikserc: :)  nice game anyway,  even with ko 
mikserc: OK,  see you next time, thank you 
mlopezviedma: See you! Thanks again 
]
)