(;FF[4]
CA[UTF-8]
GM[1]
DT[2016-10-25]
PC[OGS: https://online-go.com/game/6705677]
GN[Ladder Challenge: Misawa(#111) vs mlopezviedma(#77)]
PB[mlopezviedma]
PW[Misawa]
BR[6k]
WR[13k]
TM[259200]OT[86400 fischer]
RE[B+29.5]
SZ[19]
KM[6.5]
RU[Japanese]
C[mlopezviedma: Hi, have fun
Misawa: Thanks you too
]
;B[pd]
C[mlopezviedma: Hi, have fun
Misawa: Thanks you too
]
;W[dp]
;B[qp]
;W[dd]
;B[fq]
;W[hq]
;B[cq]
;W[dq]
;B[cp]
;W[dn]
;B[dr]
;W[er]
;B[cr]
;W[eq]
;B[bn]
;W[op]
;B[oq]
;W[nq]
;B[pq]
;W[pp]
;B[qo]
;W[po]
;B[pn]
;W[no]
;B[on]
;W[nn]
;B[qj]
;W[pf]
;B[nc]
;W[pi]
;B[pj]
;W[qi]
;B[ip]
;W[hp]
;B[in]
;W[hn]
;B[im]
;W[iq]
;B[jp]
;W[jq]
;B[qe]
;W[qf]
;B[re]
;W[rf]
;B[fc]
;W[cf]
;B[jd]
;W[hc]
;B[hd]
;W[gd]
;B[gc]
;W[he]
;B[id]
;W[fd]
;B[hb]
;W[ec]
;B[cl]
;W[ci]
;B[hm]
;W[gn]
;B[ge]
;W[fe]
;B[gf]
;W[if]
;B[gh]
;W[jg]
;B[ii]
;W[mf]
;B[ld]
;W[md]
;B[mc]
;W[le]
;B[kd]
;W[ji]
;B[ij]
;W[oj]
;B[ok]
;W[nj]
;B[jj]
;W[ki]
;B[rj]
;W[ri]
;B[dj]
;W[di]
;B[ei]
;W[eh]
;B[fi]
;W[cj]
;B[dk]
;W[fl]
;B[cc]
;W[cd]
;B[eb]
;W[db]
;B[fb]
;W[cb]
;B[nd]
;W[ne]
;B[oe]
;W[of]
;B[kp]
;W[kq]
;B[nr]
;W[mq]
;B[mr]
;W[lr]
;B[gm]
;W[fm]
;B[do]
;W[eo]
;B[lp]
;W[lq]
;B[es]
;W[fr]
;B[fs]
;W[gs]
;B[ds]
;W[gr]
;B[lm]
;W[ln]
;B[kn]
;W[mm]
;B[ll]
;W[sj]
;B[sk]
;W[si]
;B[rl]
;W[nk]
;B[ol]
;W[lk]
;B[kk]
;W[gk]
;B[co]
;W[bm]
;B[cm]
;W[cn]
;B[bl]
;W[dm]
;B[ff]
;W[ee]
;B[ef]
;W[df]
;B[lj]
;W[ms]
;B[or]
;W[ns]
;B[os]
;W[ls]
;B[qq]
;W[ml]
;B[li]
;W[mi]
;B[lh]
;W[kg]
;B[lg]
;W[kf]
;B[lf]
;W[ke]
;B[mg]
;W[ng]
;B[ej]
;W[hk]
;B[ik]
;W[fh]
;B[gi]
;W[dl]
;B[ck]
;W[pe]
;B[od]
;W[rd]
;B[qd]
;W[se]
;B[rc]
;W[sd]
;B[sc]
;W[sf]
;B[me]
;W[bo]
;B[am]
;W[md]
;B[bj]
;W[me]
;B[bi]
;W[bh]
;B[ah]
;W[bg]
;B[ag]
;W[af]
;B[ai]
C[mlopezviedma: Happy New year, my friend! :D
]
;W[eg]
;B[fg]
;W[dh]
;B[lo]
C[Misawa: Likewise Happy New Year to you as well!
]
;W[mn]
;B[oo]
;W[np]
;B[om]
;W[mk]
;B[kj]
;W[hg]
;B[gg]
;W[ih]
;B[hi]
;W[je]
;B[da]
;W[ca]
;B[ea]
;W[kl]
;B[km]
;W[jl]
;B[il]
;W[io]
;B[jo]
;W[ho]
;B[kh]
;W[jh]
;B[mh]
;W[nh]
;B[ie]
;W[hf]
;B[fk]
;W[gl]
;B[mj]
;W[ni]
;B[ic]
;W[gj]
;B[el]
;W[em]
;B[ek]
;W[nm]
;B[]
;W[nl]
;B[]
;W[]
C[mlopezviedma: Thank you for the game
Misawa: Congrats and thank you!
]
)