(;FF[4]
CA[UTF-8]
GM[1]
DT[2014-07-01]
PC[OGS: https://online-go.com/game/689584]
GN[Ladder Challenge: mlopezviedma(#591) vs Riffington(#359)]
PB[Riffington]
PW[mlopezviedma]
BR[20k]
WR[16k]
TM[604800]OT[86400 fischer]
RE[W+T]
SZ[9]
KM[6.5]
RU[Japanese]
C[mlopezviedma: Onegaishimasu
]
)