(;FF[4]
CA[UTF-8]
GM[1]
DT[2014-07-09]
PC[OGS: https://online-go.com/game/711274]
GN[T:3013 R:1 (mlopezviedma vs anoek)]
PB[anoek]
PW[mlopezviedma]
BR[19k]
WR[16k]
TM[259200]OT[86400 fischer]
RE[B+0]
SZ[9]
RU[Japanese]
C[mlopezviedma: Onegaishimasu :)
]
;B[gd]
C[mlopezviedma: Onegaishimasu :)
]
;W[cf]
;B[ee]
C[anoek: Onegaishimasu!
]
;W[cc]
;B[dg]
;W[gg]
;B[cg]
;W[bf]
;B[dc]
;W[dd]
;B[ed]
;W[db]
C[mlopezviedma: I don't see the players info in the tourney page
]
;B[ec]
;W[de]
;B[fg]
;W[fh]
;B[eh]
;W[hh]
;B[fi]
C[anoek: fixed now :)
]
;W[gh]
;B[gf]
;W[hf]
;B[he]
;W[ff]
;B[eg]
;W[ge]
;B[fe]
;W[gf]
C[mlopezviedma: We are the only ones advancing so fast :)
]
;B[id]
C[anoek: Seriously, those slackers!
]
;W[ig]
C[mlopezviedma: xD
mlopezviedma: Had an idea recently. Like # and ## links, @ may link to a user, e.g. @1 is you :) Given that they can change their usernames, that could be useful.
mlopezviedma: And add another one for tournaments would be cool
mlopezviedma: and another one for ladders :P
mlopezviedma: everything that has IDs anyway. :PP
]
;B[eb]
;W[cb]
;B[bg]
;W[ag]
C[mlopezviedma: Hey there! :)
]
;B[ah]
;W[af]
;B[bh]
;W[ea]
;B[fa]
;W[da]
;B[fb]
;W[gi]
;B[ei]
;W[df]
;B[ef]
;W[if]
;B[ie]
C[mlopezviedma: conditional moves rocks :)
]
;W[]
C[anoek: Ya :)
]
;B[]
C[anoek: Ah shoot
mlopezviedma: :O
anoek: damn
anoek: i should have resigned :(
mlopezviedma: no komi?
anoek: right it was messed up on this game
mlopezviedma: xD
anoek: we have the bug fixed up that caused it..
anoek: damnit... gonna get franz to adjust the tournament points at least
mlopezviedma: Nah
mlopezviedma: don't worry
mlopezviedma: the tournaament is just for fun :)
mlopezviedma: question anyway
mlopezviedma: why wasn't a draw?
]
)