(;FF[4]
CA[UTF-8]
GM[1]
DT[2014-07-20]
PC[OGS: https://online-go.com/game/734785]
GN[Ladder Challenge: nut(#610) vs mlopezviedma(#366)]
PB[mlopezviedma]
PW[nut]
BR[16k]
WR[8k]
TM[259200]OT[86400 fischer]
RE[W+R]
SZ[9]
KM[5.5]
RU[Japanese]
C[nut: hi, have fun
mlopezviedma: Hi, good game
]
;B[gd]
;W[cc]
;B[cg]
;W[gg]
;B[ec]
;W[cf]
;B[dg]
;W[bg]
;B[bh]
;W[bf]
;B[fh]
;W[gh]
;B[fg]
;W[ge]
;B[fd]
;W[hd]
;B[hc]
;W[he]
;B[gb]
;W[db]
;B[eb]
;W[ah]
;B[bi]
;W[ff]
;B[ef]
;W[fi]
;B[eh]
;W[de]
;B[df]
;W[dc]
;B[fe]
;W[gf]
;B[dd]
;W[cd]
;B[ed]
;W[ei]
;B[di]
C[mlopezviedma: Anyway. Thanks for the game :)
]
)