(;FF[4]
CA[UTF-8]
GM[1]
DT[2014-07-30]
PC[OGS: https://online-go.com/game/760316]
GN[Friendly game]
PB[mlopezviedma]
PW[alecstan]
BR[13k]
WR[13k]
TM[600]OT[5x30 byo-yomi]
RE[B+33.5]
SZ[19]
KM[6.5]
RU[Japanese]
C[alecstan: hi
mlopezviedma: Hi, good game :)
]
;B[qd]
;W[dp]
;B[dd]
;W[pp]
;B[fq]
;W[eq]
;B[fp]
;W[fr]
;B[gr]
;W[fs]
;B[gs]
;W[dr]
;B[kp]
;W[lq]
;B[kq]
;W[lp]
;B[cn]
;W[co]
;B[dn]
;W[bn]
;B[bm]
;W[an]
;B[am]
;W[bp]
;B[di]
;W[fc]
;B[dc]
;W[fd]
;B[cf]
;W[pc]
;B[pe]
;W[pd]
;B[qc]
;W[qb]
;B[rb]
;W[qa]
;B[ra]
;W[ob]
;B[oe]
;W[qf]
;B[qe]
;W[re]
;B[rd]
;W[se]
;B[sd]
;W[rg]
;B[og]
;W[pg]
;B[ph]
;W[qh]
;B[pf]
;W[qg]
;B[oh]
;W[pi]
;B[qq]
;W[pq]
;B[qp]
;W[qo]
;B[ro]
;W[qn]
;B[rn]
;W[qm]
;B[pr]
;W[or]
;B[qr]
;W[nr]
;B[lo]
;W[mo]
;B[ln]
;W[mn]
;B[lm]
;W[mm]
;B[lr]
;W[mr]
;B[kr]
;W[np]
;B[md]
;W[mc]
;B[ld]
;W[lc]
;B[kd]
;W[jc]
;B[ie]
;W[id]
;B[je]
;W[jd]
;B[kc]
;W[kb]
;B[ml]
;W[nl]
;B[mk]
;W[nk]
;B[mj]
;W[nj]
;B[ni]
;W[oi]
;B[mi]
;W[ff]
;B[ig]
;W[fh]
;B[fj]
;W[hi]
;B[hk]
;W[ji]
;B[kh]
;W[gj]
;B[gk]
;W[fi]
;B[ej]
;W[dh]
;B[ch]
;W[dg]
;B[cg]
;W[df]
;B[ce]
;W[jk]
;B[jm]
;W[il]
;B[im]
;W[hl]
;B[hm]
;W[gl]
;B[fl]
;W[gm]
;B[gn]
;W[fm]
;B[el]
;W[fn]
;B[go]
;W[fo]
;B[gp]
;W[em]
;B[dm]
;W[do]
;B[dl]
;W[hg]
;B[hf]
;W[gf]
;B[hd]
;W[ib]
;B[hh]
;W[gg]
;B[ih]
;W[ii]
;B[jh]
;W[hc]
;B[ge]
;W[gd]
;B[he]
;W[fe]
;B[od]
;W[oc]
;B[kj]
;W[jj]
;B[ki]
;W[ei]
;B[cj]
;W[hj]
;B[rm]
;W[rl]
;B[sl]
;W[rk]
;B[sk]
;W[sj]
;B[sm]
;W[rj]
;B[sp]
;W[ls]
;B[ks]
;W[ms]
;B[eb]
;W[fb]
;B[ea]
;W[fa]
;B[kk]
;W[ps]
;B[qs]
;W[os]
;B[jl]
;W[ik]
;B[fk]
;W[de]
;B[cd]
;W[ec]
;B[db]
;W[ed]
;B[nc]
;W[nb]
;B[nd]
;W[]
;B[]
C[mlopezviedma: thanks for the game
]
)