(;FF[4]
CA[UTF-8]
GM[1]
DT[2014-08-02]
PC[OGS: https://online-go.com/game/768546]
GN[T:3071 R:1 (crodgers vs mlopezviedma)]
PB[mlopezviedma]
PW[crodgers]
BR[17k]
WR[9k]
TM[259200]OT[86400 fischer]
RE[W+43.5]
SZ[19]
KM[6.5]
RU[Japanese]
C[mlopezviedma: Onegaishimasu :)
crodgers: high five!
]
;B[qd]
C[crodgers: high five!
]
;W[dd]
;B[pp]
;W[dp]
;B[oc]
;W[qn]
;B[ql]
;W[np]
;B[pn]
;W[qq]
;B[pq]
;W[qp]
;B[qo]
;W[ro]
;B[po]
;W[rn]
;B[jp]
;W[pr]
;B[or]
;W[qr]
;B[oq]
;W[fq]
;B[cf]
;W[fc]
;B[ol]
;W[oe]
;B[mc]
;W[qe]
;B[rd]
;W[ph]
;B[ci]
;W[ce]
;B[df]
;W[co]
;B[cc]
;W[be]
;B[hc]
;W[dc]
;B[gd]
;W[qj]
;B[cn]
;W[dn]
;B[bo]
;W[bp]
;B[bm]
;W[cm]
;B[bn]
;W[dm]
;B[cl]
;W[kn]
;B[lo]
;W[kp]
;B[ko]
;W[jo]
;B[jq]
;W[ln]
;B[mo]
;W[mn]
;B[no]
;W[lk]
;B[io]
;W[jn]
;B[ff]
;W[hq]
;B[hp]
;W[gq]
;B[ir]
;W[hr]
;B[me]
;W[jf]
;B[jd]
;W[jh]
;B[fb]
;W[eb]
;B[gb]
;W[nd]
;B[md]
;W[nc]
;B[nb]
;W[re]
;B[ne]
;W[od]
;B[mh]
;W[ob]
;B[pb]
;W[pc]
;B[oa]
;W[qb]
;B[na]
;W[pa]
;B[mb]
;W[jj]
;B[hm]
;W[gi]
;B[ei]
;W[ck]
;B[bk]
;W[dl]
;B[bl]
;W[hk]
;B[gh]
;W[hh]
;B[gg]
;W[fi]
;B[dk]
;W[ek]
;B[dj]
;W[ej]
;B[eh]
;W[cb]
;B[fl]
;W[gl]
;B[gm]
;W[fm]
;B[hl]
;W[gk]
;B[jl]
;W[kl]
;B[jm]
;W[jk]
;B[fn]
;W[em]
;B[fo]
;W[os]
;B[ns]
;W[ps]
;B[nr]
;W[nf]
;B[lf]
;W[ke]
;B[kd]
;W[le]
;B[mf]
;W[ld]
;B[lc]
;W[ng]
;B[lh]
;W[rk]
;B[bf]
;W[ae]
;B[af]
;W[ap]
;B[je]
;W[kf]
;B[if]
;W[ig]
;B[hg]
;W[ep]
;B[gp]
;W[iq]
;B[ip]
;W[jr]
;B[kr]
;W[is]
;B[kq]
;W[in]
;B[hn]
;W[nn]
;B[on]
;W[nh]
;B[pj]
;W[pi]
;B[oj]
;W[ni]
;B[rl]
;W[fd]
;B[ge]
;W[de]
;B[rj]
;W[ri]
;B[sk]
;W[sj]
;B[sl]
;W[ao]
;B[an]
;W[ks]
;B[ls]
;W[js]
;B[lr]
;W[sn]
;B[ee]
;W[ed]
;B[fe]
;W[nl]
;B[qk]
;W[rj]
;B[nk]
;W[ml]
;B[lj]
;W[mj]
;B[mi]
;W[kj]
;B[li]
;W[nj]
;B[ok]
;W[om]
;B[pm]
;W[nm]
;B[kg]
;W[jg]
;B[kh]
;W[ji]
;B[mg]
;W[km]
;B[ik]
;W[ij]
C[mlopezviedma: I'm an expert in winning sole points in gote :P
]
;B[il]
;W[fh]
;B[fg]
;W[eo]
;B[fp]
;W[en]
;B[cq]
C[crodgers: xD
]
;W[cp]
;B[ea]
;W[da]
;B[fa]
;W[sp]
;B[qm]
;W[oi]
;B[gc]
;W[]
;B[]
C[crodgers: ty for the game
mlopezviedma: Thanks for teh game :)
]
)