(;FF[4]
CA[UTF-8]
GM[1]
DT[2014-08-02]
PC[OGS: https://online-go.com/game/768547]
GN[T:3071 R:1 (pathogenix vs mlopezviedma)]
PB[mlopezviedma]
PW[pathogenix]
BR[16k]
WR[3k]
TM[259200]OT[86400 fischer]
RE[B+T]
SZ[19]
KM[6.5]
RU[Japanese]
C[mlopezviedma: Onegaishimasu :)
pathogenix: Onegaishimasu :)
]
;B[pd]
C[pathogenix: Onegaishimasu :)
]
;W[dc]
;B[dp]
;W[qq]
;B[ce]
;W[cj]
;B[ch]
;W[cd]
;B[de]
;W[fc]
;B[cn]
;W[ej]
;B[eh]
;W[gj]
;B[cl]
;W[jq]
;B[qj]
;W[nc]
;B[pf]
;W[jd]
;B[fq]
;W[po]
;B[el]
;W[gl]
;B[qm]
;W[qn]
;B[pm]
;W[qc]
;B[qd]
;W[pc]
;B[jo]
;W[lp]
;B[no]
;W[lo]
;B[nn]
;W[lm]
;B[nq]
)