(;FF[4]
CA[UTF-8]
GM[1]
DT[2014-08-06]
PC[OGS: https://online-go.com/game/778218]
GN[Go Basics - with xhu98]
PB[Rikhon]
PW[mlopezviedma]
BR[11k]
WR[16k]
TM[600]OT[5x30 byo-yomi]
RE[B+R]
SZ[19]
KM[6.5]
RU[Japanese]
C[mlopezviedma: Good game :)
xhu98: Hey guys
]
;B[qd]
C[mlopezviedma: Good game :)
xhu98: Hey guys
]
;W[dp]
;B[pp]
;W[dd]
;B[oc]
C[Rikhon: lets enjoy the game :)
crodgers: hey xhu98
]
;W[qj]
;B[qh]
;W[qn]
;B[ql]
C[xhu98: Yo crodgers :D
]
;W[on]
;B[nq]
;W[pk]
;B[rp]
;W[cj]
;B[fc]
C[xhu98: Variant of one-space pincer joseki
]
;W[df]
;B[ic]
;W[fq]
;B[dm]
;W[co]
C[crodgers: aw, i was hoping to see C4
]
;B[db]
;W[cc]
C[crodgers: from b
]
;B[oh]
C[xhu98: Ah I thought you said from White
crodgers: i love this variation. From move 18: C4 
xhu98: Black will take either the corner or the side
crodgers: lots of fun to play that probe
]
;W[jd]
;B[lc]
;W[jc]
;B[cb]
;W[bc]
;B[ib]
;W[ie]
;B[le]
;W[gd]
;B[ej]
;W[di]
;B[kq]
;W[pc]
;B[pd]
C[sousys: crodgers so how do you respend to c5 after that probe in this game?
sousys: in your variation
xhu98: C3
]
;W[ob]
;B[pb]
C[crodgers: probably something like this. From move 18: C4 C3 C5 B3 C8 
]
;W[nc]
C[xhu98: I don't think White is able to live at the top-right corner
crodgers: w gets to attack the b group, and b breaks up the moyo
]
;B[od]
;W[pa]
;B[qc]
;W[mb]
;B[lb]
;W[qb]
;B[rb]
;W[qa]
;B[mc]
C[Rikhon: u there ??
mlopezviedma: yeah
mlopezviedma: sorry, deep think :)
Rikhon: np
crodgers: also fun. From move 18: C4 C5 B5 
crodgers: there are a lot of variations out of the initial position. yilun yang devotes a considerable amount of time to it in his book Fundamentals of Go
sousys: crodgers yeah but i would play c5 as white and let black live in teh corner with minimum life and get superstrong outside.. 
xhu98: That will be featured in my "Fridays"
crodgers: xhu98, cool!
crodgers: also fun. From move 18: C4 C5 B5 
sousys: oh right .. b5.. 
crodgers: oops
crodgers: sousys, have you read fundamentals of go by yang?
sousys: no
crodgers: i don't know if i should tell you about it, i want to overtake you
]
;W[nf]
C[crodgers: but it's a great book
]
;B[mg]
C[mlopezviedma: Not that I do anything with it xD
sousys: haha
]
;W[pg]
;B[ph]
;W[nd]
C[asdf1234: yeah good book i like it
]
;B[jb]
;W[oe]
;B[ma]
C[asdf1234: maybe i should take it with me on vacation next week hehe
]
;W[nb]
;B[lh]
;W[nk]
;B[hq]
;W[me]
;B[rf]
;W[pe]
;B[mf]
;W[md]
;B[ld]
;W[og]
;B[ng]
;W[pf]
;B[fd]
C[Rikhon: i'm not sure but p19 s seems false eye to me 
mlopezviedma: Sorry, lights out
mlopezviedma: lost connection
crodgers: doesn't matter Rikhon
crodgers: oh wait, yes it does :P
]
;W[ge]
;B[dk]
;W[ck]
;B[bm]
C[Rikhon: i thought so ..
]
;W[cn]
;B[cm]
;W[fe]
C[mlopezviedma: Thanks for pausing :)
]
;B[rn]
;W[rm]
;B[qm]
C[Rikhon: ahh i noticed a bit late :(
]
;W[ro]
C[mlopezviedma: np!
xhu98: Now it's pretty hard for White to come back
]
;B[om]
;W[rl]
C[Rikhon: we can play pause for 22 mins i guess to make up ur rime
Rikhon: 2mins *
mlopezviedma: naah!
crodgers: yeah, hard for w here
]
;B[pn]
C[mlopezviedma: it's fine
]
;W[qo]
;B[po]
;W[qk]
;B[qp]
;W[sn]
;B[mm]
;W[ol]
;B[nn]
;W[pm]
;B[nm]
C[xhu98: Had a crazy idea. From move 91: S15 R15 S13 S16 R13 S12 T13 T14 T12 S11 T11 S10 T10 S9 T9 
]
;W[jp]
;B[jq]
;W[hp]
;B[ip]
;W[io]
;B[iq]
;W[gp]
;B[jo]
;W[jn]
;B[ko]
;W[kn]
;B[ln]
;W[hn]
;B[gr]
;W[fr]
;B[gl]
C[crodgers: whoa O_o
]
;W[jk]
;B[fn]
C[sousys: d1. From move 91: S15 R15 S13 R14 R13 S12 
sousys: doesnt this work then?
]
;W[ei]
;B[fj]
;W[fi]
;B[bn]
;W[bo]
;B[el]
;W[gj]
;B[fk]
;W[ih]
C[xhu98: Continuation. From move 91: S15 R15 S13 R14 R13 S12 S19 T18 T14 
]
;B[aj]
;W[bi]
C[xhu98: Now that White has captured two Black stones at Q7
]
;B[ao]
;W[ap]
C[xhu98: This escape is actually possible, I think
]
;B[an]
;W[bq]
;B[sp]
;W[so]
;B[bb]
;W[cl]
;B[ac]
;W[ad]
;B[ab]
;W[bd]
;B[fs]
;W[es]
;B[gs]
;W[er]
;B[gk]
;W[hj]
C[sousys: d2. From move 91: S15 R15 S13 R14 R13 S12 S19 T18 T14 T12 T13 S16 T15 P19 O19 T19 
]
;B[ri]
C[sousys: ko?  =)
]
;W[rj]
;B[ed]
;W[ee]
;B[gc]
;W[ai]
;B[hd]
;W[he]
;B[id]
C[Rikhon: please let ti pause and play
mlopezviedma: That's fine
Rikhon: hmm :(
mlopezviedma: Counting is enough :)
mlopezviedma: thanks for the game!
Rikhon: my fault didnt notice fast u were disconnected
mlopezviedma: please, don't worry
Rikhon: thanks for ur time and game :)
mlopezviedma: what an ugly game on my part :(
mlopezviedma: seems like I wasn't on the mood xD
Rikhon: XD
mlopezviedma: xhu review?
Rikhon: hai o/
xhu98: sousys yes
xhu98: But it's still a game-changer
sousys: yeah
xhu98: Not now, though
xhu98: Hey
xhu98: Sure no problem
]
)