(;FF[4]
CA[UTF-8]
GM[1]
DT[2017-02-17]
PC[OGS: https://online-go.com/game/7822801]
GN[Partida Maestra]
PB[Katriel]
PW[mlopezviedma]
BR[11k]
WR[7k]
TM[604800]OT[5x86400 byo-yomi]
RE[W+T]
SZ[19]
KM[6.5]
RU[Japanese]
C[mlopezviedma: Buen juego!
Katriel: Hola! Buen juego :)
]
;B[pd]
;W[dp]
;B[pp]
;W[dc]
;B[de]
;W[ce]
;B[cf]
;W[cd]
;B[dg]
;W[fc]
;B[ck]
;W[nq]
;B[qn]
;W[jp]
;B[cn]
;W[qf]
;B[qh]
;W[qc]
;B[qd]
;W[rd]
;B[re]
;W[rc]
;B[qe]
;W[pc]
;B[od]
;W[nc]
;B[nd]
;W[mc]
;B[fq]
;W[dn]
;B[cq]
;W[dq]
;B[cp]
;W[co]
;B[bo]
;W[do]
;B[bm]
;W[gn]
;B[lp]
;W[no]
;B[ln]
;W[nm]
;B[ll]
;W[pm]
;B[ql]
;W[qm]
;B[rm]
;W[pl]
;B[qk]
;W[pr]
;B[qq]
;W[lr]
;B[im]
;W[hp]
;B[gl]
;W[md]
)