(;FF[4]
CA[UTF-8]
GM[1]
DT[2017-02-19]
PC[OGS: https://online-go.com/game/7837833]
GN[ayuda ]
PB[oswaldoodavidal]
PW[mlopezviedma]
BR[23k]
WR[7k]
TM[1814400]OT[259200 fischer]
RE[W+T]
SZ[19]
KM[6.5]
RU[Japanese]
C[mlopezviedma: Buen juego! :)
]
;B[dd]
;W[pp]
;B[ep]
C[mlopezviedma: Oh, tra vez me equivoqué por culpa del teléfono :(
oswaldoodavidal: jajajja tranquilo
mlopezviedma: Gracias :)
]
;W[pd]
;B[hc]
;W[cp]
;B[gq]
;W[dn]
;B[pj]
;W[qn]
;B[pg]
;W[jp]
;B[ip]
;W[jn]
;B[jr]
;W[jq]
;B[iq]
;W[kr]
;B[jo]
;W[ko]
;B[io]
;W[kq]
C[oswaldoodavidal: no entiendo el sistema de puntuacion :( 
oswaldoodavidal: acabo de jugar un 9x9 y tenia mas territorio que mi oponente, pero cuando ambos pasamos, a el le dieron mas puntos de territorio
]
;B[js]
;W[ks]
C[mlopezviedma: cuál es el enlace de la partida?
oswaldoodavidal: https://online-go.com/game/7854167
]
;B[kn]
;W[lo]
C[mlopezviedma: cuándo tenías más territorio?
oswaldoodavidal: antes de que dieran la puntuacion yo tenia 26.5 y el 17
oswaldoodavidal: pero luego ambos pasamos
oswaldoodavidal: y el tenia mas de 30
]
;B[jm]
;W[dj]
C[mlopezviedma: te referís al botón "estimar puntaje" ?
oswaldoodavidal: si algo asi 
]
;B[cg]
C[mlopezviedma: Sí, es nada más que eso, un estimador. Nunca confíes ciegamente en esa herramienta. Lo mejor es contar manualmente
]
;W[in]
C[oswaldoodavidal: aah ok ok esta bien jajaaja
]
;B[hm]
;W[km]
C[mlopezviedma: :)
]
;B[ln]
;W[im]
;B[jl]
;W[il]
;B[kl]
;W[mn]
;B[lm]
;W[ik]
;B[nn]
;W[no]
;B[mm]
;W[mo]
;B[oo]
;W[op]
;B[np]
;W[nq]
;B[cq]
;W[dp]
;B[dq]
;W[nm]
;B[eo]
;W[cn]
;B[fq]
;W[qf]
;B[oe]
;W[od]
;B[pf]
;W[qe]
;B[on]
;W[om]
;B[pm]
;W[pn]
;B[qg]
;W[pl]
;B[di]
;W[cj]
;B[ch]
;W[cc]
)