(;FF[4]
CA[UTF-8]
GM[1]
DT[2017-03-01]
PC[OGS: https://online-go.com/game/7936602]
GN[Tournament Game: Monthly Simultaneous McMahon 2016-06-16 17:00 (17914) R:2 (sicvlad vs mlopezviedma)]
PB[mlopezviedma]
PW[sicvlad]
BR[6k]
WR[1k]
TM[259200]OT[86400 fischer]
RE[B+T]
SZ[19]
KM[6.5]
RU[Japanese]
C[mlopezviedma: Hi, have fun!
]
;B[pd]
C[mlopezviedma: Hi, have fun!
]
;W[dp]
;B[qp]
;W[dc]
;B[de]
;W[ce]
;B[cf]
;W[cd]
;B[dg]
;W[fc]
;B[ck]
;W[cm]
;B[oq]
;W[nc]
;B[pf]
;W[pb]
;B[fp]
;W[hq]
;B[jq]
;W[ho]
;B[fn]
;W[hm]
;B[fl]
;W[em]
;B[fm]
;W[dk]
;B[cj]
;W[dj]
;B[ci]
;W[hk]
;B[fj]
;W[hi]
;B[fh]
;W[fq]
;B[lp]
;W[qh]
;B[qj]
;W[oh]
;B[nf]
;W[ld]
;B[oj]
;W[mh]
;B[mj]
;W[lf]
;B[qg]
;W[qi]
;B[qc]
;W[mm]
;B[om]
;W[lq]
;B[mq]
;W[kq]
;B[kp]
;W[jr]
;B[jp]
;W[lr]
;B[mr]
;W[ir]
;B[km]
;W[ll]
;B[jk]
;W[lj]
;B[lk]
;W[mk]
;B[kk]
;W[nj]
;B[nk]
;W[mi]
;B[ok]
;W[rj]
;B[qk]
;W[rk]
;B[rl]
;W[mo]
;B[mp]
;W[ms]
;B[ns]
;W[ls]
;B[nr]
;W[gg]
;B[gc]
;W[fd]
;B[jc]
;W[hb]
;B[lb]
;W[jb]
;B[mc]
;W[md]
;B[nb]
;W[oc]
;B[nd]
;W[qb]
;B[rb]
)