(;FF[4]
CA[UTF-8]
GM[1]
DT[2017-05-28]
PC[OGS: https://online-go.com/game/8885760]
GN[Ladder Challenge: mlopezviedma(#87) vs redundant(#57)]
PB[redundant]
PW[mlopezviedma]
BR[5k]
WR[6k]
TM[259200]OT[86400 fischer]
RE[B+R]
SZ[19]
KM[6.5]
RU[Japanese]
C[mlopezviedma: Hello! Have fun!
]
;B[pd]
;W[dd]
;B[dp]
;W[pq]
;B[qo]
;W[np]
;B[lq]
;W[qp]
;B[po]
;W[qj]
;B[ql]
;W[qf]
;B[qh]
;W[rd]
;B[nc]
;W[oj]
;B[oh]
;W[of]
;B[mh]
;W[ol]
;B[no]
;W[mp]
;B[nm]
;W[ni]
;B[nh]
;W[qc]
;B[pk]
;W[pj]
;B[rk]
;W[ri]
;B[rh]
;W[lj]
;B[nk]
;W[mi]
;B[lh]
;W[ok]
;B[nl]
;W[lc]
;B[ne]
;W[nf]
;B[ld]
;W[lf]
;B[kc]
;W[kd]
;B[lb]
;W[le]
;B[md]
;W[ji]
;B[jh]
;W[ih]
;B[jg]
;W[je]
;B[kj]
;W[ki]
;B[li]
;W[mj]
;B[lg]
;W[me]
;B[if]
;W[ll]
;B[kk]
;W[ml]
;B[ln]
;W[km]
;B[kn]
;W[il]
;B[ik]
;W[hk]
;B[ij]
;W[ii]
;B[hj]
;W[hl]
;B[hg]
;W[gh]
;B[kl]
;W[lm]
;B[gj]
;W[gi]
;B[jm]
;W[jl]
;B[fj]
;W[nn]
;B[mn]
;W[on]
;B[om]
;W[oo]
;B[op]
;W[mo]
;B[pn]
;W[no]
;B[mm]
;W[ep]
;B[jn]
;W[jc]
;B[kb]
;W[ph]
;B[pi]
;W[pg]
;B[qi]
C[mlopezviedma: Thanks for the game!
]
)