(;FF[4]
CA[UTF-8]
GM[1]
DT[2017-06-20]
PC[OGS: https://online-go.com/game/9144423]
GN[Ladder Challenge: mlopezviedma(#75) vs charsiubau(#52)]
PB[mlopezviedma]
PW[charsiubau]
BR[6k]
WR[5k]
TM[259200]OT[86400 fischer]
RE[W+R]
SZ[19]
KM[6.5]
RU[Japanese]
C[mlopezviedma: Hi, enjoy the game!
]
;B[qd]
C[mlopezviedma: Hi, enjoy the game!
]
;W[cq]
C[charsiubau: Cheers!
]
;B[dd]
;W[pp]
;B[qn]
;W[np]
;B[pj]
;W[oc]
;B[ld]
;W[oe]
;B[pf]
;W[pd]
;B[qe]
;W[qc]
;B[nd]
;W[ne]
;B[me]
;W[ng]
;B[mf]
;W[og]
;B[pg]
;W[dj]
;B[iq]
;W[io]
;B[lq]
;W[rp]
;B[nr]
;W[or]
;B[oo]
;W[nq]
;B[mr]
;W[po]
;B[pn]
;W[on]
;B[om]
;W[nn]
;B[mo]
;W[no]
;B[fq]
;W[lp]
;B[kp]
;W[lo]
;B[ko]
;W[kn]
;B[ln]
;W[mp]
;B[jn]
;W[km]
;B[in]
;W[ho]
;B[fo]
;W[hn]
;B[il]
;W[jo]
;B[jl]
;W[gm]
;B[lm]
;W[kl]
;B[ll]
;W[kk]
;B[nl]
;W[kq]
;B[jp]
;W[lr]
;B[gk]
;W[lk]
;B[ml]
;W[jq]
;B[ip]
;W[fl]
;B[ij]
;W[hq]
;B[co]
;W[gr]
;B[gp]
;W[hp]
;B[fr]
;W[fd]
;B[cf]
;W[id]
;B[ig]
;W[kg]
;B[je]
;W[if]
;B[jf]
;W[jg]
;B[ih]
;W[hf]
;B[ei]
;W[ek]
;B[di]
;W[ec]
;B[dc]
;W[jd]
;B[mc]
;W[ke]
;B[kd]
;W[kf]
;B[jc]
;W[ic]
;B[jb]
;W[dp]
;B[do]
;W[ep]
;B[eo]
;W[dr]
;B[br]
;W[bq]
;B[cp]
;W[ar]
;B[bs]
;W[bp]
;B[bo]
;W[ap]
;B[cj]
;W[ck]
;B[bk]
;W[bj]
;B[cl]
;W[ci]
;B[dl]
;W[bl]
;B[bm]
;W[ak]
;B[an]
;W[em]
;B[gq]
;W[ir]
;B[gs]
;W[hr]
;B[dm]
;W[en]
;B[dn]
;W[cn]
;B[eq]
;W[dq]
;B[er]
;W[ds]
;B[es]
;W[cs]
C[mlopezviedma: Thanks for the game!
charsiubau: Thank you too.
]
)