(;FF[4]
CA[UTF-8]
GM[1]
DT[2017-06-23]
PC[OGS: https://online-go.com/game/9173041]
GN[Tournament Game: Correspondence 19x19 RoundRobin 2017-06-23 01:00 (28188) R:1 (BeefStroganoff vs mlopezviedma)]
PB[mlopezviedma]
PW[BeefStroganoff]
BR[8k]
WR[3k]
TM[259200]OT[86400 fischer]
RE[B+T]
SZ[19]
KM[6.5]
RU[Japanese]
C[mlopezviedma: Hi, enjoy the game
BeefStroganoff: Hi,have a good game
]
;B[pd]
C[mlopezviedma: Hi, enjoy the game
BeefStroganoff: Hi,have a good game
]
;W[dd]
;B[qp]
;W[dp]
;B[fq]
;W[cn]
;B[kq]
;W[qj]
;B[ql]
;W[qf]
;B[nc]
;W[rd]
;B[qc]
;W[qn]
;B[ol]
;W[pp]
;B[pq]
;W[qq]
;B[rp]
;W[rq]
;B[po]
;W[op]
;B[qo]
;W[oq]
;B[oo]
;W[mp]
;B[ko]
;W[ph]
;B[fc]
;W[df]
;B[jd]
;W[dj]
;B[cc]
;W[dc]
;B[db]
;W[cd]
;B[bb]
;W[bc]
;B[cb]
;W[ge]
;B[cl]
;W[cj]
;B[el]
;W[fo]
;B[gl]
;W[hn]
;B[hp]
;W[fj]
;B[il]
;W[jn]
;B[lm]
;W[ip]
;B[iq]
;W[jp]
;B[jq]
;W[gp]
;B[gq]
;W[ho]
;B[hq]
;W[jl]
;B[jk]
;W[kl]
;B[ik]
;W[im]
;B[ek]
;W[ej]
;B[hd]
;W[ii]
;B[kj]
;W[kh]
;B[mj]
;W[lc]
;B[ne]
;W[le]
;B[mg]
;W[li]
;B[lj]
;W[mi]
;B[ll]
;W[lg]
;B[ji]
;W[jh]
;B[ih]
;W[hi]
;B[ig]
;W[nj]
;B[nk]
;W[oj]
;B[hf]
;W[gf]
;B[gg]
)