(;FF[4]
CA[UTF-8]
GM[1]
DT[2017-08-16]
PC[OGS: https://online-go.com/game/9701874]
GN[Tournament Game: Correspondence 19x19 RoundRobin 2017-08-16 01:00 (29442) R:1 (HaroldJIncandenza vs mlopezviedma)]
PB[mlopezviedma]
PW[HaroldJIncandenza]
BR[8k]
WR[9k]
TM[259200]OT[86400 fischer]
RE[B+20.5]
SZ[19]
KM[6.5]
RU[Japanese]
C[mlopezviedma: Hello, have fun!
HaroldJIncandenza: gg wp
]
;B[pd]
C[HaroldJIncandenza: gg wp
]
;W[dd]
;B[qp]
;W[dp]
;B[fq]
;W[cn]
;B[lq]
;W[nc]
;B[pf]
;W[pb]
;B[qc]
;W[kc]
;B[cf]
;W[fc]
;B[ci]
;W[bd]
;B[pk]
;W[hq]
;B[fo]
;W[jq]
;B[lo]
;W[in]
;B[dr]
;W[cq]
;B[fm]
;W[ck]
;B[ej]
;W[pn]
;B[op]
;W[nm]
;B[lm]
;W[nk]
;B[oi]
;W[lk]
;B[jl]
;W[mi]
;B[hl]
;W[kr]
;B[lr]
;W[gr]
;B[fr]
;W[kn]
;B[ln]
;W[pq]
;B[qq]
;W[pp]
;B[po]
;W[oo]
;B[oq]
;W[qo]
;B[pr]
;W[no]
;B[hc]
;W[ib]
;B[ml]
;W[ni]
;B[nl]
;W[ql]
;B[ol]
;W[pm]
;B[qk]
;W[rl]
;B[rk]
;W[om]
;B[ip]
;W[jp]
;B[hp]
;W[gp]
;B[go]
;W[io]
;B[gq]
;W[ho]
;B[fp]
;W[hr]
;B[iq]
;W[ir]
;B[gp]
;W[ko]
;B[kp]
;W[kq]
;B[js]
;W[lp]
;B[mp]
;W[ks]
;B[kp]
;W[jm]
;B[jo]
;W[lp]
;B[mo]
;W[kp]
;B[ld]
;W[lc]
;B[nd]
;W[md]
;B[me]
;W[mc]
;B[ne]
;W[jj]
;B[kl]
;W[kd]
;B[ke]
;W[kg]
;B[ie]
;W[ig]
;B[gf]
;W[hi]
;B[gh]
;W[hh]
;B[hb]
;W[jc]
;B[oc]
;W[ob]
;B[qb]
;W[le]
;B[lf]
;W[je]
;B[kf]
;W[jf]
;B[lg]
;W[kh]
;B[cl]
;W[bl]
;B[dl]
;W[bm]
;B[dk]
;W[bj]
;B[cj]
;W[bk]
;B[cr]
;W[br]
;B[dq]
;W[cp]
;B[cc]
;W[dc]
;B[db]
;W[eb]
;B[cd]
;W[ce]
;B[be]
;W[de]
;B[bc]
;W[bf]
;B[ad]
;W[cb]
;B[bb]
;W[da]
;B[cg]
;W[fe]
;B[ge]
;W[gi]
;B[fh]
;W[oh]
;B[ph]
;W[oj]
;B[pi]
;W[og]
;B[ic]
;W[eg]
;B[eh]
;W[dg]
;B[dh]
;W[df]
;B[bg]
;W[pg]
;B[qg]
;W[of]
;B[pe]
;W[rp]
;B[rq]
;W[ro]
;B[nh]
;W[mg]
;B[lh]
;W[li]
;B[mh]
;W[mf]
;B[ld]
;W[fg]
;B[gg]
;W[ff]
;B[le]
;W[np]
;B[nq]
;W[nn]
;B[po]
;W[sk]
;B[sj]
;W[sl]
;B[ri]
;W[sq]
;B[sr]
;W[sp]
;B[rs]
;W[gk]
;B[hk]
;W[hj]
;B[gl]
;W[fk]
;B[fj]
;W[gj]
;B[em]
;W[ls]
;B[mr]
;W[ms]
;B[ns]
;W[il]
;B[ik]
;W[im]
;B[jk]
;W[ll]
;B[km]
;W[mk]
;B[jb]
;W[kb]
;B[ia]
;W[pj]
;B[qj]
;W[gb]
;B[gc]
;W[ga]
;B[ok]
;W[nj]
;B[bs]
;W[ar]
;B[ij]
;W[ji]
;B[ii]
;W[ih]
;B[pa]
;W[oa]
;B[qa]
;W[en]
;B[eo]
;W[do]
;B[fn]
;W[dn]
;B[pc]
;W[nb]
;B[bi]
;W[pp]
;B[gs]
;W[hs]
;B[fs]
;W[id]
;B[hd]
;W[jd]
;B[ba]
;W[ca]
;B[ep]
;W[ka]
;B[aj]
;W[ak]
;B[ai]
;W[if]
;B[he]
;W[bq]
;B[fi]
;W[ja]
;B[ib]
;W[kk]
;B[hm]
;W[hn]
;B[gn]
;W[jn]
;B[fd]
;W[ed]
;B[gd]
;W[ek]
;B[pq]
;W[po]
;B[cs]
;W[]
;B[]
C[mlopezviedma: Thanks for the game!
]
)