(;FF[4]
CA[UTF-8]
GM[1]
DT[2017-08-16]
PC[OGS: https://online-go.com/game/9701875]
GN[Tournament Game: Correspondence 19x19 RoundRobin 2017-08-16 01:00 (29442) R:1 (mtausan vs mlopezviedma)]
PB[mlopezviedma]
PW[mtausan]
BR[8k]
WR[9k]
TM[259200]OT[86400 fischer]
RE[W+R]
SZ[19]
KM[6.5]
RU[Japanese]
C[mlopezviedma: Hello, have fun!
]
;B[qd]
;W[dp]
;B[pq]
;W[dd]
;B[fc]
;W[df]
;B[lc]
;W[ec]
;B[fd]
;W[qo]
;B[np]
;W[pm]
;B[fq]
;W[eq]
;B[fp]
;W[dn]
;B[jp]
;W[qi]
;B[qg]
;W[ph]
;B[pg]
;W[oh]
;B[nm]
;W[nl]
;B[mm]
;W[ml]
;B[lm]
;W[oc]
;B[oe]
;W[qc]
;B[rc]
;W[pd]
;B[qb]
;W[pc]
;B[rd]
;W[pb]
;B[rb]
;W[pe]
;B[of]
;W[rf]
;B[re]
;W[qf]
;B[qa]
;W[md]
;B[mf]
;W[ld]
;B[kc]
;W[kd]
;B[jc]
;W[mc]
;B[kf]
;W[jd]
;B[id]
;W[ie]
;B[hd]
;W[jf]
;B[jg]
;W[ig]
;B[kg]
;W[ll]
;B[li]
;W[jj]
;B[ih]
;W[hg]
;B[hh]
;W[ji]
;B[jh]
;W[og]
;B[pf]
;W[qe]
;B[gg]
;W[gf]
;B[fg]
;W[ff]
;B[hf]
;W[if]
;B[he]
;W[je]
;B[eg]
;W[ef]
;B[cl]
;W[cm]
;B[el]
;W[fn]
;B[cq]
;W[cp]
;B[er]
;W[dq]
;B[dr]
;W[cr]
;B[rg]
;W[se]
;B[sa]
;W[lb]
;B[kb]
;W[mb]
;B[pa]
;W[oa]
;B[na]
;W[ka]
;B[ib]
;W[gh]
;B[gi]
;W[fh]
;B[eh]
;W[dh]
;B[ei]
;W[di]
;B[ej]
;W[fb]
;B[gb]
;W[eb]
;B[hc]
;W[nb]
;B[ob]
;W[ia]
;B[ha]
;W[oa]
;B[od]
;W[ma]
;B[nd]
;W[nc]
;B[jm]
;W[qq]
;B[qr]
;W[rq]
;B[pp]
;W[rr]
;B[om]
;W[ol]
;B[pn]
;W[qn]
;B[po]
;W[hl]
;B[ik]
;W[il]
;B[jl]
;W[jk]
;B[hj]
;W[gk]
;B[gm]
;W[fm]
;B[go]
;W[gn]
;B[hm]
;W[hn]
;B[im]
;W[ip]
;B[io]
;W[ho]
;B[hp]
;W[iq]
;B[hq]
;W[jq]
;B[jo]
;W[gr]
;B[fr]
;W[hr]
;B[kq]
;W[kr]
;B[lq]
;W[lr]
;B[mq]
;W[mr]
;B[nr]
;W[js]
;B[bq]
;W[br]
C[mlopezviedma: Thanks for the game!
]
)