(;FF[4]
CA[UTF-8]
GM[1]
DT[2017-08-16]
PC[OGS: https://online-go.com/game/9701873]
GN[Tournament Game: Correspondence 19x19 RoundRobin 2017-08-16 01:00 (29442) R:1 (mlopezviedma vs Draco23)]
PB[Draco23]
PW[mlopezviedma]
BR[6k]
WR[8k]
TM[259200]OT[86400 fischer]
RE[B+R]
SZ[19]
KM[6.5]
RU[Japanese]
C[mlopezviedma: Hello, have fun!
]
;B[pd]
C[mlopezviedma: Hello, have fun!
]
;W[dc]
;B[pp]
;W[dp]
;B[de]
;W[ce]
;B[cf]
;W[cd]
;B[dg]
;W[fc]
;B[ck]
;W[nq]
;B[fq]
;W[dn]
;B[jp]
;W[qn]
;B[pn]
;W[pm]
;B[on]
;W[qq]
;B[pq]
;W[pr]
;B[or]
;W[qr]
;B[oq]
;W[qp]
;B[qo]
;W[ro]
;B[po]
;W[rn]
;B[qk]
;W[qf]
;B[nd]
;W[qi]
;B[ok]
;W[rd]
;B[qc]
;W[hq]
;B[fo]
;W[ho]
;B[fm]
;W[hm]
;B[dr]
;W[cq]
;B[cr]
;W[br]
;B[gn]
;W[hn]
;B[co]
;W[ep]
;B[fp]
;W[en]
;B[bm]
;W[fn]
;B[go]
;W[gm]
;B[el]
;W[dl]
;B[dk]
;W[fl]
;B[ek]
;W[em]
;B[hr]
;W[iq]
;B[ir]
;W[jq]
;B[jr]
;W[kq]
;B[kr]
;W[lc]
;B[ic]
;W[nb]
;B[ob]
;W[le]
;B[lg]
;W[ie]
;B[he]
;W[hd]
;B[id]
;W[je]
;B[gd]
;W[hc]
;B[gc]
;W[hb]
;B[gb]
;W[ib]
;B[fd]
;W[ec]
;B[cb]
;W[db]
;B[bc]
;W[cc]
;B[bb]
;W[ca]
;B[ba]
;W[bd]
;B[ea]
;W[da]
;B[bf]
;W[ed]
;B[ee]
;W[ge]
;B[hf]
;W[fa]
;B[fb]
;W[eb]
;B[fe]
;W[ga]
;B[gk]
;W[fk]
;B[fj]
;W[gj]
;B[hk]
;W[gi]
;B[ij]
;W[ih]
;B[jg]
;W[ig]
;B[if]
;W[jf]
;B[hg]
;W[jh]
;B[kg]
;W[ki]
;B[hh]
;W[ej]
;B[fi]
;W[fh]
;B[ei]
;W[eh]
;B[di]
;W[gh]
;B[gf]
;W[jj]
;B[jk]
;W[kk]
;B[jl]
;W[nf]
;B[mh]
;W[nj]
;B[oh]
;W[oi]
;B[ph]
;W[qh]
;B[pf]
;W[nh]
;B[ng]
;W[og]
;B[ni]
;W[pg]
;B[of]
;W[qg]
;B[mf]
;W[pi]
;B[oj]
;W[nh]
;B[oh]
;W[mj]
;B[om]
C[mlopezviedma: Thanks for​the game!
]
)